;RAW4.00
[RawHeader]
Date=03/12/2019
EstimatedTotalTime=0
FurtherDQLReading=0
HardwareIndicator=65519
MeasuredTotalTime=0
MeasurementFlag=1
NumberOfMeasuredRanges=1
NumberOfRanges=1
Time=10:41:40

[HardwareConfiguration]
AbsorptionFactor=0
ActivateAbsorber=0
Alpha1=1.5406
Alpha2=1.54439
AlphaAverage=1.54184
AlphaRatio=0.5
Analyzer=0
Anode=Cu
AntiScatteringSlit=0.15
BeamOpticsFlags=32
Beta=1.39222
BetaRelativeIntensity=0
DeactivateAbsorber=0
DetectorSlit=1
DivergenceSlit=0.15
GoniometerControl=9999
GoniometerDiameter=600
GoniometerModel=257
GoniometerStage=6
Monochromator=0
NearSampleSlit=1
PrimarySollerSlit=1
SampleChanger=0
SecondSollerSlit=2
SynchronousAxis=0
ThinFilmAttachment=0.46
WaveUnit=A

[VarInfo]
Type=OSUSER
Flags=0
Value=Praktikum

[VarInfo]
Type=USER
Flags=0
Value=Uwe Klemradt

[VarInfo]
Type=SITE
Flags=0
Value=Aachen

[VarInfo]
Type=CREATOR
Flags=0
Value=XRD Commander

[RangeHeader]
ActuallyUsedLambda=1.5406
AdditionalDetectorMask=0
DataRecordLength=4
DelayTime=0
DisplayPlaneNumber=0
EstimatedScanTime=0
ExtraParametersMask=0
GeneratorCurrent=40
GeneratorVoltage=40
Increment=0.01
Increment3=0
NumberOfCompletedData=631
NumberOfCounts=1
NumberOfDetectors=1
NumberOfDrives=6
NumberOfEncoderDrives=0
NumberOfMeasuredData=631
NumberOfVaryingParameters=0
RangeStartTime=1086324736
RotationSpeed=0
ScanMode=0
ScanType=Unlocked Coupled
SimulatedMeasConditions=0
SlitChangerIn=9999
SmootingWidth=0
Start=3.7
Steps=631
SynchronousRotation=0
Time=3

[Drive]
DriveFlags=1
DriveName=Theta
DriveNumber=1
DriveOffset=0
OffsetIndex=0
OscillationAmplitude=0
OscillationSpeed=0
StartPosition=1.9604

[Drive]
DriveFlags=1
DriveName=2Theta
DriveNumber=2
DriveOffset=0
OffsetIndex=0
OscillationAmplitude=0
OscillationSpeed=0
StartPosition=3.7

[Drive]
DriveFlags=1
DriveName=Phi
DriveNumber=3
DriveOffset=0
OffsetIndex=0
OscillationAmplitude=0
OscillationSpeed=0
StartPosition=90

[Drive]
DriveFlags=1
DriveName=Chi
DriveNumber=4
DriveOffset=0
OffsetIndex=0
OscillationAmplitude=0
OscillationSpeed=0
StartPosition=-0.225

[Drive]
DriveFlags=0
DriveName=X-Drive
DriveNumber=5
DriveOffset=0
OffsetIndex=0
OscillationAmplitude=0
OscillationSpeed=0
StartPosition=0

[Drive]
DriveFlags=0
DriveName=Y-Drive
DriveNumber=6
DriveOffset=0
OffsetIndex=0
OscillationAmplitude=0
OscillationSpeed=0
StartPosition=6.241

[Detector]
AmplifierGain=3
ConstantDeadTime=0
DetectorFlags=256
DetectorName=Detector 1
DetectorNumber=1
DetectorType=1
Discriminator1LowerLevel=0.8
Discriminator1WindowWidth=1.4
Discriminator2LowerLevel=0
Discriminator2WindowWidth=0
HighVoltage=900
PileUpTime=0
PulseShaping=9999
TTLDetectorName=

[Data]
     Angle, Det1Disc1,
       3.7,    271860,
      3.71,    282422,
      3.72,    286575,
      3.73,    288078,
      3.74,    283066,
      3.75,    272984,
      3.76,    260002,
      3.77,    242000,
      3.78,    224739,
      3.79,    205110,
       3.8,    188455,
      3.81,    173928,
      3.82,    165230,
      3.83,    158940,
      3.84,    159089,
      3.85,    163463,
      3.86,    170410,
      3.87,    180608,
      3.88,    191102,
      3.89,    201108,
       3.9,    208214,
      3.91,    212554,
      3.92,    213591,
      3.93,    211212,
      3.94,    204541,
      3.95,    194375,
      3.96,    182169,
      3.97,    167157,
      3.98,    152529,
      3.99,    139381,
         4,    128682,
      4.01,    119424,
      4.02,    114979,
      4.03,    114656,
      4.04,    116815,
      4.05,    121783,
      4.06,    128552,
      4.07,    135931,
      4.08,    143715,
      4.09,    149836,
       4.1,    154034,
      4.11,    155201,
      4.12,    153530,
      4.13,    149533,
      4.14,    142743,
      4.15,    133726,
      4.16,    124317,
      4.17,    112664,
      4.18,    103202,
      4.19,     94260,
       4.2,     87214,
      4.21,     82969,
      4.22,     81511,
      4.23,     81986,
      4.24,     85002,
      4.25,     89583,
      4.26,     94309,
      4.27,    100436,
      4.28,    105065,
      4.29,    108186,
       4.3,    110149,
      4.31,    109846,
      4.32,    107121,
      4.33,    102488,
      4.34,     96554,
      4.35,     90115,
      4.36,     83160,
      4.37,     75599,
      4.38,     68843,
      4.39,     64172,
       4.4,     59796,
      4.41,     57989,
      4.42,     58008,
      4.43,     59311,
      4.44,     61602,
      4.45,     65215,
      4.46,     68819,
      4.47,     72598,
      4.48,     74876,
      4.49,     77608,
       4.5,     77568,
      4.51,     76810,
      4.52,     75006,
      4.53,     71107,
      4.54,     67114,
      4.55,     62278,
      4.56,     56998,
      4.57,     52386,
      4.58,     47986,
      4.59,     44298,
       4.6,     41902,
      4.61,     41331,
      4.62,     41779,
      4.63,     42732,
      4.64,     44662,
      4.65,     47084,
      4.66,     50154,
      4.67,     52237,
      4.68,     53543,
      4.69,     55039,
       4.7,     54970,
      4.71,     54534,
      4.72,     52436,
      4.73,     50245,
      4.74,     47011,
      4.75,     43786,
      4.76,     40490,
      4.77,     36923,
      4.78,     33861,
      4.79,     31878,
       4.8,     30430,
      4.81,     30283,
      4.82,     30107,
      4.83,     31395,
      4.84,     32275,
      4.85,     34375,
      4.86,     35555,
      4.87,     37558,
      4.88,     38698,
      4.89,     39421,
       4.9,     39308,
      4.91,     38341,
      4.92,     37959,
      4.93,     35563,
      4.94,     33982,
      4.95,     31614,
      4.96,     29371,
      4.97,     27067,
      4.98,     25278,
      4.99,     23734,
         5,     22661,
      5.01,     22441,
      5.02,     22553,
      5.03,     23385,
      5.04,     24064,
      5.05,     25399,
      5.06,     26207,
      5.07,     27066,
      5.08,     28283,
      5.09,     28936,
       5.1,     28704,
      5.11,     28487,
      5.12,     27619,
      5.13,     26938,
      5.14,     25620,
      5.15,     24155,
      5.16,     22546,
      5.17,     20948,
      5.18,     20031,
      5.19,     18847,
       5.2,     17868,
      5.21,     17667,
      5.22,     17514,
      5.23,     17867,
      5.24,     18222,
      5.25,     18915,
      5.26,     19944,
      5.27,     20541,
      5.28,     21142,
      5.29,     21813,
       5.3,     22167,
      5.31,     22419,
      5.32,     22022,
      5.33,     21401,
      5.34,     20611,
      5.35,     19600,
      5.36,     18703,
      5.37,     17650,
      5.38,     16165,
      5.39,     15314,
       5.4,     14813,
      5.41,     14190,
      5.42,     13746,
      5.43,     13916,
      5.44,     14204,
      5.45,     14951,
      5.46,     15374,
      5.47,     16374,
      5.48,     16804,
      5.49,     17535,
       5.5,     17964,
      5.51,     17972,
      5.52,     17866,
      5.53,     17464,
      5.54,     17193,
      5.55,     16469,
      5.56,     15739,
      5.57,     14497,
      5.58,     13765,
      5.59,     12893,
       5.6,     12062,
      5.61,     11701,
      5.62,     11376,
      5.63,     11669,
      5.64,     11736,
      5.65,     12107,
      5.66,     12511,
      5.67,     13016,
      5.68,     13929,
      5.69,     14572,
       5.7,     14868,
      5.71,     14947,
      5.72,     15059,
      5.73,     15099,
      5.74,     14717,
      5.75,     13955,
      5.76,     13462,
      5.77,     12510,
      5.78,     11786,
      5.79,     11082,
       5.8,     10276,
      5.81,     10070,
      5.82,      9676,
      5.83,      9655,
      5.84,      9880,
      5.85,     10129,
      5.86,     10535,
      5.87,     11180,
      5.88,     11904,
      5.89,     12387,
       5.9,     12567,
      5.91,     13120,
      5.92,     13214,
      5.93,     12921,
      5.94,     13054,
      5.95,     12400,
      5.96,     11505,
      5.97,     10960,
      5.98,     10275,
      5.99,      9548,
         6,      9082,
      6.01,      8549,
      6.02,      8375,
      6.03,      8393,
      6.04,      8399,
      6.05,      8883,
      6.06,      9116,
      6.07,      9941,
      6.08,     10118,
      6.09,     10713,
       6.1,     11289,
      6.11,     11602,
      6.12,     11606,
      6.13,     11674,
      6.14,     11353,
      6.15,     10984,
      6.16,     10081,
      6.17,      9635,
      6.18,      8945,
      6.19,      8479,
       6.2,      7771,
      6.21,      7515,
      6.22,      7408,
      6.23,      7301,
      6.24,      7289,
      6.25,      7629,
      6.26,      8055,
      6.27,      8565,
      6.28,      9093,
      6.29,      9567,
       6.3,      9644,
      6.31,     10182,
      6.32,     10235,
      6.33,      9871,
      6.34,      9876,
      6.35,      9438,
      6.36,      8880,
      6.37,      8288,
      6.38,      7820,
      6.39,      7218,
       6.4,      6832,
      6.41,      6654,
      6.42,      6464,
      6.43,      6287,
      6.44,      6673,
      6.45,      6931,
      6.46,      7240,
      6.47,      7722,
      6.48,      8109,
      6.49,      8374,
       6.5,      8791,
      6.51,      8712,
      6.52,      8851,
      6.53,      8892,
      6.54,      8581,
      6.55,      8252,
      6.56,      7733,
      6.57,      7234,
      6.58,      6725,
      6.59,      6428,
       6.6,      6013,
      6.61,      5780,
      6.62,      5675,
      6.63,      5706,
      6.64,      5802,
      6.65,      5950,
      6.66,      6383,
      6.67,      6641,
      6.68,      7050,
      6.69,      7419,
       6.7,      7475,
      6.71,      7496,
      6.72,      7604,
      6.73,      7527,
      6.74,      7330,
      6.75,      7000,
      6.76,      6603,
      6.77,      6328,
      6.78,      5955,
      6.79,      5435,
       6.8,      5149,
      6.81,      5054,
      6.82,      5034,
      6.83,      5119,
      6.84,      5312,
      6.85,      5360,
      6.86,      5547,
      6.87,      5963,
      6.88,      6328,
      6.89,      6410,
       6.9,      6508,
      6.91,      6731,
      6.92,      6556,
      6.93,      6552,
      6.94,      6194,
      6.95,      5999,
      6.96,      5619,
      6.97,      5173,
      6.98,      5037,
      6.99,      4797,
         7,      4655,
      7.01,      4569,
      7.02,      4456,
      7.03,      4472,
      7.04,      4570,
      7.05,      4834,
      7.06,      4969,
      7.07,      5310,
      7.08,      5298,
      7.09,      5443,
       7.1,      5591,
      7.11,      5501,
      7.12,      5614,
      7.13,      5415,
      7.14,      5049,
      7.15,      5082,
      7.16,      4711,
      7.17,      4500,
      7.18,      4338,
      7.19,      4050,
       7.2,      4040,
      7.21,      3784,
      7.22,      3738,
      7.23,      3973,
      7.24,      4075,
      7.25,      4208,
      7.26,      4236,
      7.27,      4585,
      7.28,      4500,
      7.29,      4775,
       7.3,      4775,
      7.31,      4834,
      7.32,      4797,
      7.33,      4725,
      7.34,      4442,
      7.35,      4266,
      7.36,      4086,
      7.37,      3920,
      7.38,      3700,
      7.39,      3531,
       7.4,      3468,
      7.41,      3359,
      7.42,      3427,
      7.43,      3432,
      7.44,      3456,
      7.45,      3584,
      7.46,      3735,
      7.47,      3834,
      7.48,      3871,
      7.49,      4015,
       7.5,      4028,
      7.51,      3932,
      7.52,      4095,
      7.53,      3815,
      7.54,      3776,
      7.55,      3532,
      7.56,      3541,
      7.57,      3322,
      7.58,      3168,
      7.59,      3054,
       7.6,      2927,
      7.61,      2950,
      7.62,      2895,
      7.63,      2876,
      7.64,      2984,
      7.65,      3133,
      7.66,      3044,
      7.67,      3288,
      7.68,      3279,
      7.69,      3430,
       7.7,      3400,
      7.71,      3370,
      7.72,      3287,
      7.73,      3285,
      7.74,      3066,
      7.75,      3014,
      7.76,      2847,
      7.77,      2875,
      7.78,      2770,
      7.79,      2583,
       7.8,      2635,
      7.81,      2490,
      7.82,      2404,
      7.83,      2524,
      7.84,      2622,
      7.85,      2651,
      7.86,      2728,
      7.87,      2803,
      7.88,      2752,
      7.89,      2844,
       7.9,      2829,
      7.91,      2861,
      7.92,      2815,
      7.93,      2709,
      7.94,      2716,
      7.95,      2693,
      7.96,      2432,
      7.97,      2348,
      7.98,      2270,
      7.99,      2180,
         8,      2142,
      8.01,      2106,
      8.02,      2092,
      8.03,      2216,
      8.04,      2284,
      8.05,      2330,
      8.06,      2331,
      8.07,      2412,
      8.08,      2480,
      8.09,      2521,
       8.1,      2395,
      8.11,      2440,
      8.12,      2273,
      8.13,      2373,
      8.14,      2226,
      8.15,      2310,
      8.16,      2070,
      8.17,      2031,
      8.18,      2013,
      8.19,      1941,
       8.2,      1883,
      8.21,      1946,
      8.22,      1884,
      8.23,      1861,
      8.24,      1916,
      8.25,      1943,
      8.26,      2028,
      8.27,      2066,
      8.28,      2097,
      8.29,      2034,
       8.3,      2030,
      8.31,      2086,
      8.32,      2021,
      8.33,      2009,
      8.34,      1891,
      8.35,      1869,
      8.36,      1884,
      8.37,      1774,
      8.38,      1751,
      8.39,      1678,
       8.4,      1663,
      8.41,      1701,
      8.42,      1614,
      8.43,      1671,
      8.44,      1745,
      8.45,      1620,
      8.46,      1703,
      8.47,      1761,
      8.48,      1752,
      8.49,      1763,
       8.5,      1813,
      8.51,      1744,
      8.52,      1732,
      8.53,      1705,
      8.54,      1663,
      8.55,      1603,
      8.56,      1570,
      8.57,      1512,
      8.58,      1502,
      8.59,      1479,
       8.6,      1464,
      8.61,      1453,
      8.62,      1422,
      8.63,      1442,
      8.64,      1516,
      8.65,      1470,
      8.66,      1496,
      8.67,      1483,
      8.68,      1508,
      8.69,      1533,
       8.7,      1563,
      8.71,      1596,
      8.72,      1472,
      8.73,      1488,
      8.74,      1419,
      8.75,      1352,
      8.76,      1371,
      8.77,      1413,
      8.78,      1350,
      8.79,      1353,
       8.8,      1324,
      8.81,      1340,
      8.82,      1286,
      8.83,      1309,
      8.84,      1317,
      8.85,      1296,
      8.86,      1331,
      8.87,      1320,
      8.88,      1281,
      8.89,      1318,
       8.9,      1295,
      8.91,      1325,
      8.92,      1285,
      8.93,      1354,
      8.94,      1305,
      8.95,      1297,
      8.96,      1221,
      8.97,      1238,
      8.98,      1227,
      8.99,      1165,
         9,      1175,
      9.01,      1149,
      9.02,      1196,
      9.03,      1144,
      9.04,      1201,
      9.05,      1203,
      9.06,      1226,
      9.07,      1203,
      9.08,      1150,
      9.09,      1186,
       9.1,      1200,
      9.11,      1190,
      9.12,      1129,
      9.13,      1153,
      9.14,      1098,
      9.15,      1122,
      9.16,      1093,
      9.17,      1138,
      9.18,      1067,
      9.19,      1062,
       9.2,      1069,
      9.21,      1141,
      9.22,      1086,
      9.23,      1068,
      9.24,      1045,
      9.25,      1043,
      9.26,      1046,
      9.27,      1089,
      9.28,      1168,
      9.29,      1093,
       9.3,      1006,
      9.31,      1073,
      9.32,      1097,
      9.33,      1071,
      9.34,      1045,
      9.35,      1030,
      9.36,      1030,
      9.37,      1011,
      9.38,      1024,
      9.39,      1076,
       9.4,      1022,
      9.41,      1020,
      9.42,      1018,
      9.43,      1004,
      9.44,       982,
      9.45,       979,
      9.46,      1043,
      9.47,       986,
      9.48,       988,
      9.49,      1000,
       9.5,      1023,
      9.51,       962,
      9.52,       938,
      9.53,      1010,
      9.54,       979,
      9.55,       972,
      9.56,       971,
      9.57,       940,
      9.58,       894,
      9.59,       961,
       9.6,       999,
      9.61,       919,
      9.62,       963,
      9.63,       930,
      9.64,       894,
      9.65,       878,
      9.66,       985,
      9.67,       953,
      9.68,       915,
      9.69,       915,
       9.7,       903,
      9.71,       887,
      9.72,       901,
      9.73,       933,
      9.74,       888,
      9.75,       912,
      9.76,       903,
      9.77,       833,
      9.78,       907,
      9.79,       879,
       9.8,       833,
      9.81,       964,
      9.82,       882,
      9.83,       877,
      9.84,       909,
      9.85,       951,
      9.86,       897,
      9.87,       872,
      9.88,       897,
      9.89,       895,
       9.9,       950,
      9.91,       888,
      9.92,       880,
      9.93,       871,
      9.94,       874,
      9.95,       880,
      9.96,       886,
      9.97,       901,
      9.98,       846,
      9.99,       830,
        10,       868,
