<?xml version="1.0" encoding="UTF-8" standalone="no"?>
<!-- Created with Inkscape (http://www.inkscape.org/) -->

<svg
   xmlns:dc="http://purl.org/dc/elements/1.1/"
   xmlns:cc="http://creativecommons.org/ns#"
   xmlns:rdf="http://www.w3.org/1999/02/22-rdf-syntax-ns#"
   xmlns:svg="http://www.w3.org/2000/svg"
   xmlns="http://www.w3.org/2000/svg"
   xmlns:sodipodi="http://sodipodi.sourceforge.net/DTD/sodipodi-0.dtd"
   xmlns:inkscape="http://www.inkscape.org/namespaces/inkscape"
   width="600mm"
   height="600mm"
   viewBox="0 0 600 600"
   version="1.1"
   id="SVGRoot"
   inkscape:version="0.92.1 r15371"
   sodipodi:docname="Anisotropien.svg">
  <sodipodi:namedview
     id="base"
     pagecolor="#ffffff"
     bordercolor="#666666"
     borderopacity="1.0"
     inkscape:pageopacity="0.0"
     inkscape:pageshadow="2"
     inkscape:zoom="0.159649"
     inkscape:cx="1148.5351"
     inkscape:cy="649.02764"
     inkscape:document-units="mm"
     inkscape:current-layer="layer1"
     showgrid="false"
     inkscape:window-width="1908"
     inkscape:window-height="518"
     inkscape:window-x="6"
     inkscape:window-y="556"
     inkscape:window-maximized="0" />
  <defs
     id="defs865" />
  <metadata
     id="metadata868">
    <rdf:RDF>
      <cc:Work
         rdf:about="">
        <dc:format>image/svg+xml</dc:format>
        <dc:type
           rdf:resource="http://purl.org/dc/dcmitype/StillImage" />
        <dc:title></dc:title>
      </cc:Work>
    </rdf:RDF>
  </metadata>
  <g
     id="layer1"
     inkscape:groupmode="layer"
     inkscape:label="Layer 1">
    <g
       id="g322"
       transform="matrix(3.0337254,0,0,3.0489465,-940.8962,1257.2515)">
      <path
         d="M 341.051,-301.127 H 312.54 v 16.997 h 28.511 z m 39.699,0 h -39.88 v 16.997 h 39.88 z m 22.556,0 h -22.737 v 16.997 h 22.737 z m 22.617,0 h -22.797 v 16.997 h 22.797 z m 39.639,0 h -39.819 v 16.997 h 39.819 z m 39.639,0 h -39.819 v 16.997 h 39.819 z"
         style="fill:none;stroke:#000000;stroke-width:0.72000003;stroke-linecap:round;stroke-linejoin:miter;stroke-miterlimit:10;stroke-dasharray:none;stroke-opacity:1"
         id="path324"
         inkscape:connector-curvature="0" />
    </g>
    <g
       id="g326"
       transform="matrix(3.0337254,0,0,3.0489465,-940.8962,1257.2515)">
      <path
         d="m 325.773,-294.364 v 8.619"
         style="fill:none;stroke:#000000;stroke-width:0.72000003;stroke-linecap:round;stroke-linejoin:round;stroke-miterlimit:10;stroke-dasharray:none;stroke-opacity:1"
         id="path328"
         inkscape:connector-curvature="0" />
    </g>
    <g
       id="g330"
       transform="matrix(3.0337254,0,0,3.0489465,-940.8962,1257.2515)">
      <path
         d="m 323.367,-293.646 h 4.812 l -2.406,-3.411 z"
         style="fill:#000000;fill-opacity:1;fill-rule:evenodd;stroke:#000000;stroke-width:0.23999999;stroke-linecap:round;stroke-linejoin:round;stroke-miterlimit:10;stroke-dasharray:none;stroke-opacity:1"
         id="path332"
         inkscape:connector-curvature="0" />
    </g>
    <g
       id="g334"
       transform="matrix(3.0337254,0,0,3.0489465,-940.8962,1257.2515)">
      <path
         d="m 360.119,-294.364 v 8.619"
         style="fill:none;stroke:#000000;stroke-width:0.72000003;stroke-linecap:round;stroke-linejoin:round;stroke-miterlimit:10;stroke-dasharray:none;stroke-opacity:1"
         id="path336"
         inkscape:connector-curvature="0" />
    </g>
    <g
       id="g338"
       transform="matrix(3.0337254,0,0,3.0489465,-940.8962,1257.2515)">
      <path
         d="m 357.713,-293.646 h 4.571 l -2.165,-3.411 z"
         style="fill:#000000;fill-opacity:1;fill-rule:evenodd;stroke:#000000;stroke-width:0.23999999;stroke-linecap:round;stroke-linejoin:round;stroke-miterlimit:10;stroke-dasharray:none;stroke-opacity:1"
         id="path340"
         inkscape:connector-curvature="0" />
    </g>
    <g
       id="g342"
       transform="matrix(3.0337254,0,0,3.0489465,-940.8962,1257.2515)">
      <path
         d="m 391.337,-297.057 v 8.678"
         style="fill:none;stroke:#000000;stroke-width:0.72000003;stroke-linecap:round;stroke-linejoin:round;stroke-miterlimit:10;stroke-dasharray:none;stroke-opacity:1"
         id="path344"
         inkscape:connector-curvature="0" />
    </g>
    <g
       id="g346"
       transform="matrix(3.0337254,0,0,3.0489465,-940.8962,1257.2515)">
      <path
         d="m 393.743,-289.336 h -4.812 l 2.406,3.591 z"
         style="fill:#000000;fill-opacity:1;fill-rule:evenodd;stroke:#000000;stroke-width:0.23999999;stroke-linecap:round;stroke-linejoin:round;stroke-miterlimit:10;stroke-dasharray:none;stroke-opacity:1"
         id="path348"
         inkscape:connector-curvature="0" />
    </g>
    <g
       id="g350"
       transform="matrix(3.0337254,0,0,3.0489465,-940.8962,1257.2515)">
      <path
         d="m 414.194,-294.364 v 8.619"
         style="fill:none;stroke:#000000;stroke-width:0.72000003;stroke-linecap:round;stroke-linejoin:round;stroke-miterlimit:10;stroke-dasharray:none;stroke-opacity:1"
         id="path352"
         inkscape:connector-curvature="0" />
    </g>
    <g
       id="g354"
       transform="matrix(3.0337254,0,0,3.0489465,-940.8962,1257.2515)">
      <path
         d="m 411.788,-293.646 h 4.812 l -2.406,-3.411 z"
         style="fill:#000000;fill-opacity:1;fill-rule:evenodd;stroke:#000000;stroke-width:0.23999999;stroke-linecap:round;stroke-linejoin:round;stroke-miterlimit:10;stroke-dasharray:none;stroke-opacity:1"
         id="path356"
         inkscape:connector-curvature="0" />
    </g>
    <g
       id="g358"
       transform="matrix(3.0337254,0,0,3.0489465,-940.8962,1257.2515)">
      <path
         d="m 445.652,-297.057 v 8.678"
         style="fill:none;stroke:#000000;stroke-width:0.72000003;stroke-linecap:round;stroke-linejoin:round;stroke-miterlimit:10;stroke-dasharray:none;stroke-opacity:1"
         id="path360"
         inkscape:connector-curvature="0" />
    </g>
    <g
       id="g362"
       transform="matrix(3.0337254,0,0,3.0489465,-940.8962,1257.2515)">
      <path
         d="m 448.058,-289.336 h -4.812 l 2.406,3.591 z"
         style="fill:#000000;fill-opacity:1;fill-rule:evenodd;stroke:#000000;stroke-width:0.23999999;stroke-linecap:round;stroke-linejoin:round;stroke-miterlimit:10;stroke-dasharray:none;stroke-opacity:1"
         id="path364"
         inkscape:connector-curvature="0" />
    </g>
    <g
       id="g366"
       transform="matrix(3.0337254,0,0,3.0489465,-940.8962,1257.2515)">
      <path
         d="m 485.592,-294.364 v 8.619"
         style="fill:none;stroke:#000000;stroke-width:0.72000003;stroke-linecap:round;stroke-linejoin:round;stroke-miterlimit:10;stroke-dasharray:none;stroke-opacity:1"
         id="path368"
         inkscape:connector-curvature="0" />
    </g>
    <g
       id="g370"
       transform="matrix(3.0337254,0,0,3.0489465,-940.8962,1257.2515)">
      <path
         d="m 483.186,-293.646 h 4.812 l -2.406,-3.411 z"
         style="fill:#000000;fill-opacity:1;fill-rule:evenodd;stroke:#000000;stroke-width:0.23999999;stroke-linecap:round;stroke-linejoin:round;stroke-miterlimit:10;stroke-dasharray:none;stroke-opacity:1"
         id="path372"
         inkscape:connector-curvature="0" />
    </g>
    <g
       id="g374"
       transform="matrix(3.0337254,0,0,3.0489465,-940.8962,1257.2515)">
      <path
         d="M 346.826,-350.324 H 312.54 v 17.177 h 34.286 z m 45.172,0 h -45.353 v 17.177 h 45.353 z m 17.083,0 h -17.263 v 17.177 h 17.263 z m 28.09,0 H 408.9 v 17.177 h 28.271 z m 45.473,0 H 436.99 v 17.177 h 45.654 z m 22.557,0 h -22.737 v 17.177 h 22.737 z"
         style="fill:none;stroke:#000000;stroke-width:0.72000003;stroke-linecap:round;stroke-linejoin:miter;stroke-miterlimit:10;stroke-dasharray:none;stroke-opacity:1"
         id="path376"
         inkscape:connector-curvature="0" />
    </g>
    <g
       id="g378"
       transform="matrix(3.0337254,0,0,3.0489465,-940.8962,1257.2515)">
      <path
         d="m 320.48,-342.184 h 20.15"
         style="fill:none;stroke:#000000;stroke-width:0.72000003;stroke-linecap:round;stroke-linejoin:round;stroke-miterlimit:10;stroke-dasharray:none;stroke-opacity:1"
         id="path380"
         inkscape:connector-curvature="0" />
    </g>
    <g
       id="g382"
       transform="matrix(3.0337254,0,0,3.0489465,-940.8962,1257.2515)">
      <path
         d="m 321.442,-339.79 v -4.788 l -3.609,2.394 z"
         style="fill:#000000;fill-opacity:1;fill-rule:evenodd;stroke:#000000;stroke-width:0.23999999;stroke-linecap:round;stroke-linejoin:round;stroke-miterlimit:10;stroke-dasharray:none;stroke-opacity:1"
         id="path384"
         inkscape:connector-curvature="0" />
    </g>
    <g
       id="g386"
       transform="matrix(3.0337254,0,0,3.0489465,-940.8962,1257.2515)">
      <path
         d="m 351.457,-342.184 h 34.586"
         style="fill:none;stroke:#000000;stroke-width:0.72000003;stroke-linecap:round;stroke-linejoin:round;stroke-miterlimit:10;stroke-dasharray:none;stroke-opacity:1"
         id="path388"
         inkscape:connector-curvature="0" />
    </g>
    <g
       id="g390"
       transform="matrix(3.0337254,0,0,3.0489465,-940.8962,1257.2515)">
      <path
         d="m 385.081,-344.578 v 4.788 l 3.368,-2.394 z"
         style="fill:#000000;fill-opacity:1;fill-rule:evenodd;stroke:#000000;stroke-width:0.23999999;stroke-linecap:round;stroke-linejoin:round;stroke-miterlimit:10;stroke-dasharray:none;stroke-opacity:1"
         id="path392"
         inkscape:connector-curvature="0" />
    </g>
    <g
       id="g394"
       transform="matrix(3.0337254,0,0,3.0489465,-940.8962,1257.2515)">
      <path
         d="m 397.111,-342.184 h 6.015"
         style="fill:none;stroke:#000000;stroke-width:0.72000003;stroke-linecap:round;stroke-linejoin:round;stroke-miterlimit:10;stroke-dasharray:none;stroke-opacity:1"
         id="path396"
         inkscape:connector-curvature="0" />
    </g>
    <g
       id="g398"
       transform="matrix(3.0337254,0,0,3.0489465,-940.8962,1257.2515)">
      <path
         d="m 402.164,-344.578 v 4.788 l 3.609,-2.394 z"
         style="fill:#000000;fill-opacity:1;fill-rule:evenodd;stroke:#000000;stroke-width:0.23999999;stroke-linecap:round;stroke-linejoin:round;stroke-miterlimit:10;stroke-dasharray:none;stroke-opacity:1"
         id="path400"
         inkscape:connector-curvature="0" />
    </g>
    <g
       id="g402"
       transform="matrix(3.0337254,0,0,3.0489465,-940.8962,1257.2515)">
      <path
         d="m 416.84,-342.184 h 17.323"
         style="fill:none;stroke:#000000;stroke-width:0.72000003;stroke-linecap:round;stroke-linejoin:round;stroke-miterlimit:10;stroke-dasharray:none;stroke-opacity:1"
         id="path404"
         inkscape:connector-curvature="0" />
    </g>
    <g
       id="g406"
       transform="matrix(3.0337254,0,0,3.0489465,-940.8962,1257.2515)">
      <path
         d="m 417.803,-339.79 v -4.788 l -3.609,2.394 z"
         style="fill:#000000;fill-opacity:1;fill-rule:evenodd;stroke:#000000;stroke-width:0.23999999;stroke-linecap:round;stroke-linejoin:round;stroke-miterlimit:10;stroke-dasharray:none;stroke-opacity:1"
         id="path408"
         inkscape:connector-curvature="0" />
    </g>
    <g
       id="g410"
       transform="matrix(3.0337254,0,0,3.0489465,-940.8962,1257.2515)">
      <path
         d="m 445.412,-342.184 h 31.759"
         style="fill:none;stroke:#000000;stroke-width:0.72000003;stroke-linecap:round;stroke-linejoin:round;stroke-miterlimit:10;stroke-dasharray:none;stroke-opacity:1"
         id="path412"
         inkscape:connector-curvature="0" />
    </g>
    <g
       id="g414"
       transform="matrix(3.0337254,0,0,3.0489465,-940.8962,1257.2515)">
      <path
         d="m 446.374,-339.79 v -4.788 l -3.609,2.394 z"
         style="fill:#000000;fill-opacity:1;fill-rule:evenodd;stroke:#000000;stroke-width:0.23999999;stroke-linecap:round;stroke-linejoin:round;stroke-miterlimit:10;stroke-dasharray:none;stroke-opacity:1"
         id="path416"
         inkscape:connector-curvature="0" />
    </g>
    <g
       id="g418"
       transform="matrix(3.0337254,0,0,3.0489465,-940.8962,1257.2515)">
      <path
         d="m 485.592,-342.184 h 11.729"
         style="fill:none;stroke:#000000;stroke-width:0.72000003;stroke-linecap:round;stroke-linejoin:round;stroke-miterlimit:10;stroke-dasharray:none;stroke-opacity:1"
         id="path420"
         inkscape:connector-curvature="0" />
    </g>
    <g
       id="g422"
       transform="matrix(3.0337254,0,0,3.0489465,-940.8962,1257.2515)">
      <path
         d="m 496.359,-344.578 v 4.788 l 3.609,-2.394 z"
         style="fill:#000000;fill-opacity:1;fill-rule:evenodd;stroke:#000000;stroke-width:0.23999999;stroke-linecap:round;stroke-linejoin:round;stroke-miterlimit:10;stroke-dasharray:none;stroke-opacity:1"
         id="path424"
         inkscape:connector-curvature="0" />
    </g>
    <text
       y="288.40244"
       x="167.67062"
       style="font-variant:normal;font-weight:normal;font-stretch:normal;font-size:30.75642014px;font-family:Arial;-inkscape-font-specification:ArialMT;writing-mode:lr-tb;fill:#000000;fill-opacity:1;fill-rule:nonzero;stroke:none;stroke-width:3.04133558"
       id="text430">
      <tspan
         style="stroke-width:3.04133558"
         x="167.67062 174.95078 191.73471 201.93643 218.7204 225.81583 242.59949 259.38333 276.16727 284.93277 305.37634 322.16031 329.44037 344.04037 360.82422 369.58063 379.78241 396.38162 413.16553 420.44556"
         y="288.40244"
         sodipodi:role="line"
         id="tspan426">in-plane Anisotropie</tspan>
      <tspan
         style="stroke-width:3.04133558"
         x="139.92854 156.7122 173.49614 182.25246 192.45427 209.23819 218.73253 228.78059 245.56453 252.84467 269.62833 286.4122 303.1958 311.96133 332.40524 349.18918 356.46896 371.06918 387.66843 396.42477 406.62653 423.41043 440.19406 447.47418"
         y="440.03143"
         sodipodi:role="line"
         id="tspan428">out-of-plane Anisotropie</tspan>
    </text>
  </g>
</svg>
