Record Length,2.500000e+03,,  -0.000090000000,   0.04000,
Sample Interval,1.000000e-06,,  -0.000089000000,   0.04000,
Trigger Point,9.000000000000e+01,,  -0.000088000000,   0.02000,
,,,  -0.000087000000,   0.02000,
,,,  -0.000086000000,   0.02000,
,,,  -0.000085000000,   0.04000,
Source,CH1,,  -0.000084000000,   0.02000,
Vertical Units,V,,  -0.000083000000,   0.00000,
Vertical Scale,5.000000e-01,,  -0.000082000000,   0.02000,
Vertical Offset,1.320000e+00,,  -0.000081000000,   0.00000,
Horizontal Units,s,,  -0.000080000000,   0.02000,
Horizontal Scale,2.500000e-04,,  -0.000079000000,   0.04000,
Pt Fmt,Y,,  -0.000078000000,   0.02000,
Yzero,0.000000e+00,,  -0.000077000000,   0.02000,
Probe Atten,1.000000e+00,,  -0.000076000000,   0.02000,
Model Number,TDS2014B,,  -0.000075000000,   0.02000,
Serial Number,C043245,,  -0.000074000000,   0.02000,
Firmware Version,FV:v22.01,,  -0.000073000000,   0.02000,
,,,-00.000072000000,   0.02000,
,,,-00.000071000000,   0.02000,
,,,-00.000070000000,   0.04000,
,,,-00.000069000000,   0.00000,
,,,-00.000068000000,   0.02000,
,,,-00.000067000000,   0.00000,
,,,-00.000066000000,   0.02000,
,,,-00.000065000000,   0.02000,
,,,-00.000064000000,   0.04000,
,,,-00.000063000000,   0.02000,
,,,-00.000062000000,   0.02000,
,,,-00.000061000000,   0.00000,
,,,-00.000060000000,   0.04000,
,,,-00.000059000000,   0.04000,
,,,-00.000058000000,   0.02000,
,,,-00.000057000000,   0.02000,
,,,-00.000056000000,   0.02000,
,,,-00.000055000000,   0.02000,
,,,-00.000054000000,   0.02000,
,,,-00.000053000000,   0.04000,
,,,-00.000052000000,   0.02000,
,,,-00.000051000000,   0.02000,
,,,-00.000050000000,   0.02000,
,,,-00.000049000000,   0.02000,
,,,-00.000048000000,   0.02000,
,,,-00.000047000000,   0.02000,
,,,-00.000046000000,   0.06000,
,,,-00.000045000000,   0.02000,
,,,-00.000044000000,   0.02000,
,,,-00.000043000000,   0.00000,
,,,-00.000042000000,   0.02000,
,,,-00.000041000000,   0.04000,
,,,-00.000040000000,   0.02000,
,,,-00.000039000000,   0.00000,
,,,-00.000038000000,   0.04000,
,,,-00.000037000000,   0.02000,
,,,-00.000036000000,   0.04000,
,,,-00.000035000000,   0.02000,
,,,-00.000034000000,   0.02000,
,,,-00.000033000000,   0.04000,
,,,-00.000032000000,   0.04000,
,,,-00.000031000000,   0.02000,
,,,-00.000030000000,   0.02000,
,,,-00.000029000000,   0.04000,
,,,-00.000028000000,   0.02000,
,,,-00.000027000000,   0.02000,
,,,-00.000026000000,   0.02000,
,,,-00.000025000000,   0.02000,
,,,-00.000024000000,   0.02000,
,,,-00.000023000000,   0.02000,
,,,-00.000022000000,   0.02000,
,,,-00.000021000000,   0.02000,
,,,-00.000020000000,   0.04000,
,,,-00.000019000000,   0.02000,
,,,-00.000018000000,   0.02000,
,,,-00.000017000000,   0.02000,
,,,-00.000016000000,   0.04000,
,,,-00.000015000000,   0.04000,
,,,-00.000014000000,   0.02000,
,,,-00.000013000000,   0.02000,
,,,-00.000012000000,   0.02000,
,,,-00.000011000000,   0.02000,
,,,-00.000010000000,   0.04000,
,,,-00.000009000000,   0.02000,
,,,-00.000008000000,   0.02000,
,,,-00.000007000000,   0.00000,
,,,-00.000006000000,   0.02000,
,,,-00.000005000000,   0.02000,
,,,-00.000004000000,  -0.32000,
,,,-00.000003000000,  -0.70000,
,,,-00.000002000000,  -0.92000,
,,,-00.000001000000,  -1.12000,
,,,-00.000000000000,  -1.24000,
,,,00.000001000000,  -1.32000,
,,,00.000002000000,  -1.38000,
,,,00.000003000000,  -1.42000,
,,,00.000004000000,  -1.46000,
,,,00.000005000000,  -1.46000,
,,,00.000006000000,  -1.48000,
,,,00.000007000000,  -1.48000,
,,,00.000008000000,  -1.48000,
,,,00.000009000000,  -1.48000,
,,,00.000010000000,  -1.44000,
,,,00.000011000000,  -1.44000,
,,,00.000012000000,  -1.42000,
,,,00.000013000000,  -1.40000,
,,,00.000014000000,  -1.38000,
,,,00.000015000000,  -1.36000,
,,,00.000016000000,  -1.34000,
,,,00.000017000000,  -1.34000,
,,,00.000018000000,  -1.32000,
,,,00.000019000000,  -1.30000,
,,,00.000020000000,  -1.28000,
,,,00.000021000000,  -1.28000,
,,,00.000022000000,  -1.26000,
,,,00.000023000000,  -1.24000,
,,,00.000024000000,  -1.22000,
,,,00.000025000000,  -1.20000,
,,,00.000026000000,  -1.18000,
,,,00.000027000000,  -1.18000,
,,,00.000028000000,  -1.16000,
,,,00.000029000000,  -1.14000,
,,,00.000030000000,  -1.14000,
,,,00.000031000000,  -1.12000,
,,,00.000032000000,  -1.12000,
,,,00.000033000000,  -1.10000,
,,,00.000034000000,  -1.08000,
,,,00.000035000000,  -1.08000,
,,,00.000036000000,  -1.06000,
,,,00.000037000000,  -1.06000,
,,,00.000038000000,  -1.06000,
,,,00.000039000000,  -1.04000,
,,,00.000040000000,  -1.02000,
,,,00.000041000000,  -1.00000,
,,,00.000042000000,  -0.98000,
,,,00.000043000000,  -0.98000,
,,,00.000044000000,  -0.96000,
,,,00.000045000000,  -0.96000,
,,,00.000046000000,  -0.96000,
,,,00.000047000000,  -0.96000,
,,,00.000048000000,  -0.94000,
,,,00.000049000000,  -0.94000,
,,,00.000050000000,  -0.92000,
,,,00.000051000000,  -0.90000,
,,,00.000052000000,  -0.92000,
,,,00.000053000000,  -0.90000,
,,,00.000054000000,  -0.90000,
,,,00.000055000000,  -0.88000,
,,,00.000056000000,  -0.86000,
,,,00.000057000000,  -0.86000,
,,,00.000058000000,  -0.86000,
,,,00.000059000000,  -0.84000,
,,,00.000060000000,  -0.84000,
,,,00.000061000000,  -0.84000,
,,,00.000062000000,  -0.82000,
,,,00.000063000000,  -0.82000,
,,,00.000064000000,  -0.82000,
,,,00.000065000000,  -0.82000,
,,,00.000066000000,  -0.82000,
,,,00.000067000000,  -0.80000,
,,,00.000068000000,  -0.78000,
,,,00.000069000000,  -0.78000,
,,,00.000070000000,  -0.76000,
,,,00.000071000000,  -0.78000,
,,,00.000072000000,  -0.76000,
,,,00.000073000000,  -0.74000,
,,,00.000074000000,  -0.74000,
,,,00.000075000000,  -0.74000,
,,,00.000076000000,  -0.72000,
,,,00.000077000000,  -0.72000,
,,,00.000078000000,  -0.72000,
,,,00.000079000000,  -0.70000,
,,,00.000080000000,  -0.70000,
,,,00.000081000000,  -0.70000,
,,,00.000082000000,  -0.70000,
,,,00.000083000000,  -0.70000,
,,,00.000084000000,  -0.66000,
,,,00.000085000000,  -0.66000,
,,,00.000086000000,  -0.66000,
,,,00.000087000000,  -0.66000,
,,,00.000088000000,  -0.66000,
,,,00.000089000000,  -0.66000,
,,,00.000090000000,  -0.64000,
,,,00.000091000000,  -0.64000,
,,,00.000092000000,  -0.64000,
,,,00.000093000000,  -0.62000,
,,,00.000094000000,  -0.64000,
,,,00.000095000000,  -0.62000,
,,,00.000096000000,  -0.62000,
,,,00.000097000000,  -0.60000,
,,,00.000098000000,  -0.60000,
,,,00.000099000000,  -0.60000,
,,,00.000100000000,  -0.58000,
,,,00.000101000000,  -0.58000,
,,,00.000102000000,  -0.58000,
,,,00.000103000000,  -0.58000,
,,,00.000104000000,  -0.56000,
,,,00.000105000000,  -0.56000,
,,,00.000106000000,  -0.58000,
,,,00.000107000000,  -0.56000,
,,,00.000108000000,  -0.54000,
,,,00.000109000000,  -0.56000,
,,,00.000110000000,  -0.54000,
,,,00.000111000000,  -0.54000,
,,,00.000112000000,  -0.52000,
,,,00.000113000000,  -0.52000,
,,,00.000114000000,  -0.52000,
,,,00.000115000000,  -0.54000,
,,,00.000116000000,  -0.54000,
,,,00.000117000000,  -0.52000,
,,,00.000118000000,  -0.52000,
,,,00.000119000000,  -0.52000,
,,,00.000120000000,  -0.50000,
,,,00.000121000000,  -0.50000,
,,,00.000122000000,  -0.52000,
,,,00.000123000000,  -0.50000,
,,,00.000124000000,  -0.50000,
,,,00.000125000000,  -0.46000,
,,,00.000126000000,  -0.46000,
,,,00.000127000000,  -0.46000,
,,,00.000128000000,  -0.46000,
,,,00.000129000000,  -0.46000,
,,,00.000130000000,  -0.46000,
,,,00.000131000000,  -0.42000,
,,,00.000132000000,  -0.44000,
,,,00.000133000000,  -0.46000,
,,,00.000134000000,  -0.42000,
,,,00.000135000000,  -0.42000,
,,,00.000136000000,  -0.42000,
,,,00.000137000000,  -0.42000,
,,,00.000138000000,  -0.44000,
,,,00.000139000000,  -0.42000,
,,,00.000140000000,  -0.42000,
,,,00.000141000000,  -0.42000,
,,,00.000142000000,  -0.42000,
,,,00.000143000000,  -0.40000,
,,,00.000144000000,  -0.40000,
,,,00.000145000000,  -0.40000,
,,,00.000146000000,  -0.40000,
,,,00.000147000000,  -0.40000,
,,,00.000148000000,  -0.40000,
,,,00.000149000000,  -0.40000,
,,,00.000150000000,  -0.40000,
,,,00.000151000000,  -0.38000,
,,,00.000152000000,  -0.36000,
,,,00.000153000000,  -0.38000,
,,,00.000154000000,  -0.38000,
,,,00.000155000000,  -0.38000,
,,,00.000156000000,  -0.36000,
,,,00.000157000000,  -0.38000,
,,,00.000158000000,  -0.36000,
,,,00.000159000000,  -0.36000,
,,,00.000160000000,  -0.36000,
,,,00.000161000000,  -0.36000,
,,,00.000162000000,  -0.34000,
,,,00.000163000000,  -0.34000,
,,,00.000164000000,  -0.34000,
,,,00.000165000000,  -0.34000,
,,,00.000166000000,  -0.34000,
,,,00.000167000000,  -0.34000,
,,,00.000168000000,  -0.34000,
,,,00.000169000000,  -0.34000,
,,,00.000170000000,  -0.32000,
,,,00.000171000000,  -0.32000,
,,,00.000172000000,  -0.34000,
,,,00.000173000000,  -0.32000,
,,,00.000174000000,  -0.30000,
,,,00.000175000000,  -0.34000,
,,,00.000176000000,  -0.32000,
,,,00.000177000000,  -0.32000,
,,,00.000178000000,  -0.30000,
,,,00.000179000000,  -0.30000,
,,,00.000180000000,  -0.30000,
,,,00.000181000000,  -0.30000,
,,,00.000182000000,  -0.30000,
,,,00.000183000000,  -0.30000,
,,,00.000184000000,  -0.30000,
,,,00.000185000000,  -0.30000,
,,,00.000186000000,  -0.30000,
,,,00.000187000000,  -0.28000,
,,,00.000188000000,  -0.28000,
,,,00.000189000000,  -0.28000,
,,,00.000190000000,  -0.28000,
,,,00.000191000000,  -0.30000,
,,,00.000192000000,  -0.28000,
,,,00.000193000000,  -0.28000,
,,,00.000194000000,  -0.26000,
,,,00.000195000000,  -0.26000,
,,,00.000196000000,  -0.28000,
,,,00.000197000000,  -0.28000,
,,,00.000198000000,  -0.26000,
,,,00.000199000000,  -0.26000,
,,,00.000200000000,  -0.24000,
,,,00.000201000000,  -0.26000,
,,,00.000202000000,  -0.26000,
,,,00.000203000000,  -0.26000,
,,,00.000204000000,  -0.26000,
,,,00.000205000000,  -0.24000,
,,,00.000206000000,  -0.24000,
,,,00.000207000000,  -0.24000,
,,,00.000208000000,  -0.26000,
,,,00.000209000000,  -0.24000,
,,,00.000210000000,  -0.24000,
,,,00.000211000000,  -0.24000,
,,,00.000212000000,  -0.24000,
,,,00.000213000000,  -0.24000,
,,,00.000214000000,  -0.24000,
,,,00.000215000000,  -0.20000,
,,,00.000216000000,  -0.24000,
,,,00.000217000000,  -0.24000,
,,,00.000218000000,  -0.22000,
,,,00.000219000000,  -0.22000,
,,,00.000220000000,  -0.24000,
,,,00.000221000000,  -0.20000,
,,,00.000222000000,  -0.20000,
,,,00.000223000000,  -0.20000,
,,,00.000224000000,  -0.20000,
,,,00.000225000000,  -0.22000,
,,,00.000226000000,  -0.20000,
,,,00.000227000000,  -0.20000,
,,,00.000228000000,  -0.20000,
,,,00.000229000000,  -0.20000,
,,,00.000230000000,  -0.20000,
,,,00.000231000000,  -0.20000,
,,,00.000232000000,  -0.20000,
,,,00.000233000000,  -0.20000,
,,,00.000234000000,  -0.20000,
,,,00.000235000000,  -0.18000,
,,,00.000236000000,  -0.20000,
,,,00.000237000000,  -0.20000,
,,,00.000238000000,  -0.20000,
,,,00.000239000000,  -0.20000,
,,,00.000240000000,  -0.18000,
,,,00.000241000000,  -0.20000,
,,,00.000242000000,  -0.18000,
,,,00.000243000000,  -0.18000,
,,,00.000244000000,  -0.18000,
,,,00.000245000000,  -0.18000,
,,,00.000246000000,  -0.16000,
,,,00.000247000000,  -0.18000,
,,,00.000248000000,  -0.16000,
,,,00.000249000000,  -0.18000,
,,,00.000250000000,  -0.16000,
,,,00.000251000000,  -0.14000,
,,,00.000252000000,  -0.16000,
,,,00.000253000000,  -0.16000,
,,,00.000254000000,  -0.14000,
,,,00.000255000000,  -0.14000,
,,,00.000256000000,  -0.16000,
,,,00.000257000000,  -0.16000,
,,,00.000258000000,  -0.16000,
,,,00.000259000000,  -0.14000,
,,,00.000260000000,  -0.14000,
,,,00.000261000000,  -0.16000,
,,,00.000262000000,  -0.14000,
,,,00.000263000000,  -0.16000,
,,,00.000264000000,  -0.14000,
,,,00.000265000000,  -0.12000,
,,,00.000266000000,  -0.14000,
,,,00.000267000000,  -0.14000,
,,,00.000268000000,  -0.14000,
,,,00.000269000000,  -0.12000,
,,,00.000270000000,  -0.14000,
,,,00.000271000000,  -0.14000,
,,,00.000272000000,  -0.12000,
,,,00.000273000000,  -0.10000,
,,,00.000274000000,  -0.12000,
,,,00.000275000000,  -0.12000,
,,,00.000276000000,  -0.12000,
,,,00.000277000000,  -0.12000,
,,,00.000278000000,  -0.12000,
,,,00.000279000000,  -0.12000,
,,,00.000280000000,  -0.12000,
,,,00.000281000000,  -0.12000,
,,,00.000282000000,  -0.12000,
,,,00.000283000000,  -0.10000,
,,,00.000284000000,  -0.12000,
,,,00.000285000000,  -0.12000,
,,,00.000286000000,  -0.12000,
,,,00.000287000000,  -0.08000,
,,,00.000288000000,  -0.10000,
,,,00.000289000000,  -0.10000,
,,,00.000290000000,  -0.08000,
,,,00.000291000000,  -0.08000,
,,,00.000292000000,  -0.10000,
,,,00.000293000000,  -0.08000,
,,,00.000294000000,  -0.10000,
,,,00.000295000000,  -0.08000,
,,,00.000296000000,  -0.08000,
,,,00.000297000000,  -0.06000,
,,,00.000298000000,  -0.08000,
,,,00.000299000000,  -0.06000,
,,,00.000300000000,  -0.06000,
,,,00.000301000000,  -0.06000,
,,,00.000302000000,  -0.08000,
,,,00.000303000000,  -0.06000,
,,,00.000304000000,  -0.08000,
,,,00.000305000000,  -0.06000,
,,,00.000306000000,  -0.08000,
,,,00.000307000000,  -0.08000,
,,,00.000308000000,  -0.04000,
,,,00.000309000000,  -0.04000,
,,,00.000310000000,  -0.04000,
,,,00.000311000000,  -0.06000,
,,,00.000312000000,  -0.06000,
,,,00.000313000000,  -0.06000,
,,,00.000314000000,  -0.04000,
,,,00.000315000000,  -0.04000,
,,,00.000316000000,  -0.04000,
,,,00.000317000000,  -0.04000,
,,,00.000318000000,  -0.04000,
,,,00.000319000000,  -0.04000,
,,,00.000320000000,  -0.04000,
,,,00.000321000000,  -0.02000,
,,,00.000322000000,  -0.06000,
,,,00.000323000000,  -0.02000,
,,,00.000324000000,  -0.04000,
,,,00.000325000000,  -0.04000,
,,,00.000326000000,  -0.02000,
,,,00.000327000000,  -0.02000,
,,,00.000328000000,  -0.02000,
,,,00.000329000000,  -0.02000,
,,,00.000330000000,  -0.02000,
,,,00.000331000000,  -0.02000,
,,,00.000332000000,  -0.02000,
,,,00.000333000000,  -0.02000,
,,,00.000334000000,  -0.02000,
,,,00.000335000000,   0.00000,
,,,00.000336000000,   0.00000,
,,,00.000337000000,   0.00000,
,,,00.000338000000,   0.00000,
,,,00.000339000000,   0.00000,
,,,00.000340000000,   0.00000,
,,,00.000341000000,   0.00000,
,,,00.000342000000,   0.00000,
,,,00.000343000000,  -0.02000,
,,,00.000344000000,   0.00000,
,,,00.000345000000,   0.00000,
,,,00.000346000000,   0.00000,
,,,00.000347000000,   0.00000,
,,,00.000348000000,   0.02000,
,,,00.000349000000,   0.02000,
,,,00.000350000000,   0.00000,
,,,00.000351000000,   0.02000,
,,,00.000352000000,   0.00000,
,,,00.000353000000,   0.04000,
,,,00.000354000000,   0.02000,
,,,00.000355000000,   0.04000,
,,,00.000356000000,   0.04000,
,,,00.000357000000,   0.04000,
,,,00.000358000000,   0.02000,
,,,00.000359000000,   0.02000,
,,,00.000360000000,   0.04000,
,,,00.000361000000,   0.02000,
,,,00.000362000000,   0.00000,
,,,00.000363000000,   0.04000,
,,,00.000364000000,   0.04000,
,,,00.000365000000,   0.04000,
,,,00.000366000000,   0.02000,
,,,00.000367000000,   0.06000,
,,,00.000368000000,   0.04000,
,,,00.000369000000,   0.04000,
,,,00.000370000000,   0.06000,
,,,00.000371000000,   0.06000,
,,,00.000372000000,   0.06000,
,,,00.000373000000,   0.06000,
,,,00.000374000000,   0.04000,
,,,00.000375000000,   0.06000,
,,,00.000376000000,   0.04000,
,,,00.000377000000,   0.04000,
,,,00.000378000000,   0.06000,
,,,00.000379000000,   0.08000,
,,,00.000380000000,   0.06000,
,,,00.000381000000,   0.06000,
,,,00.000382000000,   0.06000,
,,,00.000383000000,   0.08000,
,,,00.000384000000,   0.06000,
,,,00.000385000000,   0.06000,
,,,00.000386000000,   0.08000,
,,,00.000387000000,   0.08000,
,,,00.000388000000,   0.06000,
,,,00.000389000000,   0.08000,
,,,00.000390000000,   0.06000,
,,,00.000391000000,   0.08000,
,,,00.000392000000,   0.08000,
,,,00.000393000000,   0.08000,
,,,00.000394000000,   0.08000,
,,,00.000395000000,   0.08000,
,,,00.000396000000,   0.08000,
,,,00.000397000000,   0.08000,
,,,00.000398000000,   0.08000,
,,,00.000399000000,   0.08000,
,,,00.000400000000,   0.08000,
,,,00.000401000000,   0.08000,
,,,00.000402000000,   0.10000,
,,,00.000403000000,   0.10000,
,,,00.000404000000,   0.10000,
,,,00.000405000000,   0.08000,
,,,00.000406000000,   0.08000,
,,,00.000407000000,   0.08000,
,,,00.000408000000,   0.10000,
,,,00.000409000000,   0.08000,
,,,00.000410000000,   0.10000,
,,,00.000411000000,   0.08000,
,,,00.000412000000,   0.08000,
,,,00.000413000000,   0.10000,
,,,00.000414000000,   0.08000,
,,,00.000415000000,   0.10000,
,,,00.000416000000,   0.10000,
,,,00.000417000000,   0.08000,
,,,00.000418000000,   0.10000,
,,,00.000419000000,   0.08000,
,,,00.000420000000,   0.08000,
,,,00.000421000000,   0.10000,
,,,00.000422000000,   0.10000,
,,,00.000423000000,   0.10000,
,,,00.000424000000,   0.08000,
,,,00.000425000000,   0.08000,
,,,00.000426000000,   0.10000,
,,,00.000427000000,   0.10000,
,,,00.000428000000,   0.10000,
,,,00.000429000000,   0.08000,
,,,00.000430000000,   0.08000,
,,,00.000431000000,   0.10000,
,,,00.000432000000,   0.08000,
,,,00.000433000000,   0.10000,
,,,00.000434000000,   0.10000,
,,,00.000435000000,   0.12000,
,,,00.000436000000,   0.08000,
,,,00.000437000000,   0.12000,
,,,00.000438000000,   0.10000,
,,,00.000439000000,   0.10000,
,,,00.000440000000,   0.10000,
,,,00.000441000000,   0.10000,
,,,00.000442000000,   0.10000,
,,,00.000443000000,   0.10000,
,,,00.000444000000,   0.10000,
,,,00.000445000000,   0.12000,
,,,00.000446000000,   0.10000,
,,,00.000447000000,   0.10000,
,,,00.000448000000,   0.12000,
,,,00.000449000000,   0.08000,
,,,00.000450000000,   0.10000,
,,,00.000451000000,   0.10000,
,,,00.000452000000,   0.08000,
,,,00.000453000000,   0.08000,
,,,00.000454000000,   0.10000,
,,,00.000455000000,   0.10000,
,,,00.000456000000,   0.10000,
,,,00.000457000000,   0.10000,
,,,00.000458000000,   0.10000,
,,,00.000459000000,   0.12000,
,,,00.000460000000,   0.10000,
,,,00.000461000000,   0.10000,
,,,00.000462000000,   0.10000,
,,,00.000463000000,   0.10000,
,,,00.000464000000,   0.12000,
,,,00.000465000000,   0.10000,
,,,00.000466000000,   0.10000,
,,,00.000467000000,   0.10000,
,,,00.000468000000,   0.10000,
,,,00.000469000000,   0.10000,
,,,00.000470000000,   0.08000,
,,,00.000471000000,   0.10000,
,,,00.000472000000,   0.10000,
,,,00.000473000000,   0.10000,
,,,00.000474000000,   0.10000,
,,,00.000475000000,   0.10000,
,,,00.000476000000,   0.10000,
,,,00.000477000000,   0.10000,
,,,00.000478000000,   0.10000,
,,,00.000479000000,   0.12000,
,,,00.000480000000,   0.10000,
,,,00.000481000000,   0.10000,
,,,00.000482000000,   0.10000,
,,,00.000483000000,   0.10000,
,,,00.000484000000,   0.10000,
,,,00.000485000000,   0.12000,
,,,00.000486000000,   0.10000,
,,,00.000487000000,   0.08000,
,,,00.000488000000,   0.10000,
,,,00.000489000000,   0.10000,
,,,00.000490000000,   0.10000,
,,,00.000491000000,   0.10000,
,,,00.000492000000,   0.10000,
,,,00.000493000000,   0.12000,
,,,00.000494000000,   0.10000,
,,,00.000495000000,   0.10000,
,,,00.000496000000,   0.10000,
,,,00.000497000000,   0.10000,
,,,00.000498000000,   0.10000,
,,,00.000499000000,   0.10000,
,,,00.000500000000,   0.10000,
,,,00.000501000000,   0.10000,
,,,00.000502000000,   0.10000,
,,,00.000503000000,   0.10000,
,,,00.000504000000,   0.10000,
,,,00.000505000000,   0.10000,
,,,00.000506000000,   0.10000,
,,,00.000507000000,   0.10000,
,,,00.000508000000,   0.10000,
,,,00.000509000000,   0.12000,
,,,00.000510000000,   0.10000,
,,,00.000511000000,   0.08000,
,,,00.000512000000,   0.10000,
,,,00.000513000000,   0.10000,
,,,00.000514000000,   0.10000,
,,,00.000515000000,   0.08000,
,,,00.000516000000,   0.10000,
,,,00.000517000000,   0.10000,
,,,00.000518000000,   0.08000,
,,,00.000519000000,   0.12000,
,,,00.000520000000,   0.10000,
,,,00.000521000000,   0.12000,
,,,00.000522000000,   0.10000,
,,,00.000523000000,   0.10000,
,,,00.000524000000,   0.08000,
,,,00.000525000000,   0.10000,
,,,00.000526000000,   0.10000,
,,,00.000527000000,   0.10000,
,,,00.000528000000,   0.08000,
,,,00.000529000000,   0.08000,
,,,00.000530000000,   0.08000,
,,,00.000531000000,   0.10000,
,,,00.000532000000,   0.10000,
,,,00.000533000000,   0.12000,
,,,00.000534000000,   0.10000,
,,,00.000535000000,   0.10000,
,,,00.000536000000,   0.10000,
,,,00.000537000000,   0.10000,
,,,00.000538000000,   0.10000,
,,,00.000539000000,   0.10000,
,,,00.000540000000,   0.08000,
,,,00.000541000000,   0.08000,
,,,00.000542000000,   0.12000,
,,,00.000543000000,   0.10000,
,,,00.000544000000,   0.10000,
,,,00.000545000000,   0.08000,
,,,00.000546000000,   0.10000,
,,,00.000547000000,   0.10000,
,,,00.000548000000,   0.10000,
,,,00.000549000000,   0.10000,
,,,00.000550000000,   0.10000,
,,,00.000551000000,   0.08000,
,,,00.000552000000,   0.10000,
,,,00.000553000000,   0.10000,
,,,00.000554000000,   0.10000,
,,,00.000555000000,   0.10000,
,,,00.000556000000,   0.10000,
,,,00.000557000000,   0.10000,
,,,00.000558000000,   0.10000,
,,,00.000559000000,   0.10000,
,,,00.000560000000,   0.08000,
,,,00.000561000000,   0.10000,
,,,00.000562000000,   0.08000,
,,,00.000563000000,   0.10000,
,,,00.000564000000,   0.08000,
,,,00.000565000000,   0.10000,
,,,00.000566000000,   0.10000,
,,,00.000567000000,   0.10000,
,,,00.000568000000,   0.08000,
,,,00.000569000000,   0.10000,
,,,00.000570000000,   0.10000,
,,,00.000571000000,   0.08000,
,,,00.000572000000,   0.08000,
,,,00.000573000000,   0.10000,
,,,00.000574000000,   0.08000,
,,,00.000575000000,   0.08000,
,,,00.000576000000,   0.10000,
,,,00.000577000000,   0.08000,
,,,00.000578000000,   0.10000,
,,,00.000579000000,   0.10000,
,,,00.000580000000,   0.08000,
,,,00.000581000000,   0.08000,
,,,00.000582000000,   0.08000,
,,,00.000583000000,   0.08000,
,,,00.000584000000,   0.08000,
,,,00.000585000000,   0.12000,
,,,00.000586000000,   0.10000,
,,,00.000587000000,   0.10000,
,,,00.000588000000,   0.08000,
,,,00.000589000000,   0.10000,
,,,00.000590000000,   0.08000,
,,,00.000591000000,   0.10000,
,,,00.000592000000,   0.08000,
,,,00.000593000000,   0.10000,
,,,00.000594000000,   0.10000,
,,,00.000595000000,   0.08000,
,,,00.000596000000,   0.08000,
,,,00.000597000000,   0.10000,
,,,00.000598000000,   0.10000,
,,,00.000599000000,   0.08000,
,,,00.000600000000,   0.08000,
,,,00.000601000000,   0.10000,
,,,00.000602000000,   0.08000,
,,,00.000603000000,   0.08000,
,,,00.000604000000,   0.10000,
,,,00.000605000000,   0.10000,
,,,00.000606000000,   0.08000,
,,,00.000607000000,   0.08000,
,,,00.000608000000,   0.10000,
,,,00.000609000000,   0.10000,
,,,00.000610000000,   0.10000,
,,,00.000611000000,   0.08000,
,,,00.000612000000,   0.08000,
,,,00.000613000000,   0.10000,
,,,00.000614000000,   0.10000,
,,,00.000615000000,   0.10000,
,,,00.000616000000,   0.08000,
,,,00.000617000000,   0.08000,
,,,00.000618000000,   0.08000,
,,,00.000619000000,   0.10000,
,,,00.000620000000,   0.08000,
,,,00.000621000000,   0.08000,
,,,00.000622000000,   0.10000,
,,,00.000623000000,   0.08000,
,,,00.000624000000,   0.10000,
,,,00.000625000000,   0.08000,
,,,00.000626000000,   0.10000,
,,,00.000627000000,   0.08000,
,,,00.000628000000,   0.10000,
,,,00.000629000000,   0.10000,
,,,00.000630000000,   0.08000,
,,,00.000631000000,   0.10000,
,,,00.000632000000,   0.08000,
,,,00.000633000000,   0.08000,
,,,00.000634000000,   0.08000,
,,,00.000635000000,   0.08000,
,,,00.000636000000,   0.10000,
,,,00.000637000000,   0.08000,
,,,00.000638000000,   0.08000,
,,,00.000639000000,   0.10000,
,,,00.000640000000,   0.08000,
,,,00.000641000000,   0.08000,
,,,00.000642000000,   0.08000,
,,,00.000643000000,   0.08000,
,,,00.000644000000,   0.10000,
,,,00.000645000000,   0.10000,
,,,00.000646000000,   0.08000,
,,,00.000647000000,   0.08000,
,,,00.000648000000,   0.08000,
,,,00.000649000000,   0.08000,
,,,00.000650000000,   0.08000,
,,,00.000651000000,   0.08000,
,,,00.000652000000,   0.08000,
,,,00.000653000000,   0.08000,
,,,00.000654000000,   0.08000,
,,,00.000655000000,   0.08000,
,,,00.000656000000,   0.08000,
,,,00.000657000000,   0.08000,
,,,00.000658000000,   0.08000,
,,,00.000659000000,   0.08000,
,,,00.000660000000,   0.08000,
,,,00.000661000000,   0.10000,
,,,00.000662000000,   0.10000,
,,,00.000663000000,   0.08000,
,,,00.000664000000,   0.08000,
,,,00.000665000000,   0.08000,
,,,00.000666000000,   0.08000,
,,,00.000667000000,   0.08000,
,,,00.000668000000,   0.10000,
,,,00.000669000000,   0.08000,
,,,00.000670000000,   0.08000,
,,,00.000671000000,   0.08000,
,,,00.000672000000,   0.08000,
,,,00.000673000000,   0.08000,
,,,00.000674000000,   0.08000,
,,,00.000675000000,   0.08000,
,,,00.000676000000,   0.08000,
,,,00.000677000000,   0.08000,
,,,00.000678000000,   0.08000,
,,,00.000679000000,   0.08000,
,,,00.000680000000,   0.08000,
,,,00.000681000000,   0.10000,
,,,00.000682000000,   0.08000,
,,,00.000683000000,   0.08000,
,,,00.000684000000,   0.08000,
,,,00.000685000000,   0.10000,
,,,00.000686000000,   0.10000,
,,,00.000687000000,   0.08000,
,,,00.000688000000,   0.08000,
,,,00.000689000000,   0.08000,
,,,00.000690000000,   0.08000,
,,,00.000691000000,   0.10000,
,,,00.000692000000,   0.08000,
,,,00.000693000000,   0.10000,
,,,00.000694000000,   0.10000,
,,,00.000695000000,   0.08000,
,,,00.000696000000,   0.10000,
,,,00.000697000000,   0.08000,
,,,00.000698000000,   0.08000,
,,,00.000699000000,   0.08000,
,,,00.000700000000,   0.08000,
,,,00.000701000000,   0.08000,
,,,00.000702000000,   0.08000,
,,,00.000703000000,   0.08000,
,,,00.000704000000,   0.08000,
,,,00.000705000000,   0.08000,
,,,00.000706000000,   0.08000,
,,,00.000707000000,   0.08000,
,,,00.000708000000,   0.08000,
,,,00.000709000000,   0.08000,
,,,00.000710000000,   0.10000,
,,,00.000711000000,   0.08000,
,,,00.000712000000,   0.08000,
,,,00.000713000000,   0.10000,
,,,00.000714000000,   0.08000,
,,,00.000715000000,   0.06000,
,,,00.000716000000,   0.08000,
,,,00.000717000000,   0.10000,
,,,00.000718000000,   0.10000,
,,,00.000719000000,   0.08000,
,,,00.000720000000,   0.08000,
,,,00.000721000000,   0.08000,
,,,00.000722000000,   0.08000,
,,,00.000723000000,   0.10000,
,,,00.000724000000,   0.08000,
,,,00.000725000000,   0.10000,
,,,00.000726000000,   0.08000,
,,,00.000727000000,   0.08000,
,,,00.000728000000,   0.10000,
,,,00.000729000000,   0.08000,
,,,00.000730000000,   0.08000,
,,,00.000731000000,   0.08000,
,,,00.000732000000,   0.08000,
,,,00.000733000000,   0.08000,
,,,00.000734000000,   0.10000,
,,,00.000735000000,   0.08000,
,,,00.000736000000,   0.10000,
,,,00.000737000000,   0.08000,
,,,00.000738000000,   0.10000,
,,,00.000739000000,   0.10000,
,,,00.000740000000,   0.08000,
,,,00.000741000000,   0.08000,
,,,00.000742000000,   0.08000,
,,,00.000743000000,   0.08000,
,,,00.000744000000,   0.08000,
,,,00.000745000000,   0.08000,
,,,00.000746000000,   0.08000,
,,,00.000747000000,   0.08000,
,,,00.000748000000,   0.08000,
,,,00.000749000000,   0.10000,
,,,00.000750000000,   0.08000,
,,,00.000751000000,   0.06000,
,,,00.000752000000,   0.08000,
,,,00.000753000000,   0.10000,
,,,00.000754000000,   0.10000,
,,,00.000755000000,   0.08000,
,,,00.000756000000,   0.08000,
,,,00.000757000000,   0.08000,
,,,00.000758000000,   0.08000,
,,,00.000759000000,   0.10000,
,,,00.000760000000,   0.10000,
,,,00.000761000000,   0.08000,
,,,00.000762000000,   0.12000,
,,,00.000763000000,   0.08000,
,,,00.000764000000,   0.08000,
,,,00.000765000000,   0.10000,
,,,00.000766000000,   0.08000,
,,,00.000767000000,   0.08000,
,,,00.000768000000,   0.06000,
,,,00.000769000000,   0.08000,
,,,00.000770000000,   0.08000,
,,,00.000771000000,   0.08000,
,,,00.000772000000,   0.08000,
,,,00.000773000000,   0.08000,
,,,00.000774000000,   0.08000,
,,,00.000775000000,   0.08000,
,,,00.000776000000,   0.08000,
,,,00.000777000000,   0.10000,
,,,00.000778000000,   0.08000,
,,,00.000779000000,   0.08000,
,,,00.000780000000,   0.08000,
,,,00.000781000000,   0.08000,
,,,00.000782000000,   0.08000,
,,,00.000783000000,   0.08000,
,,,00.000784000000,   0.08000,
,,,00.000785000000,   0.08000,
,,,00.000786000000,   0.08000,
,,,00.000787000000,   0.08000,
,,,00.000788000000,   0.08000,
,,,00.000789000000,   0.08000,
,,,00.000790000000,   0.06000,
,,,00.000791000000,   0.08000,
,,,00.000792000000,   0.08000,
,,,00.000793000000,   0.08000,
,,,00.000794000000,   0.08000,
,,,00.000795000000,   0.08000,
,,,00.000796000000,   0.08000,
,,,00.000797000000,   0.06000,
,,,00.000798000000,   0.08000,
,,,00.000799000000,   0.08000,
,,,00.000800000000,   0.08000,
,,,00.000801000000,   0.10000,
,,,00.000802000000,   0.08000,
,,,00.000803000000,   0.08000,
,,,00.000804000000,   0.08000,
,,,00.000805000000,   0.08000,
,,,00.000806000000,   0.08000,
,,,00.000807000000,   0.08000,
,,,00.000808000000,   0.08000,
,,,00.000809000000,   0.08000,
,,,00.000810000000,   0.08000,
,,,00.000811000000,   0.08000,
,,,00.000812000000,   0.10000,
,,,00.000813000000,   0.08000,
,,,00.000814000000,   0.10000,
,,,00.000815000000,   0.10000,
,,,00.000816000000,   0.08000,
,,,00.000817000000,   0.08000,
,,,00.000818000000,   0.08000,
,,,00.000819000000,   0.08000,
,,,00.000820000000,   0.08000,
,,,00.000821000000,   0.08000,
,,,00.000822000000,   0.08000,
,,,00.000823000000,   0.08000,
,,,00.000824000000,   0.08000,
,,,00.000825000000,   0.08000,
,,,00.000826000000,   0.08000,
,,,00.000827000000,   0.08000,
,,,00.000828000000,   0.08000,
,,,00.000829000000,   0.08000,
,,,00.000830000000,   0.08000,
,,,00.000831000000,   0.08000,
,,,00.000832000000,   0.08000,
,,,00.000833000000,   0.08000,
,,,00.000834000000,   0.08000,
,,,00.000835000000,   0.08000,
,,,00.000836000000,   0.08000,
,,,00.000837000000,   0.10000,
,,,00.000838000000,   0.08000,
,,,00.000839000000,   0.08000,
,,,00.000840000000,   0.08000,
,,,00.000841000000,   0.08000,
,,,00.000842000000,   0.08000,
,,,00.000843000000,   0.08000,
,,,00.000844000000,   0.08000,
,,,00.000845000000,   0.08000,
,,,00.000846000000,   0.08000,
,,,00.000847000000,   0.08000,
,,,00.000848000000,   0.08000,
,,,00.000849000000,   0.08000,
,,,00.000850000000,   0.10000,
,,,00.000851000000,   0.06000,
,,,00.000852000000,   0.08000,
,,,00.000853000000,   0.08000,
,,,00.000854000000,   0.08000,
,,,00.000855000000,   0.08000,
,,,00.000856000000,   0.06000,
,,,00.000857000000,   0.10000,
,,,00.000858000000,   0.08000,
,,,00.000859000000,   0.10000,
,,,00.000860000000,   0.08000,
,,,00.000861000000,   0.08000,
,,,00.000862000000,   0.08000,
,,,00.000863000000,   0.08000,
,,,00.000864000000,   0.08000,
,,,00.000865000000,   0.06000,
,,,00.000866000000,   0.06000,
,,,00.000867000000,   0.08000,
,,,00.000868000000,   0.08000,
,,,00.000869000000,   0.08000,
,,,00.000870000000,   0.08000,
,,,00.000871000000,   0.08000,
,,,00.000872000000,   0.10000,
,,,00.000873000000,   0.08000,
,,,00.000874000000,   0.08000,
,,,00.000875000000,   0.10000,
,,,00.000876000000,   0.06000,
,,,00.000877000000,   0.08000,
,,,00.000878000000,   0.08000,
,,,00.000879000000,   0.10000,
,,,00.000880000000,   0.08000,
,,,00.000881000000,   0.06000,
,,,00.000882000000,   0.08000,
,,,00.000883000000,   0.08000,
,,,00.000884000000,   0.10000,
,,,00.000885000000,   0.08000,
,,,00.000886000000,   0.08000,
,,,00.000887000000,   0.08000,
,,,00.000888000000,   0.08000,
,,,00.000889000000,   0.08000,
,,,00.000890000000,   0.10000,
,,,00.000891000000,   0.06000,
,,,00.000892000000,   0.08000,
,,,00.000893000000,   0.08000,
,,,00.000894000000,   0.08000,
,,,00.000895000000,   0.10000,
,,,00.000896000000,   0.08000,
,,,00.000897000000,   0.08000,
,,,00.000898000000,   0.08000,
,,,00.000899000000,   0.08000,
,,,00.000900000000,   0.08000,
,,,00.000901000000,   0.08000,
,,,00.000902000000,   0.08000,
,,,00.000903000000,   0.08000,
,,,00.000904000000,   0.10000,
,,,00.000905000000,   0.08000,
,,,00.000906000000,   0.08000,
,,,00.000907000000,   0.08000,
,,,00.000908000000,   0.08000,
,,,00.000909000000,   0.08000,
,,,00.000910000000,   0.08000,
,,,00.000911000000,   0.08000,
,,,00.000912000000,   0.08000,
,,,00.000913000000,   0.08000,
,,,00.000914000000,   0.08000,
,,,00.000915000000,   0.08000,
,,,00.000916000000,   0.08000,
,,,00.000917000000,   0.08000,
,,,00.000918000000,   0.08000,
,,,00.000919000000,   0.08000,
,,,00.000920000000,   0.08000,
,,,00.000921000000,   0.08000,
,,,00.000922000000,   0.08000,
,,,00.000923000000,   0.08000,
,,,00.000924000000,   0.08000,
,,,00.000925000000,   0.10000,
,,,00.000926000000,   0.08000,
,,,00.000927000000,   0.08000,
,,,00.000928000000,   0.08000,
,,,00.000929000000,   0.06000,
,,,00.000930000000,   0.08000,
,,,00.000931000000,   0.08000,
,,,00.000932000000,   0.08000,
,,,00.000933000000,   0.08000,
,,,00.000934000000,   0.06000,
,,,00.000935000000,   0.08000,
,,,00.000936000000,   0.08000,
,,,00.000937000000,   0.08000,
,,,00.000938000000,   0.08000,
,,,00.000939000000,   0.06000,
,,,00.000940000000,   0.06000,
,,,00.000941000000,   0.08000,
,,,00.000942000000,   0.08000,
,,,00.000943000000,   0.08000,
,,,00.000944000000,   0.10000,
,,,00.000945000000,   0.08000,
,,,00.000946000000,   0.08000,
,,,00.000947000000,   0.08000,
,,,00.000948000000,   0.08000,
,,,00.000949000000,   0.08000,
,,,00.000950000000,   0.08000,
,,,00.000951000000,   0.08000,
,,,00.000952000000,   0.08000,
,,,00.000953000000,   0.08000,
,,,00.000954000000,   0.10000,
,,,00.000955000000,   0.08000,
,,,00.000956000000,   0.08000,
,,,00.000957000000,   0.08000,
,,,00.000958000000,   0.08000,
,,,00.000959000000,   0.08000,
,,,00.000960000000,   0.08000,
,,,00.000961000000,   0.08000,
,,,00.000962000000,   0.08000,
,,,00.000963000000,   0.08000,
,,,00.000964000000,   0.08000,
,,,00.000965000000,   0.08000,
,,,00.000966000000,   0.06000,
,,,00.000967000000,   0.06000,
,,,00.000968000000,   0.08000,
,,,00.000969000000,   0.10000,
,,,00.000970000000,   0.08000,
,,,00.000971000000,   0.08000,
,,,00.000972000000,   0.08000,
,,,00.000973000000,   0.08000,
,,,00.000974000000,   0.08000,
,,,00.000975000000,   0.04000,
,,,00.000976000000,   0.06000,
,,,00.000977000000,   0.08000,
,,,00.000978000000,   0.08000,
,,,00.000979000000,   0.08000,
,,,00.000980000000,   0.08000,
,,,00.000981000000,   0.08000,
,,,00.000982000000,   0.08000,
,,,00.000983000000,   0.08000,
,,,00.000984000000,   0.08000,
,,,00.000985000000,   0.08000,
,,,00.000986000000,   0.08000,
,,,00.000987000000,   0.06000,
,,,00.000988000000,   0.06000,
,,,00.000989000000,   0.08000,
,,,00.000990000000,   0.08000,
,,,00.000991000000,   0.08000,
,,,00.000992000000,   0.08000,
,,,00.000993000000,   0.08000,
,,,00.000994000000,   0.08000,
,,,00.000995000000,   0.08000,
,,,00.000996000000,   0.08000,
,,,00.000997000000,   0.08000,
,,,00.000998000000,   0.08000,
,,,00.000999000000,   0.08000,
,,,00.001000000000,   0.08000,
,,,00.001001000000,   0.08000,
,,,00.001002000000,   0.08000,
,,,00.001003000000,   0.08000,
,,,00.001004000000,   0.08000,
,,,00.001005000000,   0.10000,
,,,00.001006000000,   0.06000,
,,,00.001007000000,   0.08000,
,,,00.001008000000,   0.08000,
,,,00.001009000000,   0.08000,
,,,00.001010000000,   0.08000,
,,,00.001011000000,   0.08000,
,,,00.001012000000,   0.08000,
,,,00.001013000000,   0.06000,
,,,00.001014000000,   0.08000,
,,,00.001015000000,   0.08000,
,,,00.001016000000,   0.08000,
,,,00.001017000000,   0.08000,
,,,00.001018000000,   0.08000,
,,,00.001019000000,   0.08000,
,,,00.001020000000,   0.06000,
,,,00.001021000000,   0.08000,
,,,00.001022000000,   0.08000,
,,,00.001023000000,   0.08000,
,,,00.001024000000,   0.08000,
,,,00.001025000000,   0.08000,
,,,00.001026000000,   0.08000,
,,,00.001027000000,   0.08000,
,,,00.001028000000,   0.06000,
,,,00.001029000000,   0.06000,
,,,00.001030000000,   0.08000,
,,,00.001031000000,   0.06000,
,,,00.001032000000,   0.08000,
,,,00.001033000000,   0.08000,
,,,00.001034000000,   0.08000,
,,,00.001035000000,   0.10000,
,,,00.001036000000,   0.08000,
,,,00.001037000000,   0.08000,
,,,00.001038000000,   0.08000,
,,,00.001039000000,   0.06000,
,,,00.001040000000,   0.08000,
,,,00.001041000000,   0.08000,
,,,00.001042000000,   0.08000,
,,,00.001043000000,   0.08000,
,,,00.001044000000,   0.06000,
,,,00.001045000000,   0.08000,
,,,00.001046000000,   0.08000,
,,,00.001047000000,   0.08000,
,,,00.001048000000,   0.08000,
,,,00.001049000000,   0.06000,
,,,00.001050000000,   0.08000,
,,,00.001051000000,   0.08000,
,,,00.001052000000,   0.06000,
,,,00.001053000000,   0.08000,
,,,00.001054000000,   0.08000,
,,,00.001055000000,   0.06000,
,,,00.001056000000,   0.08000,
,,,00.001057000000,   0.08000,
,,,00.001058000000,   0.06000,
,,,00.001059000000,   0.06000,
,,,00.001060000000,   0.08000,
,,,00.001061000000,   0.06000,
,,,00.001062000000,   0.06000,
,,,00.001063000000,   0.06000,
,,,00.001064000000,   0.06000,
,,,00.001065000000,   0.06000,
,,,00.001066000000,   0.08000,
,,,00.001067000000,   0.08000,
,,,00.001068000000,   0.06000,
,,,00.001069000000,   0.08000,
,,,00.001070000000,   0.08000,
,,,00.001071000000,   0.08000,
,,,00.001072000000,   0.08000,
,,,00.001073000000,   0.08000,
,,,00.001074000000,   0.08000,
,,,00.001075000000,   0.06000,
,,,00.001076000000,   0.08000,
,,,00.001077000000,   0.06000,
,,,00.001078000000,   0.04000,
,,,00.001079000000,   0.06000,
,,,00.001080000000,   0.06000,
,,,00.001081000000,   0.06000,
,,,00.001082000000,   0.08000,
,,,00.001083000000,   0.08000,
,,,00.001084000000,   0.08000,
,,,00.001085000000,   0.06000,
,,,00.001086000000,   0.08000,
,,,00.001087000000,   0.06000,
,,,00.001088000000,   0.08000,
,,,00.001089000000,   0.06000,
,,,00.001090000000,   0.06000,
,,,00.001091000000,   0.08000,
,,,00.001092000000,   0.08000,
,,,00.001093000000,   0.08000,
,,,00.001094000000,   0.08000,
,,,00.001095000000,   0.08000,
,,,00.001096000000,   0.08000,
,,,00.001097000000,   0.08000,
,,,00.001098000000,   0.08000,
,,,00.001099000000,   0.06000,
,,,00.001100000000,   0.08000,
,,,00.001101000000,   0.08000,
,,,00.001102000000,   0.06000,
,,,00.001103000000,   0.08000,
,,,00.001104000000,   0.08000,
,,,00.001105000000,   0.08000,
,,,00.001106000000,   0.06000,
,,,00.001107000000,   0.04000,
,,,00.001108000000,   0.08000,
,,,00.001109000000,   0.08000,
,,,00.001110000000,   0.08000,
,,,00.001111000000,   0.06000,
,,,00.001112000000,   0.06000,
,,,00.001113000000,   0.08000,
,,,00.001114000000,   0.08000,
,,,00.001115000000,   0.06000,
,,,00.001116000000,   0.08000,
,,,00.001117000000,   0.08000,
,,,00.001118000000,   0.06000,
,,,00.001119000000,   0.08000,
,,,00.001120000000,   0.08000,
,,,00.001121000000,   0.06000,
,,,00.001122000000,   0.08000,
,,,00.001123000000,   0.08000,
,,,00.001124000000,   0.08000,
,,,00.001125000000,   0.08000,
,,,00.001126000000,   0.06000,
,,,00.001127000000,   0.08000,
,,,00.001128000000,   0.08000,
,,,00.001129000000,   0.06000,
,,,00.001130000000,   0.08000,
,,,00.001131000000,   0.08000,
,,,00.001132000000,   0.06000,
,,,00.001133000000,   0.08000,
,,,00.001134000000,   0.06000,
,,,00.001135000000,   0.06000,
,,,00.001136000000,   0.08000,
,,,00.001137000000,   0.08000,
,,,00.001138000000,   0.06000,
,,,00.001139000000,   0.08000,
,,,00.001140000000,   0.08000,
,,,00.001141000000,   0.06000,
,,,00.001142000000,   0.08000,
,,,00.001143000000,   0.08000,
,,,00.001144000000,   0.08000,
,,,00.001145000000,   0.08000,
,,,00.001146000000,   0.08000,
,,,00.001147000000,   0.08000,
,,,00.001148000000,   0.06000,
,,,00.001149000000,   0.08000,
,,,00.001150000000,   0.06000,
,,,00.001151000000,   0.08000,
,,,00.001152000000,   0.06000,
,,,00.001153000000,   0.06000,
,,,00.001154000000,   0.08000,
,,,00.001155000000,   0.06000,
,,,00.001156000000,   0.06000,
,,,00.001157000000,   0.06000,
,,,00.001158000000,   0.08000,
,,,00.001159000000,   0.06000,
,,,00.001160000000,   0.06000,
,,,00.001161000000,   0.08000,
,,,00.001162000000,   0.08000,
,,,00.001163000000,   0.08000,
,,,00.001164000000,   0.06000,
,,,00.001165000000,   0.08000,
,,,00.001166000000,   0.08000,
,,,00.001167000000,   0.06000,
,,,00.001168000000,   0.08000,
,,,00.001169000000,   0.06000,
,,,00.001170000000,   0.08000,
,,,00.001171000000,   0.08000,
,,,00.001172000000,   0.08000,
,,,00.001173000000,   0.08000,
,,,00.001174000000,   0.06000,
,,,00.001175000000,   0.06000,
,,,00.001176000000,   0.06000,
,,,00.001177000000,   0.08000,
,,,00.001178000000,   0.06000,
,,,00.001179000000,   0.08000,
,,,00.001180000000,   0.08000,
,,,00.001181000000,   0.06000,
,,,00.001182000000,   0.08000,
,,,00.001183000000,   0.08000,
,,,00.001184000000,   0.06000,
,,,00.001185000000,   0.08000,
,,,00.001186000000,   0.08000,
,,,00.001187000000,   0.08000,
,,,00.001188000000,   0.08000,
,,,00.001189000000,   0.08000,
,,,00.001190000000,   0.08000,
,,,00.001191000000,   0.08000,
,,,00.001192000000,   0.08000,
,,,00.001193000000,   0.06000,
,,,00.001194000000,   0.08000,
,,,00.001195000000,   0.08000,
,,,00.001196000000,   0.08000,
,,,00.001197000000,   0.08000,
,,,00.001198000000,   0.08000,
,,,00.001199000000,   0.06000,
,,,00.001200000000,   0.06000,
,,,00.001201000000,   0.08000,
,,,00.001202000000,   0.08000,
,,,00.001203000000,   0.08000,
,,,00.001204000000,   0.08000,
,,,00.001205000000,   0.08000,
,,,00.001206000000,   0.08000,
,,,00.001207000000,   0.06000,
,,,00.001208000000,   0.08000,
,,,00.001209000000,   0.06000,
,,,00.001210000000,   0.06000,
,,,00.001211000000,   0.08000,
,,,00.001212000000,   0.06000,
,,,00.001213000000,   0.08000,
,,,00.001214000000,   0.06000,
,,,00.001215000000,   0.08000,
,,,00.001216000000,   0.08000,
,,,00.001217000000,   0.06000,
,,,00.001218000000,   0.08000,
,,,00.001219000000,   0.08000,
,,,00.001220000000,   0.06000,
,,,00.001221000000,   0.08000,
,,,00.001222000000,   0.06000,
,,,00.001223000000,   0.08000,
,,,00.001224000000,   0.06000,
,,,00.001225000000,   0.06000,
,,,00.001226000000,   0.08000,
,,,00.001227000000,   0.08000,
,,,00.001228000000,   0.08000,
,,,00.001229000000,   0.06000,
,,,00.001230000000,   0.06000,
,,,00.001231000000,   0.08000,
,,,00.001232000000,   0.06000,
,,,00.001233000000,   0.06000,
,,,00.001234000000,   0.08000,
,,,00.001235000000,   0.06000,
,,,00.001236000000,   0.08000,
,,,00.001237000000,   0.06000,
,,,00.001238000000,   0.08000,
,,,00.001239000000,   0.06000,
,,,00.001240000000,   0.08000,
,,,00.001241000000,   0.08000,
,,,00.001242000000,   0.06000,
,,,00.001243000000,   0.08000,
,,,00.001244000000,   0.08000,
,,,00.001245000000,   0.06000,
,,,00.001246000000,   0.06000,
,,,00.001247000000,   0.08000,
,,,00.001248000000,   0.06000,
,,,00.001249000000,   0.08000,
,,,00.001250000000,   0.08000,
,,,00.001251000000,   0.08000,
,,,00.001252000000,   0.06000,
,,,00.001253000000,   0.08000,
,,,00.001254000000,   0.08000,
,,,00.001255000000,   0.08000,
,,,00.001256000000,   0.08000,
,,,00.001257000000,   0.06000,
,,,00.001258000000,   0.06000,
,,,00.001259000000,   0.08000,
,,,00.001260000000,   0.08000,
,,,00.001261000000,   0.04000,
,,,00.001262000000,   0.08000,
,,,00.001263000000,   0.06000,
,,,00.001264000000,   0.06000,
,,,00.001265000000,   0.08000,
,,,00.001266000000,   0.08000,
,,,00.001267000000,   0.08000,
,,,00.001268000000,   0.06000,
,,,00.001269000000,   0.06000,
,,,00.001270000000,   0.08000,
,,,00.001271000000,   0.08000,
,,,00.001272000000,   0.08000,
,,,00.001273000000,   0.08000,
,,,00.001274000000,   0.08000,
,,,00.001275000000,   0.08000,
,,,00.001276000000,   0.06000,
,,,00.001277000000,   0.06000,
,,,00.001278000000,   0.08000,
,,,00.001279000000,   0.08000,
,,,00.001280000000,   0.08000,
,,,00.001281000000,   0.08000,
,,,00.001282000000,   0.08000,
,,,00.001283000000,   0.08000,
,,,00.001284000000,   0.06000,
,,,00.001285000000,   0.08000,
,,,00.001286000000,   0.06000,
,,,00.001287000000,   0.08000,
,,,00.001288000000,   0.06000,
,,,00.001289000000,   0.06000,
,,,00.001290000000,   0.08000,
,,,00.001291000000,   0.08000,
,,,00.001292000000,   0.06000,
,,,00.001293000000,   0.08000,
,,,00.001294000000,   0.06000,
,,,00.001295000000,   0.08000,
,,,00.001296000000,   0.08000,
,,,00.001297000000,   0.08000,
,,,00.001298000000,   0.06000,
,,,00.001299000000,   0.06000,
,,,00.001300000000,   0.06000,
,,,00.001301000000,   0.06000,
,,,00.001302000000,   0.08000,
,,,00.001303000000,   0.06000,
,,,00.001304000000,   0.06000,
,,,00.001305000000,   0.06000,
,,,00.001306000000,   0.08000,
,,,00.001307000000,   0.06000,
,,,00.001308000000,   0.06000,
,,,00.001309000000,   0.06000,
,,,00.001310000000,   0.06000,
,,,00.001311000000,   0.08000,
,,,00.001312000000,   0.08000,
,,,00.001313000000,   0.06000,
,,,00.001314000000,   0.08000,
,,,00.001315000000,   0.08000,
,,,00.001316000000,   0.06000,
,,,00.001317000000,   0.08000,
,,,00.001318000000,   0.08000,
,,,00.001319000000,   0.08000,
,,,00.001320000000,   0.06000,
,,,00.001321000000,   0.08000,
,,,00.001322000000,   0.06000,
,,,00.001323000000,   0.06000,
,,,00.001324000000,   0.06000,
,,,00.001325000000,   0.08000,
,,,00.001326000000,   0.06000,
,,,00.001327000000,   0.06000,
,,,00.001328000000,   0.06000,
,,,00.001329000000,   0.06000,
,,,00.001330000000,   0.06000,
,,,00.001331000000,   0.06000,
,,,00.001332000000,   0.10000,
,,,00.001333000000,   0.08000,
,,,00.001334000000,   0.08000,
,,,00.001335000000,   0.08000,
,,,00.001336000000,   0.08000,
,,,00.001337000000,   0.06000,
,,,00.001338000000,   0.06000,
,,,00.001339000000,   0.08000,
,,,00.001340000000,   0.08000,
,,,00.001341000000,   0.06000,
,,,00.001342000000,   0.06000,
,,,00.001343000000,   0.06000,
,,,00.001344000000,   0.08000,
,,,00.001345000000,   0.08000,
,,,00.001346000000,   0.08000,
,,,00.001347000000,   0.06000,
,,,00.001348000000,   0.06000,
,,,00.001349000000,   0.06000,
,,,00.001350000000,   0.08000,
,,,00.001351000000,   0.08000,
,,,00.001352000000,   0.06000,
,,,00.001353000000,   0.06000,
,,,00.001354000000,   0.08000,
,,,00.001355000000,   0.06000,
,,,00.001356000000,   0.06000,
,,,00.001357000000,   0.08000,
,,,00.001358000000,   0.08000,
,,,00.001359000000,   0.08000,
,,,00.001360000000,   0.06000,
,,,00.001361000000,   0.06000,
,,,00.001362000000,   0.08000,
,,,00.001363000000,   0.06000,
,,,00.001364000000,   0.08000,
,,,00.001365000000,   0.08000,
,,,00.001366000000,   0.06000,
,,,00.001367000000,   0.06000,
,,,00.001368000000,   0.06000,
,,,00.001369000000,   0.08000,
,,,00.001370000000,   0.08000,
,,,00.001371000000,   0.06000,
,,,00.001372000000,   0.08000,
,,,00.001373000000,   0.08000,
,,,00.001374000000,   0.08000,
,,,00.001375000000,   0.06000,
,,,00.001376000000,   0.06000,
,,,00.001377000000,   0.06000,
,,,00.001378000000,   0.06000,
,,,00.001379000000,   0.06000,
,,,00.001380000000,   0.06000,
,,,00.001381000000,   0.06000,
,,,00.001382000000,   0.08000,
,,,00.001383000000,   0.06000,
,,,00.001384000000,   0.08000,
,,,00.001385000000,   0.06000,
,,,00.001386000000,   0.06000,
,,,00.001387000000,   0.06000,
,,,00.001388000000,   0.06000,
,,,00.001389000000,   0.06000,
,,,00.001390000000,   0.08000,
,,,00.001391000000,   0.06000,
,,,00.001392000000,   0.06000,
,,,00.001393000000,   0.06000,
,,,00.001394000000,   0.06000,
,,,00.001395000000,   0.06000,
,,,00.001396000000,   0.08000,
,,,00.001397000000,   0.06000,
,,,00.001398000000,   0.08000,
,,,00.001399000000,   0.06000,
,,,00.001400000000,   0.06000,
,,,00.001401000000,   0.08000,
,,,00.001402000000,   0.06000,
,,,00.001403000000,   0.06000,
,,,00.001404000000,   0.06000,
,,,00.001405000000,   0.06000,
,,,00.001406000000,   0.06000,
,,,00.001407000000,   0.06000,
,,,00.001408000000,   0.06000,
,,,00.001409000000,   0.08000,
,,,00.001410000000,   0.08000,
,,,00.001411000000,   0.08000,
,,,00.001412000000,   0.06000,
,,,00.001413000000,   0.06000,
,,,00.001414000000,   0.06000,
,,,00.001415000000,   0.08000,
,,,00.001416000000,   0.08000,
,,,00.001417000000,   0.06000,
,,,00.001418000000,   0.08000,
,,,00.001419000000,   0.08000,
,,,00.001420000000,   0.08000,
,,,00.001421000000,   0.06000,
,,,00.001422000000,   0.06000,
,,,00.001423000000,   0.06000,
,,,00.001424000000,   0.06000,
,,,00.001425000000,   0.06000,
,,,00.001426000000,   0.06000,
,,,00.001427000000,   0.06000,
,,,00.001428000000,   0.08000,
,,,00.001429000000,   0.08000,
,,,00.001430000000,   0.06000,
,,,00.001431000000,   0.06000,
,,,00.001432000000,   0.06000,
,,,00.001433000000,   0.06000,
,,,00.001434000000,   0.06000,
,,,00.001435000000,   0.06000,
,,,00.001436000000,   0.06000,
,,,00.001437000000,   0.06000,
,,,00.001438000000,   0.06000,
,,,00.001439000000,   0.06000,
,,,00.001440000000,   0.06000,
,,,00.001441000000,   0.06000,
,,,00.001442000000,   0.06000,
,,,00.001443000000,   0.06000,
,,,00.001444000000,   0.04000,
,,,00.001445000000,   0.06000,
,,,00.001446000000,   0.08000,
,,,00.001447000000,   0.08000,
,,,00.001448000000,   0.06000,
,,,00.001449000000,   0.06000,
,,,00.001450000000,   0.06000,
,,,00.001451000000,   0.06000,
,,,00.001452000000,   0.06000,
,,,00.001453000000,   0.06000,
,,,00.001454000000,   0.06000,
,,,00.001455000000,   0.06000,
,,,00.001456000000,   0.08000,
,,,00.001457000000,   0.08000,
,,,00.001458000000,   0.08000,
,,,00.001459000000,   0.06000,
,,,00.001460000000,   0.08000,
,,,00.001461000000,   0.08000,
,,,00.001462000000,   0.06000,
,,,00.001463000000,   0.08000,
,,,00.001464000000,   0.06000,
,,,00.001465000000,   0.06000,
,,,00.001466000000,   0.08000,
,,,00.001467000000,   0.08000,
,,,00.001468000000,   0.08000,
,,,00.001469000000,   0.06000,
,,,00.001470000000,   0.06000,
,,,00.001471000000,   0.06000,
,,,00.001472000000,   0.06000,
,,,00.001473000000,   0.06000,
,,,00.001474000000,   0.08000,
,,,00.001475000000,   0.08000,
,,,00.001476000000,   0.06000,
,,,00.001477000000,   0.06000,
,,,00.001478000000,   0.06000,
,,,00.001479000000,   0.08000,
,,,00.001480000000,   0.04000,
,,,00.001481000000,   0.06000,
,,,00.001482000000,   0.08000,
,,,00.001483000000,   0.06000,
,,,00.001484000000,   0.06000,
,,,00.001485000000,   0.06000,
,,,00.001486000000,   0.06000,
,,,00.001487000000,   0.06000,
,,,00.001488000000,   0.06000,
,,,00.001489000000,   0.06000,
,,,00.001490000000,   0.06000,
,,,00.001491000000,   0.06000,
,,,00.001492000000,   0.06000,
,,,00.001493000000,   0.08000,
,,,00.001494000000,   0.08000,
,,,00.001495000000,   0.08000,
,,,00.001496000000,   0.06000,
,,,00.001497000000,   0.06000,
,,,00.001498000000,   0.06000,
,,,00.001499000000,   0.08000,
,,,00.001500000000,   0.06000,
,,,00.001501000000,   0.06000,
,,,00.001502000000,   0.08000,
,,,00.001503000000,   0.06000,
,,,00.001504000000,   0.10000,
,,,00.001505000000,   0.06000,
,,,00.001506000000,   0.04000,
,,,00.001507000000,   0.06000,
,,,00.001508000000,   0.06000,
,,,00.001509000000,   0.06000,
,,,00.001510000000,   0.06000,
,,,00.001511000000,   0.06000,
,,,00.001512000000,   0.06000,
,,,00.001513000000,   0.06000,
,,,00.001514000000,   0.08000,
,,,00.001515000000,   0.06000,
,,,00.001516000000,   0.06000,
,,,00.001517000000,   0.06000,
,,,00.001518000000,   0.06000,
,,,00.001519000000,   0.08000,
,,,00.001520000000,   0.06000,
,,,00.001521000000,   0.08000,
,,,00.001522000000,   0.06000,
,,,00.001523000000,   0.06000,
,,,00.001524000000,   0.06000,
,,,00.001525000000,   0.08000,
,,,00.001526000000,   0.06000,
,,,00.001527000000,   0.06000,
,,,00.001528000000,   0.06000,
,,,00.001529000000,   0.06000,
,,,00.001530000000,   0.06000,
,,,00.001531000000,   0.08000,
,,,00.001532000000,   0.06000,
,,,00.001533000000,   0.06000,
,,,00.001534000000,   0.04000,
,,,00.001535000000,   0.06000,
,,,00.001536000000,   0.08000,
,,,00.001537000000,   0.06000,
,,,00.001538000000,   0.06000,
,,,00.001539000000,   0.08000,
,,,00.001540000000,   0.04000,
,,,00.001541000000,   0.06000,
,,,00.001542000000,   0.04000,
,,,00.001543000000,   0.06000,
,,,00.001544000000,   0.06000,
,,,00.001545000000,   0.06000,
,,,00.001546000000,   0.06000,
,,,00.001547000000,   0.06000,
,,,00.001548000000,   0.06000,
,,,00.001549000000,   0.06000,
,,,00.001550000000,   0.08000,
,,,00.001551000000,   0.06000,
,,,00.001552000000,   0.06000,
,,,00.001553000000,   0.06000,
,,,00.001554000000,   0.06000,
,,,00.001555000000,   0.06000,
,,,00.001556000000,   0.06000,
,,,00.001557000000,   0.04000,
,,,00.001558000000,   0.06000,
,,,00.001559000000,   0.06000,
,,,00.001560000000,   0.06000,
,,,00.001561000000,   0.06000,
,,,00.001562000000,   0.06000,
,,,00.001563000000,   0.08000,
,,,00.001564000000,   0.06000,
,,,00.001565000000,   0.04000,
,,,00.001566000000,   0.06000,
,,,00.001567000000,   0.06000,
,,,00.001568000000,   0.06000,
,,,00.001569000000,   0.06000,
,,,00.001570000000,   0.06000,
,,,00.001571000000,   0.06000,
,,,00.001572000000,   0.04000,
,,,00.001573000000,   0.06000,
,,,00.001574000000,   0.08000,
,,,00.001575000000,   0.08000,
,,,00.001576000000,   0.06000,
,,,00.001577000000,   0.06000,
,,,00.001578000000,   0.06000,
,,,00.001579000000,   0.04000,
,,,00.001580000000,   0.06000,
,,,00.001581000000,   0.06000,
,,,00.001582000000,   0.08000,
,,,00.001583000000,   0.06000,
,,,00.001584000000,   0.08000,
,,,00.001585000000,   0.06000,
,,,00.001586000000,   0.06000,
,,,00.001587000000,   0.06000,
,,,00.001588000000,   0.06000,
,,,00.001589000000,   0.06000,
,,,00.001590000000,   0.06000,
,,,00.001591000000,   0.08000,
,,,00.001592000000,   0.08000,
,,,00.001593000000,   0.06000,
,,,00.001594000000,   0.06000,
,,,00.001595000000,   0.06000,
,,,00.001596000000,   0.06000,
,,,00.001597000000,   0.06000,
,,,00.001598000000,   0.06000,
,,,00.001599000000,   0.04000,
,,,00.001600000000,   0.04000,
,,,00.001601000000,   0.06000,
,,,00.001602000000,   0.06000,
,,,00.001603000000,   0.06000,
,,,00.001604000000,   0.06000,
,,,00.001605000000,   0.06000,
,,,00.001606000000,   0.06000,
,,,00.001607000000,   0.04000,
,,,00.001608000000,   0.08000,
,,,00.001609000000,   0.08000,
,,,00.001610000000,   0.08000,
,,,00.001611000000,   0.06000,
,,,00.001612000000,   0.06000,
,,,00.001613000000,   0.06000,
,,,00.001614000000,   0.06000,
,,,00.001615000000,   0.06000,
,,,00.001616000000,   0.06000,
,,,00.001617000000,   0.04000,
,,,00.001618000000,   0.06000,
,,,00.001619000000,   0.06000,
,,,00.001620000000,   0.06000,
,,,00.001621000000,   0.08000,
,,,00.001622000000,   0.08000,
,,,00.001623000000,   0.08000,
,,,00.001624000000,   0.08000,
,,,00.001625000000,   0.06000,
,,,00.001626000000,   0.04000,
,,,00.001627000000,   0.08000,
,,,00.001628000000,   0.06000,
,,,00.001629000000,   0.06000,
,,,00.001630000000,   0.06000,
,,,00.001631000000,   0.06000,
,,,00.001632000000,   0.06000,
,,,00.001633000000,   0.06000,
,,,00.001634000000,   0.08000,
,,,00.001635000000,   0.08000,
,,,00.001636000000,   0.06000,
,,,00.001637000000,   0.08000,
,,,00.001638000000,   0.08000,
,,,00.001639000000,   0.06000,
,,,00.001640000000,   0.06000,
,,,00.001641000000,   0.04000,
,,,00.001642000000,   0.08000,
,,,00.001643000000,   0.06000,
,,,00.001644000000,   0.06000,
,,,00.001645000000,   0.08000,
,,,00.001646000000,   0.08000,
,,,00.001647000000,   0.08000,
,,,00.001648000000,   0.06000,
,,,00.001649000000,   0.06000,
,,,00.001650000000,   0.06000,
,,,00.001651000000,   0.06000,
,,,00.001652000000,   0.06000,
,,,00.001653000000,   0.06000,
,,,00.001654000000,   0.06000,
,,,00.001655000000,   0.06000,
,,,00.001656000000,   0.06000,
,,,00.001657000000,   0.06000,
,,,00.001658000000,   0.08000,
,,,00.001659000000,   0.08000,
,,,00.001660000000,   0.06000,
,,,00.001661000000,   0.08000,
,,,00.001662000000,   0.06000,
,,,00.001663000000,   0.06000,
,,,00.001664000000,   0.04000,
,,,00.001665000000,   0.04000,
,,,00.001666000000,   0.06000,
,,,00.001667000000,   0.06000,
,,,00.001668000000,   0.08000,
,,,00.001669000000,   0.08000,
,,,00.001670000000,   0.06000,
,,,00.001671000000,   0.06000,
,,,00.001672000000,   0.06000,
,,,00.001673000000,   0.06000,
,,,00.001674000000,   0.06000,
,,,00.001675000000,   0.06000,
,,,00.001676000000,   0.08000,
,,,00.001677000000,   0.06000,
,,,00.001678000000,   0.06000,
,,,00.001679000000,   0.04000,
,,,00.001680000000,   0.06000,
,,,00.001681000000,   0.06000,
,,,00.001682000000,   0.06000,
,,,00.001683000000,   0.08000,
,,,00.001684000000,   0.08000,
,,,00.001685000000,   0.06000,
,,,00.001686000000,   0.08000,
,,,00.001687000000,   0.08000,
,,,00.001688000000,   0.06000,
,,,00.001689000000,   0.06000,
,,,00.001690000000,   0.06000,
,,,00.001691000000,   0.06000,
,,,00.001692000000,   0.06000,
,,,00.001693000000,   0.06000,
,,,00.001694000000,   0.04000,
,,,00.001695000000,   0.06000,
,,,00.001696000000,   0.08000,
,,,00.001697000000,   0.04000,
,,,00.001698000000,   0.04000,
,,,00.001699000000,   0.06000,
,,,00.001700000000,   0.04000,
,,,00.001701000000,   0.06000,
,,,00.001702000000,   0.06000,
,,,00.001703000000,   0.06000,
,,,00.001704000000,   0.06000,
,,,00.001705000000,   0.06000,
,,,00.001706000000,   0.06000,
,,,00.001707000000,   0.06000,
,,,00.001708000000,   0.06000,
,,,00.001709000000,   0.06000,
,,,00.001710000000,   0.04000,
,,,00.001711000000,   0.06000,
,,,00.001712000000,   0.08000,
,,,00.001713000000,   0.08000,
,,,00.001714000000,   0.06000,
,,,00.001715000000,   0.08000,
,,,00.001716000000,   0.06000,
,,,00.001717000000,   0.06000,
,,,00.001718000000,   0.06000,
,,,00.001719000000,   0.06000,
,,,00.001720000000,   0.06000,
,,,00.001721000000,   0.06000,
,,,00.001722000000,   0.06000,
,,,00.001723000000,   0.06000,
,,,00.001724000000,   0.06000,
,,,00.001725000000,   0.06000,
,,,00.001726000000,   0.06000,
,,,00.001727000000,   0.06000,
,,,00.001728000000,   0.06000,
,,,00.001729000000,   0.04000,
,,,00.001730000000,   0.06000,
,,,00.001731000000,   0.04000,
,,,00.001732000000,   0.04000,
,,,00.001733000000,   0.04000,
,,,00.001734000000,   0.06000,
,,,00.001735000000,   0.06000,
,,,00.001736000000,   0.04000,
,,,00.001737000000,   0.02000,
,,,00.001738000000,   0.06000,
,,,00.001739000000,   0.04000,
,,,00.001740000000,   0.04000,
,,,00.001741000000,   0.04000,
,,,00.001742000000,   0.06000,
,,,00.001743000000,   0.06000,
,,,00.001744000000,   0.06000,
,,,00.001745000000,   0.06000,
,,,00.001746000000,   0.06000,
,,,00.001747000000,   0.04000,
,,,00.001748000000,   0.06000,
,,,00.001749000000,   0.06000,
,,,00.001750000000,   0.06000,
,,,00.001751000000,   0.04000,
,,,00.001752000000,   0.06000,
,,,00.001753000000,   0.06000,
,,,00.001754000000,   0.06000,
,,,00.001755000000,   0.06000,
,,,00.001756000000,   0.06000,
,,,00.001757000000,   0.06000,
,,,00.001758000000,   0.04000,
,,,00.001759000000,   0.06000,
,,,00.001760000000,   0.06000,
,,,00.001761000000,   0.06000,
,,,00.001762000000,   0.08000,
,,,00.001763000000,   0.08000,
,,,00.001764000000,   0.06000,
,,,00.001765000000,   0.08000,
,,,00.001766000000,   0.06000,
,,,00.001767000000,   0.08000,
,,,00.001768000000,   0.06000,
,,,00.001769000000,   0.06000,
,,,00.001770000000,   0.06000,
,,,00.001771000000,   0.06000,
,,,00.001772000000,   0.04000,
,,,00.001773000000,   0.06000,
,,,00.001774000000,   0.06000,
,,,00.001775000000,   0.08000,
,,,00.001776000000,   0.06000,
,,,00.001777000000,   0.06000,
,,,00.001778000000,   0.08000,
,,,00.001779000000,   0.08000,
,,,00.001780000000,   0.04000,
,,,00.001781000000,   0.06000,
,,,00.001782000000,   0.04000,
,,,00.001783000000,   0.06000,
,,,00.001784000000,   0.06000,
,,,00.001785000000,   0.06000,
,,,00.001786000000,   0.06000,
,,,00.001787000000,   0.06000,
,,,00.001788000000,   0.06000,
,,,00.001789000000,   0.04000,
,,,00.001790000000,   0.06000,
,,,00.001791000000,   0.04000,
,,,00.001792000000,   0.06000,
,,,00.001793000000,   0.06000,
,,,00.001794000000,   0.04000,
,,,00.001795000000,   0.06000,
,,,00.001796000000,   0.04000,
,,,00.001797000000,   0.06000,
,,,00.001798000000,   0.06000,
,,,00.001799000000,   0.04000,
,,,00.001800000000,   0.06000,
,,,00.001801000000,   0.06000,
,,,00.001802000000,   0.06000,
,,,00.001803000000,   0.04000,
,,,00.001804000000,   0.06000,
,,,00.001805000000,   0.08000,
,,,00.001806000000,   0.06000,
,,,00.001807000000,   0.06000,
,,,00.001808000000,   0.04000,
,,,00.001809000000,   0.06000,
,,,00.001810000000,   0.06000,
,,,00.001811000000,   0.06000,
,,,00.001812000000,   0.06000,
,,,00.001813000000,   0.06000,
,,,00.001814000000,   0.08000,
,,,00.001815000000,   0.06000,
,,,00.001816000000,   0.08000,
,,,00.001817000000,   0.06000,
,,,00.001818000000,   0.06000,
,,,00.001819000000,   0.08000,
,,,00.001820000000,   0.06000,
,,,00.001821000000,   0.06000,
,,,00.001822000000,   0.04000,
,,,00.001823000000,   0.06000,
,,,00.001824000000,   0.06000,
,,,00.001825000000,   0.06000,
,,,00.001826000000,   0.04000,
,,,00.001827000000,   0.06000,
,,,00.001828000000,   0.06000,
,,,00.001829000000,   0.04000,
,,,00.001830000000,   0.04000,
,,,00.001831000000,   0.04000,
,,,00.001832000000,   0.06000,
,,,00.001833000000,   0.08000,
,,,00.001834000000,   0.04000,
,,,00.001835000000,   0.04000,
,,,00.001836000000,   0.06000,
,,,00.001837000000,   0.04000,
,,,00.001838000000,   0.06000,
,,,00.001839000000,   0.06000,
,,,00.001840000000,   0.06000,
,,,00.001841000000,   0.06000,
,,,00.001842000000,   0.04000,
,,,00.001843000000,   0.06000,
,,,00.001844000000,   0.06000,
,,,00.001845000000,   0.06000,
,,,00.001846000000,   0.04000,
,,,00.001847000000,   0.06000,
,,,00.001848000000,   0.06000,
,,,00.001849000000,   0.06000,
,,,00.001850000000,   0.06000,
,,,00.001851000000,   0.06000,
,,,00.001852000000,   0.04000,
,,,00.001853000000,   0.04000,
,,,00.001854000000,   0.06000,
,,,00.001855000000,   0.06000,
,,,00.001856000000,   0.06000,
,,,00.001857000000,   0.04000,
,,,00.001858000000,   0.06000,
,,,00.001859000000,   0.06000,
,,,00.001860000000,   0.04000,
,,,00.001861000000,   0.06000,
,,,00.001862000000,   0.06000,
,,,00.001863000000,   0.06000,
,,,00.001864000000,   0.06000,
,,,00.001865000000,   0.06000,
,,,00.001866000000,   0.06000,
,,,00.001867000000,   0.08000,
,,,00.001868000000,   0.06000,
,,,00.001869000000,   0.06000,
,,,00.001870000000,   0.06000,
,,,00.001871000000,   0.06000,
,,,00.001872000000,   0.04000,
,,,00.001873000000,   0.04000,
,,,00.001874000000,   0.06000,
,,,00.001875000000,   0.06000,
,,,00.001876000000,   0.06000,
,,,00.001877000000,   0.04000,
,,,00.001878000000,   0.06000,
,,,00.001879000000,   0.04000,
,,,00.001880000000,   0.06000,
,,,00.001881000000,   0.06000,
,,,00.001882000000,   0.08000,
,,,00.001883000000,   0.06000,
,,,00.001884000000,   0.08000,
,,,00.001885000000,   0.06000,
,,,00.001886000000,   0.08000,
,,,00.001887000000,   0.04000,
,,,00.001888000000,   0.06000,
,,,00.001889000000,   0.06000,
,,,00.001890000000,   0.06000,
,,,00.001891000000,   0.06000,
,,,00.001892000000,   0.04000,
,,,00.001893000000,   0.06000,
,,,00.001894000000,   0.04000,
,,,00.001895000000,   0.06000,
,,,00.001896000000,   0.06000,
,,,00.001897000000,   0.06000,
,,,00.001898000000,   0.04000,
,,,00.001899000000,   0.06000,
,,,00.001900000000,   0.06000,
,,,00.001901000000,   0.04000,
,,,00.001902000000,   0.04000,
,,,00.001903000000,   0.06000,
,,,00.001904000000,   0.06000,
,,,00.001905000000,   0.06000,
,,,00.001906000000,   0.06000,
,,,00.001907000000,   0.04000,
,,,00.001908000000,   0.06000,
,,,00.001909000000,   0.04000,
,,,00.001910000000,   0.06000,
,,,00.001911000000,   0.06000,
,,,00.001912000000,   0.04000,
,,,00.001913000000,   0.06000,
,,,00.001914000000,   0.06000,
,,,00.001915000000,   0.06000,
,,,00.001916000000,   0.06000,
,,,00.001917000000,   0.04000,
,,,00.001918000000,   0.04000,
,,,00.001919000000,   0.06000,
,,,00.001920000000,   0.06000,
,,,00.001921000000,   0.04000,
,,,00.001922000000,   0.04000,
,,,00.001923000000,   0.06000,
,,,00.001924000000,   0.06000,
,,,00.001925000000,   0.06000,
,,,00.001926000000,   0.04000,
,,,00.001927000000,   0.04000,
,,,00.001928000000,   0.04000,
,,,00.001929000000,   0.06000,
,,,00.001930000000,   0.06000,
,,,00.001931000000,   0.06000,
,,,00.001932000000,   0.04000,
,,,00.001933000000,   0.06000,
,,,00.001934000000,   0.06000,
,,,00.001935000000,   0.04000,
,,,00.001936000000,   0.06000,
,,,00.001937000000,   0.06000,
,,,00.001938000000,   0.08000,
,,,00.001939000000,   0.06000,
,,,00.001940000000,   0.08000,
,,,00.001941000000,   0.08000,
,,,00.001942000000,   0.06000,
,,,00.001943000000,   0.06000,
,,,00.001944000000,   0.06000,
,,,00.001945000000,   0.06000,
,,,00.001946000000,   0.06000,
,,,00.001947000000,   0.08000,
,,,00.001948000000,   0.06000,
,,,00.001949000000,   0.08000,
,,,00.001950000000,   0.06000,
,,,00.001951000000,   0.06000,
,,,00.001952000000,   0.06000,
,,,00.001953000000,   0.06000,
,,,00.001954000000,   0.06000,
,,,00.001955000000,   0.04000,
,,,00.001956000000,   0.04000,
,,,00.001957000000,   0.04000,
,,,00.001958000000,   0.06000,
,,,00.001959000000,   0.04000,
,,,00.001960000000,   0.06000,
,,,00.001961000000,   0.04000,
,,,00.001962000000,   0.06000,
,,,00.001963000000,   0.04000,
,,,00.001964000000,   0.06000,
,,,00.001965000000,   0.04000,
,,,00.001966000000,   0.06000,
,,,00.001967000000,   0.04000,
,,,00.001968000000,   0.04000,
,,,00.001969000000,   0.04000,
,,,00.001970000000,   0.04000,
,,,00.001971000000,   0.04000,
,,,00.001972000000,   0.04000,
,,,00.001973000000,   0.06000,
,,,00.001974000000,   0.04000,
,,,00.001975000000,   0.06000,
,,,00.001976000000,   0.06000,
,,,00.001977000000,   0.04000,
,,,00.001978000000,   0.06000,
,,,00.001979000000,   0.04000,
,,,00.001980000000,   0.06000,
,,,00.001981000000,   0.04000,
,,,00.001982000000,   0.06000,
,,,00.001983000000,   0.04000,
,,,00.001984000000,   0.04000,
,,,00.001985000000,   0.06000,
,,,00.001986000000,   0.04000,
,,,00.001987000000,   0.04000,
,,,00.001988000000,   0.06000,
,,,00.001989000000,   0.04000,
,,,00.001990000000,   0.06000,
,,,00.001991000000,   0.04000,
,,,00.001992000000,   0.04000,
,,,00.001993000000,   0.06000,
,,,00.001994000000,   0.08000,
,,,00.001995000000,   0.04000,
,,,00.001996000000,   0.06000,
,,,00.001997000000,   0.06000,
,,,00.001998000000,   0.06000,
,,,00.001999000000,   0.06000,
,,,00.002000000000,   0.04000,
,,,00.002001000000,   0.06000,
,,,00.002002000000,   0.06000,
,,,00.002003000000,   0.04000,
,,,00.002004000000,   0.06000,
,,,00.002005000000,   0.06000,
,,,00.002006000000,   0.06000,
,,,00.002007000000,   0.04000,
,,,00.002008000000,   0.04000,
,,,00.002009000000,   0.08000,
,,,00.002010000000,   0.04000,
,,,00.002011000000,   0.06000,
,,,00.002012000000,   0.04000,
,,,00.002013000000,   0.06000,
,,,00.002014000000,   0.04000,
,,,00.002015000000,   0.06000,
,,,00.002016000000,   0.04000,
,,,00.002017000000,   0.04000,
,,,00.002018000000,   0.06000,
,,,00.002019000000,   0.06000,
,,,00.002020000000,   0.06000,
,,,00.002021000000,   0.06000,
,,,00.002022000000,   0.06000,
,,,00.002023000000,   0.06000,
,,,00.002024000000,   0.06000,
,,,00.002025000000,   0.04000,
,,,00.002026000000,   0.06000,
,,,00.002027000000,   0.06000,
,,,00.002028000000,   0.04000,
,,,00.002029000000,   0.04000,
,,,00.002030000000,   0.08000,
,,,00.002031000000,   0.06000,
,,,00.002032000000,   0.06000,
,,,00.002033000000,   0.06000,
,,,00.002034000000,   0.06000,
,,,00.002035000000,   0.04000,
,,,00.002036000000,   0.04000,
,,,00.002037000000,   0.04000,
,,,00.002038000000,   0.06000,
,,,00.002039000000,   0.06000,
,,,00.002040000000,   0.06000,
,,,00.002041000000,   0.06000,
,,,00.002042000000,   0.06000,
,,,00.002043000000,   0.04000,
,,,00.002044000000,   0.08000,
,,,00.002045000000,   0.06000,
,,,00.002046000000,   0.06000,
,,,00.002047000000,   0.06000,
,,,00.002048000000,   0.06000,
,,,00.002049000000,   0.06000,
,,,00.002050000000,   0.08000,
,,,00.002051000000,   0.08000,
,,,00.002052000000,   0.04000,
,,,00.002053000000,   0.06000,
,,,00.002054000000,   0.06000,
,,,00.002055000000,   0.06000,
,,,00.002056000000,   0.06000,
,,,00.002057000000,   0.06000,
,,,00.002058000000,   0.04000,
,,,00.002059000000,   0.06000,
,,,00.002060000000,   0.06000,
,,,00.002061000000,   0.06000,
,,,00.002062000000,   0.06000,
,,,00.002063000000,   0.06000,
,,,00.002064000000,   0.06000,
,,,00.002065000000,   0.04000,
,,,00.002066000000,   0.06000,
,,,00.002067000000,   0.04000,
,,,00.002068000000,   0.06000,
,,,00.002069000000,   0.06000,
,,,00.002070000000,   0.04000,
,,,00.002071000000,   0.06000,
,,,00.002072000000,   0.04000,
,,,00.002073000000,   0.04000,
,,,00.002074000000,   0.06000,
,,,00.002075000000,   0.06000,
,,,00.002076000000,   0.04000,
,,,00.002077000000,   0.04000,
,,,00.002078000000,   0.04000,
,,,00.002079000000,   0.04000,
,,,00.002080000000,   0.04000,
,,,00.002081000000,   0.06000,
,,,00.002082000000,   0.06000,
,,,00.002083000000,   0.04000,
,,,00.002084000000,   0.06000,
,,,00.002085000000,   0.04000,
,,,00.002086000000,   0.06000,
,,,00.002087000000,   0.04000,
,,,00.002088000000,   0.04000,
,,,00.002089000000,   0.04000,
,,,00.002090000000,   0.06000,
,,,00.002091000000,   0.06000,
,,,00.002092000000,   0.04000,
,,,00.002093000000,   0.06000,
,,,00.002094000000,   0.04000,
,,,00.002095000000,   0.06000,
,,,00.002096000000,   0.06000,
,,,00.002097000000,   0.04000,
,,,00.002098000000,   0.06000,
,,,00.002099000000,   0.04000,
,,,00.002100000000,   0.02000,
,,,00.002101000000,   0.06000,
,,,00.002102000000,   0.06000,
,,,00.002103000000,   0.04000,
,,,00.002104000000,   0.06000,
,,,00.002105000000,   0.06000,
,,,00.002106000000,   0.04000,
,,,00.002107000000,   0.06000,
,,,00.002108000000,   0.04000,
,,,00.002109000000,   0.04000,
,,,00.002110000000,   0.04000,
,,,00.002111000000,   0.06000,
,,,00.002112000000,   0.06000,
,,,00.002113000000,   0.04000,
,,,00.002114000000,   0.06000,
,,,00.002115000000,   0.04000,
,,,00.002116000000,   0.06000,
,,,00.002117000000,   0.06000,
,,,00.002118000000,   0.04000,
,,,00.002119000000,   0.04000,
,,,00.002120000000,   0.08000,
,,,00.002121000000,   0.06000,
,,,00.002122000000,   0.06000,
,,,00.002123000000,   0.06000,
,,,00.002124000000,   0.04000,
,,,00.002125000000,   0.06000,
,,,00.002126000000,   0.04000,
,,,00.002127000000,   0.06000,
,,,00.002128000000,   0.04000,
,,,00.002129000000,   0.06000,
,,,00.002130000000,   0.04000,
,,,00.002131000000,   0.06000,
,,,00.002132000000,   0.04000,
,,,00.002133000000,   0.06000,
,,,00.002134000000,   0.06000,
,,,00.002135000000,   0.06000,
,,,00.002136000000,   0.04000,
,,,00.002137000000,   0.06000,
,,,00.002138000000,   0.06000,
,,,00.002139000000,   0.06000,
,,,00.002140000000,   0.06000,
,,,00.002141000000,   0.04000,
,,,00.002142000000,   0.06000,
,,,00.002143000000,   0.06000,
,,,00.002144000000,   0.04000,
,,,00.002145000000,   0.04000,
,,,00.002146000000,   0.06000,
,,,00.002147000000,   0.06000,
,,,00.002148000000,   0.04000,
,,,00.002149000000,   0.04000,
,,,00.002150000000,   0.06000,
,,,00.002151000000,   0.04000,
,,,00.002152000000,   0.06000,
,,,00.002153000000,   0.06000,
,,,00.002154000000,   0.06000,
,,,00.002155000000,   0.04000,
,,,00.002156000000,   0.06000,
,,,00.002157000000,   0.06000,
,,,00.002158000000,   0.04000,
,,,00.002159000000,   0.04000,
,,,00.002160000000,   0.06000,
,,,00.002161000000,   0.06000,
,,,00.002162000000,   0.06000,
,,,00.002163000000,   0.08000,
,,,00.002164000000,   0.04000,
,,,00.002165000000,   0.06000,
,,,00.002166000000,  -0.28000,
,,,00.002167000000,  -0.58000,
,,,00.002168000000,  -0.82000,
,,,00.002169000000,  -0.98000,
,,,00.002170000000,  -1.10000,
,,,00.002171000000,  -1.20000,
,,,00.002172000000,  -1.24000,
,,,00.002173000000,  -1.30000,
,,,00.002174000000,  -1.34000,
,,,00.002175000000,  -1.34000,
,,,00.002176000000,  -1.34000,
,,,00.002177000000,  -1.34000,
,,,00.002178000000,  -1.34000,
,,,00.002179000000,  -1.32000,
,,,00.002180000000,  -1.32000,
,,,00.002181000000,  -1.32000,
,,,00.002182000000,  -1.28000,
,,,00.002183000000,  -1.26000,
,,,00.002184000000,  -1.26000,
,,,00.002185000000,  -1.22000,
,,,00.002186000000,  -1.20000,
,,,00.002187000000,  -1.20000,
,,,00.002188000000,  -1.18000,
,,,00.002189000000,  -1.16000,
,,,00.002190000000,  -1.14000,
,,,00.002191000000,  -1.12000,
,,,00.002192000000,  -1.10000,
,,,00.002193000000,  -1.10000,
,,,00.002194000000,  -1.06000,
,,,00.002195000000,  -1.06000,
,,,00.002196000000,  -1.04000,
,,,00.002197000000,  -1.04000,
,,,00.002198000000,  -1.02000,
,,,00.002199000000,  -1.00000,
,,,00.002200000000,  -0.96000,
,,,00.002201000000,  -0.98000,
,,,00.002202000000,  -0.96000,
,,,00.002203000000,  -0.94000,
,,,00.002204000000,  -0.92000,
,,,00.002205000000,  -0.94000,
,,,00.002206000000,  -0.92000,
,,,00.002207000000,  -0.90000,
,,,00.002208000000,  -0.90000,
,,,00.002209000000,  -0.86000,
,,,00.002210000000,  -0.90000,
,,,00.002211000000,  -0.84000,
,,,00.002212000000,  -0.86000,
,,,00.002213000000,  -0.84000,
,,,00.002214000000,  -0.84000,
,,,00.002215000000,  -0.84000,
,,,00.002216000000,  -0.82000,
,,,00.002217000000,  -0.80000,
,,,00.002218000000,  -0.80000,
,,,00.002219000000,  -0.78000,
,,,00.002220000000,  -0.80000,
,,,00.002221000000,  -0.76000,
,,,00.002222000000,  -0.76000,
,,,00.002223000000,  -0.76000,
,,,00.002224000000,  -0.74000,
,,,00.002225000000,  -0.72000,
,,,00.002226000000,  -0.72000,
,,,00.002227000000,  -0.72000,
,,,00.002228000000,  -0.70000,
,,,00.002229000000,  -0.70000,
,,,00.002230000000,  -0.68000,
,,,00.002231000000,  -0.70000,
,,,00.002232000000,  -0.68000,
,,,00.002233000000,  -0.66000,
,,,00.002234000000,  -0.66000,
,,,00.002235000000,  -0.66000,
,,,00.002236000000,  -0.66000,
,,,00.002237000000,  -0.64000,
,,,00.002238000000,  -0.64000,
,,,00.002239000000,  -0.64000,
,,,00.002240000000,  -0.62000,
,,,00.002241000000,  -0.62000,
,,,00.002242000000,  -0.62000,
,,,00.002243000000,  -0.60000,
,,,00.002244000000,  -0.60000,
,,,00.002245000000,  -0.60000,
,,,00.002246000000,  -0.60000,
,,,00.002247000000,  -0.58000,
,,,00.002248000000,  -0.60000,
,,,00.002249000000,  -0.58000,
,,,00.002250000000,  -0.56000,
,,,00.002251000000,  -0.56000,
,,,00.002252000000,  -0.56000,
,,,00.002253000000,  -0.56000,
,,,00.002254000000,  -0.56000,
,,,00.002255000000,  -0.54000,
,,,00.002256000000,  -0.54000,
,,,00.002257000000,  -0.54000,
,,,00.002258000000,  -0.54000,
,,,00.002259000000,  -0.52000,
,,,00.002260000000,  -0.52000,
,,,00.002261000000,  -0.50000,
,,,00.002262000000,  -0.52000,
,,,00.002263000000,  -0.50000,
,,,00.002264000000,  -0.50000,
,,,00.002265000000,  -0.50000,
,,,00.002266000000,  -0.50000,
,,,00.002267000000,  -0.48000,
,,,00.002268000000,  -0.48000,
,,,00.002269000000,  -0.48000,
,,,00.002270000000,  -0.46000,
,,,00.002271000000,  -0.46000,
,,,00.002272000000,  -0.46000,
,,,00.002273000000,  -0.44000,
,,,00.002274000000,  -0.44000,
,,,00.002275000000,  -0.44000,
,,,00.002276000000,  -0.44000,
,,,00.002277000000,  -0.44000,
,,,00.002278000000,  -0.42000,
,,,00.002279000000,  -0.44000,
,,,00.002280000000,  -0.44000,
,,,00.002281000000,  -0.42000,
,,,00.002282000000,  -0.42000,
,,,00.002283000000,  -0.42000,
,,,00.002284000000,  -0.42000,
,,,00.002285000000,  -0.40000,
,,,00.002286000000,  -0.40000,
,,,00.002287000000,  -0.40000,
,,,00.002288000000,  -0.38000,
,,,00.002289000000,  -0.38000,
,,,00.002290000000,  -0.38000,
,,,00.002291000000,  -0.38000,
,,,00.002292000000,  -0.36000,
,,,00.002293000000,  -0.38000,
,,,00.002294000000,  -0.38000,
,,,00.002295000000,  -0.36000,
,,,00.002296000000,  -0.36000,
,,,00.002297000000,  -0.38000,
,,,00.002298000000,  -0.34000,
,,,00.002299000000,  -0.36000,
,,,00.002300000000,  -0.34000,
,,,00.002301000000,  -0.36000,
,,,00.002302000000,  -0.34000,
,,,00.002303000000,  -0.34000,
,,,00.002304000000,  -0.36000,
,,,00.002305000000,  -0.34000,
,,,00.002306000000,  -0.34000,
,,,00.002307000000,  -0.32000,
,,,00.002308000000,  -0.32000,
,,,00.002309000000,  -0.34000,
,,,00.002310000000,  -0.32000,
,,,00.002311000000,  -0.34000,
,,,00.002312000000,  -0.32000,
,,,00.002313000000,  -0.32000,
,,,00.002314000000,  -0.30000,
,,,00.002315000000,  -0.30000,
,,,00.002316000000,  -0.30000,
,,,00.002317000000,  -0.28000,
,,,00.002318000000,  -0.28000,
,,,00.002319000000,  -0.28000,
,,,00.002320000000,  -0.28000,
,,,00.002321000000,  -0.30000,
,,,00.002322000000,  -0.28000,
,,,00.002323000000,  -0.28000,
,,,00.002324000000,  -0.30000,
,,,00.002325000000,  -0.28000,
,,,00.002326000000,  -0.28000,
,,,00.002327000000,  -0.28000,
,,,00.002328000000,  -0.26000,
,,,00.002329000000,  -0.26000,
,,,00.002330000000,  -0.26000,
,,,00.002331000000,  -0.26000,
,,,00.002332000000,  -0.26000,
,,,00.002333000000,  -0.24000,
,,,00.002334000000,  -0.24000,
,,,00.002335000000,  -0.24000,
,,,00.002336000000,  -0.24000,
,,,00.002337000000,  -0.24000,
,,,00.002338000000,  -0.24000,
,,,00.002339000000,  -0.24000,
,,,00.002340000000,  -0.24000,
,,,00.002341000000,  -0.22000,
,,,00.002342000000,  -0.22000,
,,,00.002343000000,  -0.22000,
,,,00.002344000000,  -0.24000,
,,,00.002345000000,  -0.24000,
,,,00.002346000000,  -0.22000,
,,,00.002347000000,  -0.22000,
,,,00.002348000000,  -0.22000,
,,,00.002349000000,  -0.22000,
,,,00.002350000000,  -0.20000,
,,,00.002351000000,  -0.20000,
,,,00.002352000000,  -0.22000,
,,,00.002353000000,  -0.20000,
,,,00.002354000000,  -0.20000,
,,,00.002355000000,  -0.22000,
,,,00.002356000000,  -0.20000,
,,,00.002357000000,  -0.20000,
,,,00.002358000000,  -0.20000,
,,,00.002359000000,  -0.20000,
,,,00.002360000000,  -0.20000,
,,,00.002361000000,  -0.20000,
,,,00.002362000000,  -0.20000,
,,,00.002363000000,  -0.20000,
,,,00.002364000000,  -0.18000,
,,,00.002365000000,  -0.18000,
,,,00.002366000000,  -0.18000,
,,,00.002367000000,  -0.16000,
,,,00.002368000000,  -0.18000,
,,,00.002369000000,  -0.18000,
,,,00.002370000000,  -0.18000,
,,,00.002371000000,  -0.18000,
,,,00.002372000000,  -0.16000,
,,,00.002373000000,  -0.18000,
,,,00.002374000000,  -0.18000,
,,,00.002375000000,  -0.14000,
,,,00.002376000000,  -0.14000,
,,,00.002377000000,  -0.16000,
,,,00.002378000000,  -0.16000,
,,,00.002379000000,  -0.14000,
,,,00.002380000000,  -0.16000,
,,,00.002381000000,  -0.14000,
,,,00.002382000000,  -0.16000,
,,,00.002383000000,  -0.14000,
,,,00.002384000000,  -0.14000,
,,,00.002385000000,  -0.12000,
,,,00.002386000000,  -0.12000,
,,,00.002387000000,  -0.14000,
,,,00.002388000000,  -0.14000,
,,,00.002389000000,  -0.12000,
,,,00.002390000000,  -0.12000,
,,,00.002391000000,  -0.12000,
,,,00.002392000000,  -0.14000,
,,,00.002393000000,  -0.12000,
,,,00.002394000000,  -0.10000,
,,,00.002395000000,  -0.10000,
,,,00.002396000000,  -0.10000,
,,,00.002397000000,  -0.08000,
,,,00.002398000000,  -0.10000,
,,,00.002399000000,  -0.12000,
,,,00.002400000000,  -0.10000,
,,,00.002401000000,  -0.10000,
,,,00.002402000000,  -0.10000,
,,,00.002403000000,  -0.10000,
,,,00.002404000000,  -0.10000,
,,,00.002405000000,  -0.10000,
,,,00.002406000000,  -0.10000,
,,,00.002407000000,  -0.08000,
,,,00.002408000000,  -0.08000,
,,,00.002409000000,  -0.08000,
