,,,-00.162000000000,   0.00000,
,,,-00.161000000000,   0.00000,
,,,-00.160000000000,   0.00000,
,,,-00.159000000000,   0.00000,
,,,-00.158000000000,   0.00000,
,,,-00.157000000000,   0.00000,
,,,-00.156000000000,   0.00000,
,,,-00.155000000000,  -0.12800,
,,,-00.154000000000,   0.04800,
,,,-00.153000000000,   0.03200,
,,,-00.152000000000,   0.01600,
,,,-00.151000000000,   0.01600,
,,,-00.150000000000,   0.00800,
,,,-00.149000000000,   0.00800,
,,,-00.148000000000,   0.00800,
,,,-00.147000000000,   0.00800,
,,,-00.146000000000,   0.00000,
,,,-00.145000000000,   0.00000,
,,,-00.144000000000,   0.00000,
,,,-00.143000000000,   0.00000,
,,,-00.142000000000,   0.00000,
,,,-00.141000000000,  -0.91200,
,,,-00.140000000000,   0.05600,
,,,-00.139000000000,   0.03200,
,,,-00.138000000000,   0.01600,
,,,-00.137000000000,   0.01600,
,,,-00.136000000000,  -0.59200,
,,,-00.135000000000,   0.04800,
,,,-00.134000000000,   0.03200,
,,,-00.133000000000,   0.01600,
,,,-00.132000000000,  -0.39200,
,,,-00.131000000000,   0.04800,
,,,-00.130000000000,   0.03200,
,,,-00.129000000000,   0.05600,
,,,-00.128000000000,   0.04000,
,,,-00.127000000000,   0.02400,
,,,-00.126000000000,   0.01600,
,,,-00.125000000000,   0.00800,
,,,-00.124000000000,   0.01600,
,,,-00.123000000000,   0.00800,
,,,-00.122000000000,   0.00000,
,,,-00.121000000000,   0.04000,
,,,-00.120000000000,   0.02400,
,,,-00.119000000000,   0.01600,
,,,-00.118000000000,   0.00800,
,,,-00.117000000000,   0.00800,
,,,-00.116000000000,   0.00800,
,,,-00.115000000000,   0.00800,
,,,-00.114000000000,   0.00800,
,,,-00.113000000000,   0.00000,
,,,-00.112000000000,   0.00000,
,,,-00.111000000000,   0.00000,
,,,-00.110000000000,   0.00000,
,,,-00.109000000000,   0.00000,
,,,-00.108000000000,   0.00000,
,,,-00.107000000000,   0.00000,
,,,-00.106000000000,  -0.07200,
,,,-00.105000000000,   0.03200,
,,,-00.104000000000,   0.01600,
,,,-00.103000000000,   0.01600,
,,,-00.102000000000,   0.00800,
,,,-00.101000000000,   0.00000,
,,,-00.100000000000,   0.00000,
,,,-00.099000000000,   0.00800,
,,,-00.098000000000,   0.00000,
,,,-00.097000000000,   0.00000,
,,,-00.096000000000,   0.00000,
,,,-00.095000000000,   0.00000,
,,,-00.094000000000,   0.00000,
,,,-00.093000000000,   0.00000,
,,,-00.092000000000,   0.00000,
,,,-00.091000000000,   0.00000,
,,,-00.090000000000,   0.00000,
,,,-00.089000000000,   0.00000,
,,,-00.088000000000,   0.00000,
,,,-00.087000000000,   0.00000,
,,,-00.086000000000,  -0.23200,
,,,-00.085000000000,   0.03200,
,,,-00.084000000000,   0.02400,
,,,-00.083000000000,   0.01600,
,,,-00.082000000000,   0.00800,
,,,-00.081000000000,   0.00800,
,,,-00.080000000000,   0.00000,
,,,-00.079000000000,   0.00000,
,,,-00.078000000000,   0.00800,
,,,-00.077000000000,   0.00000,
,,,-00.076000000000,   0.00000,
,,,-00.075000000000,   0.00000,
,,,-00.074000000000,   0.00000,
,,,-00.073000000000,   0.00000,
,,,-00.072000000000,   0.00000,
,,,-00.071000000000,   0.00000,
,,,-00.070000000000,   0.00000,
,,,-00.069000000000,   0.00000,
,,,-00.068000000000,   0.00000,
,,,-00.067000000000,   0.00000,
,,,-00.066000000000,   0.00000,
,,,-00.065000000000,  -0.10400,
,,,-00.064000000000,   0.03200,
,,,-00.063000000000,   0.02400,
,,,-00.062000000000,   0.01600,
,,,-00.061000000000,   0.00800,
,,,-00.060000000000,   0.00800,
,,,-00.059000000000,   0.00000,
,,,-00.058000000000,   0.00000,
,,,-00.057000000000,   0.00000,
,,,-00.056000000000,   0.00000,
,,,-00.055000000000,   0.04800,
,,,-00.054000000000,   0.03200,
,,,-00.053000000000,   0.02400,
,,,-00.052000000000,   0.00800,
,,,-00.051000000000,   0.00800,
,,,-00.050000000000,   0.00800,
,,,-00.049000000000,   0.00800,
,,,-00.048000000000,   0.00000,
,,,-00.047000000000,   0.00000,
,,,-00.046000000000,   0.00000,
,,,-00.045000000000,   0.00000,
,,,-00.044000000000,   0.00000,
,,,-00.043000000000,   0.00000,
,,,-00.042000000000,   0.04000,
,,,-00.041000000000,   0.02400,
,,,-00.040000000000,   0.01600,
,,,-00.039000000000,   0.00800,
,,,-00.038000000000,   0.04800,
,,,-00.037000000000,   0.02400,
,,,-00.036000000000,   0.01600,
,,,-00.035000000000,   0.01600,
,,,-00.034000000000,   0.00800,
,,,-00.033000000000,   0.00800,
,,,-00.032000000000,   0.00800,
,,,-00.031000000000,   0.00800,
,,,-00.030000000000,   0.00000,
,,,-00.029000000000,   0.00000,
,,,-00.028000000000,   0.00000,
,,,-00.027000000000,   0.00000,
,,,-00.026000000000,   0.00000,
,,,-00.025000000000,   0.00000,
,,,-00.024000000000,   0.00000,
,,,-00.023000000000,   0.00000,
,,,-00.022000000000,   0.03200,
,,,-00.021000000000,   0.02400,
,,,-00.020000000000,   0.01600,
,,,-00.019000000000,   0.01600,
,,,-00.018000000000,   0.01600,
,,,-00.017000000000,   0.04000,
,,,-00.016000000000,   0.02400,
,,,-00.015000000000,   0.01600,
,,,-00.014000000000,   0.00800,
,,,-00.013000000000,   0.00800,
,,,-00.012000000000,   0.00800,
,,,-00.011000000000,   0.00800,
,,,-00.010000000000,   0.00000,
,,,-00.009000000000,   0.00800,
,,,-00.008000000000,   0.00000,
,,,-00.007000000000,   0.00000,
,,,-00.006000000000,   0.00000,
,,,-00.005000000000,   0.00000,
,,,-00.004000000000,   0.00000,
,,,-00.003000000000,   0.00000,
,,,-00.002000000000,   0.00000,
,,,-00.001000000000,   0.00000,
,,,-00.000000000000,   0.02400,
,,,00.001000000000,   0.02400,
,,,00.002000000000,   0.01600,
,,,00.003000000000,   0.00800,
,,,00.004000000000,   0.01600,
,,,00.005000000000,   0.00800,
,,,00.006000000000,   0.00800,
,,,00.007000000000,   0.00000,
,,,00.008000000000,   0.00000,
,,,00.009000000000,   0.00000,
,,,00.010000000000,   0.00000,
,,,00.011000000000,   0.00000,
,,,00.012000000000,   0.00000,
,,,00.013000000000,   0.00000,
,,,00.014000000000,   0.00000,
,,,00.015000000000,   0.00000,
,,,00.016000000000,   0.00000,
,,,00.017000000000,   0.00000,
,,,00.018000000000,   0.00000,
,,,00.019000000000,   0.00000,
,,,00.020000000000,   0.00000,
,,,00.021000000000,   0.00000,
,,,00.022000000000,   0.00000,
,,,00.023000000000,   0.00000,
,,,00.024000000000,   0.04000,
,,,00.025000000000,   0.02400,
,,,00.026000000000,   0.01600,
,,,00.027000000000,   0.01600,
,,,00.028000000000,   0.00800,
,,,00.029000000000,   0.00800,
,,,00.030000000000,   0.00800,
,,,00.031000000000,   0.04800,
,,,00.032000000000,   0.02400,
,,,00.033000000000,   0.01600,
,,,00.034000000000,   0.00800,
,,,00.035000000000,   0.00800,
,,,00.036000000000,   0.00000,
,,,00.037000000000,   0.00000,
,,,00.038000000000,   0.00000,
,,,00.039000000000,   0.00000,
,,,00.040000000000,   0.00000,
,,,00.041000000000,   0.00000,
,,,00.042000000000,   0.00000,
,,,00.043000000000,   0.00000,
,,,00.044000000000,   0.00000,
,,,00.045000000000,  -0.06400,
,,,00.046000000000,   0.03200,
,,,00.047000000000,   0.01600,
,,,00.048000000000,   0.01600,
,,,00.049000000000,   0.00800,
,,,00.050000000000,   0.00800,
,,,00.051000000000,   0.05600,
,,,00.052000000000,   0.03200,
,,,00.053000000000,   0.01600,
,,,00.054000000000,   0.00800,
,,,00.055000000000,   0.00800,
,,,00.056000000000,   0.00800,
,,,00.057000000000,   0.00800,
,,,00.058000000000,   0.00000,
,,,00.059000000000,   0.00000,
,,,00.060000000000,   0.00000,
,,,00.061000000000,   0.00000,
,,,00.062000000000,   0.00000,
,,,00.063000000000,   0.00000,
,,,00.064000000000,   0.02400,
,,,00.065000000000,   0.01600,
,,,00.066000000000,   0.01600,
,,,00.067000000000,   0.00800,
,,,00.068000000000,   0.00800,
,,,00.069000000000,   0.00000,
,,,00.070000000000,  -0.51200,
,,,00.071000000000,   0.03200,
,,,00.072000000000,  -0.12800,
,,,00.073000000000,   0.04000,
,,,00.074000000000,   0.02400,
,,,00.075000000000,   0.01600,
,,,00.076000000000,   0.01600,
,,,00.077000000000,   0.00800,
,,,00.078000000000,   0.00800,
,,,00.079000000000,   0.03200,
,,,00.080000000000,   0.02400,
,,,00.081000000000,  -0.00800,
,,,00.082000000000,   0.03200,
,,,00.083000000000,   0.01600,
,,,00.084000000000,   0.01600,
,,,00.085000000000,   0.00800,
,,,00.086000000000,   0.00800,
,,,00.087000000000,   0.00000,
,,,00.088000000000,   0.00000,
,,,00.089000000000,   0.00000,
,,,00.090000000000,   0.00000,
,,,00.091000000000,   0.00000,
,,,00.092000000000,   0.00000,
,,,00.093000000000,   0.00000,
,,,00.094000000000,   0.00000,
,,,00.095000000000,   0.00000,
,,,00.096000000000,   0.00000,
,,,00.097000000000,   0.00000,
,,,00.098000000000,   0.00000,
,,,00.099000000000,   0.00000,
,,,00.100000000000,   0.00000,
,,,00.101000000000,   0.00000,
,,,00.102000000000,   0.00000,
,,,00.103000000000,   0.00000,
,,,00.104000000000,   0.00000,
,,,00.105000000000,   0.00000,
,,,00.106000000000,   0.00000,
,,,00.107000000000,   0.00000,
,,,00.108000000000,   0.00000,
,,,00.109000000000,   0.00000,
,,,00.110000000000,   0.00000,
,,,00.111000000000,  -0.91200,
,,,00.112000000000,   0.03200,
,,,00.113000000000,   0.01600,
,,,00.114000000000,   0.01600,
,,,00.115000000000,   0.00800,
,,,00.116000000000,   0.00800,
,,,00.117000000000,   0.00800,
,,,00.118000000000,   0.00000,
,,,00.119000000000,   0.00800,
,,,00.120000000000,   0.00000,
,,,00.121000000000,   0.00000,
,,,00.122000000000,   0.00000,
,,,00.123000000000,   0.00000,
,,,00.124000000000,   0.00000,
,,,00.125000000000,   0.00000,
,,,00.126000000000,   0.00000,
,,,00.127000000000,   0.00000,
,,,00.128000000000,   0.00000,
,,,00.129000000000,   0.00000,
,,,00.130000000000,   0.00000,
,,,00.131000000000,   0.00000,
,,,00.132000000000,   0.00000,
,,,00.133000000000,   0.00000,
,,,00.134000000000,   0.00000,
,,,00.135000000000,   0.00000,
,,,00.136000000000,   0.00000,
,,,00.137000000000,   0.04000,
,,,00.138000000000,   0.02400,
,,,00.139000000000,   0.01600,
,,,00.140000000000,   0.00800,
,,,00.141000000000,   0.00800,
,,,00.142000000000,   0.00000,
,,,00.143000000000,   0.00000,
,,,00.144000000000,   0.00000,
,,,00.145000000000,   0.00000,
,,,00.146000000000,   0.00000,
,,,00.147000000000,   0.00000,
,,,00.148000000000,   0.00000,
,,,00.149000000000,   0.00000,
,,,00.150000000000,   0.00000,
,,,00.151000000000,   0.00000,
,,,00.152000000000,   0.00000,
,,,00.153000000000,   0.00000,
,,,00.154000000000,   0.00000,
,,,00.155000000000,   0.00000,
,,,00.156000000000,   0.00000,
,,,00.157000000000,   0.00000,
,,,00.158000000000,   0.00000,
,,,00.159000000000,   0.00000,
,,,00.160000000000,   0.00000,
,,,00.161000000000,  -0.26400,
,,,00.162000000000,   0.04000,
,,,00.163000000000,   0.01600,
,,,00.164000000000,   0.01600,
,,,00.165000000000,   0.00800,
,,,00.166000000000,   0.00800,
,,,00.167000000000,   0.00800,
,,,00.168000000000,   0.00000,
,,,00.169000000000,   0.00000,
,,,00.170000000000,   0.00000,
,,,00.171000000000,  -0.16800,
,,,00.172000000000,   0.07200,
,,,00.173000000000,   0.07200,
,,,00.174000000000,   0.04000,
,,,00.175000000000,   0.03200,
,,,00.176000000000,   0.01600,
,,,00.177000000000,   0.01600,
,,,00.178000000000,   0.00800,
,,,00.179000000000,   0.00800,
,,,00.180000000000,   0.04000,
,,,00.181000000000,   0.02400,
,,,00.182000000000,   0.01600,
,,,00.183000000000,   0.00800,
,,,00.184000000000,   0.00800,
,,,00.185000000000,   0.00800,
,,,00.186000000000,   0.00800,
,,,00.187000000000,   0.00800,
,,,00.188000000000,   0.00800,
,,,00.189000000000,   0.00000,
,,,00.190000000000,   0.00000,
,,,00.191000000000,   0.00000,
,,,00.192000000000,   0.00000,
,,,00.193000000000,   0.00800,
,,,00.194000000000,   0.00000,
,,,00.195000000000,   0.00000,
,,,00.196000000000,   0.00000,
,,,00.197000000000,   0.00000,
,,,00.198000000000,   0.00000,
,,,00.199000000000,   0.00000,
,,,00.200000000000,   0.00000,
,,,00.201000000000,   0.00000,
,,,00.202000000000,   0.00000,
,,,00.203000000000,   0.00000,
,,,00.204000000000,   0.00000,
,,,00.205000000000,  -0.20800,
,,,00.206000000000,   0.03200,
,,,00.207000000000,   0.01600,
,,,00.208000000000,   0.01600,
,,,00.209000000000,   0.00800,
,,,00.210000000000,   0.00800,
,,,00.211000000000,   0.00000,
,,,00.212000000000,   0.00000,
,,,00.213000000000,   0.00000,
,,,00.214000000000,   0.00000,
,,,00.215000000000,   0.00000,
,,,00.216000000000,   0.04000,
,,,00.217000000000,   0.02400,
,,,00.218000000000,   0.01600,
,,,00.219000000000,   0.00800,
,,,00.220000000000,   0.00800,
,,,00.221000000000,   0.00000,
,,,00.222000000000,   0.04000,
,,,00.223000000000,   0.02400,
,,,00.224000000000,   0.01600,
,,,00.225000000000,   0.00800,
,,,00.226000000000,  -0.40000,
,,,00.227000000000,   0.03200,
,,,00.228000000000,   0.01600,
,,,00.229000000000,   0.01600,
,,,00.230000000000,   0.01600,
,,,00.231000000000,   0.00800,
,,,00.232000000000,   0.00800,
,,,00.233000000000,   0.00000,
,,,00.234000000000,   0.00800,
,,,00.235000000000,   0.00000,
,,,00.236000000000,   0.00000,
,,,00.237000000000,   0.00000,
,,,00.238000000000,   0.00000,
,,,00.239000000000,   0.00000,
,,,00.240000000000,   0.00000,
,,,00.241000000000,   0.00000,
,,,00.242000000000,   0.00000,
,,,00.243000000000,   0.00000,
,,,00.244000000000,   0.00000,
,,,00.245000000000,   0.00000,
,,,00.246000000000,   0.00000,
,,,00.247000000000,   0.00000,
,,,00.248000000000,   0.00000,
,,,00.249000000000,   0.00000,
,,,00.250000000000,   0.00000,
,,,00.251000000000,   0.00000,
,,,00.252000000000,   0.00000,
,,,00.253000000000,   0.00000,
,,,00.254000000000,   0.00000,
,,,00.255000000000,   0.00000,
,,,00.256000000000,   0.00000,
,,,00.257000000000,   0.00000,
,,,00.258000000000,   0.00000,
,,,00.259000000000,   0.00000,
,,,00.260000000000,   0.00000,
,,,00.261000000000,  -0.38400,
,,,00.262000000000,   0.04000,
,,,00.263000000000,   0.02400,
,,,00.264000000000,   0.01600,
,,,00.265000000000,  -0.07200,
,,,00.266000000000,   0.04000,
,,,00.267000000000,   0.01600,
,,,00.268000000000,   0.01600,
,,,00.269000000000,   0.00800,
,,,00.270000000000,   0.00800,
,,,00.271000000000,   0.00000,
,,,00.272000000000,   0.00800,
,,,00.273000000000,   0.00800,
,,,00.274000000000,   0.00000,
,,,00.275000000000,   0.04800,
,,,00.276000000000,   0.02400,
,,,00.277000000000,   0.01600,
,,,00.278000000000,   0.01600,
,,,00.279000000000,   0.00800,
,,,00.280000000000,   0.00000,
,,,00.281000000000,   0.00000,
,,,00.282000000000,   0.00000,
,,,00.283000000000,   0.00800,
,,,00.284000000000,   0.00800,
,,,00.285000000000,   0.00000,
,,,00.286000000000,   0.04000,
,,,00.287000000000,   0.02400,
,,,00.288000000000,   0.01600,
,,,00.289000000000,   0.00800,
,,,00.290000000000,   0.00800,
,,,00.291000000000,   0.00800,
,,,00.292000000000,   0.00800,
,,,00.293000000000,  -0.12000,
,,,00.294000000000,   0.04800,
,,,00.295000000000,   0.03200,
,,,00.296000000000,   0.01600,
,,,00.297000000000,   0.01600,
,,,00.298000000000,   0.00800,
,,,00.299000000000,   0.00800,
,,,00.300000000000,   0.00800,
,,,00.301000000000,   0.00000,
,,,00.302000000000,   0.00000,
,,,00.303000000000,   0.00000,
,,,00.304000000000,   0.00000,
,,,00.305000000000,   0.00000,
,,,00.306000000000,   0.00000,
,,,00.307000000000,   0.00000,
,,,00.308000000000,   0.00000,
,,,00.309000000000,   0.00000,
,,,00.310000000000,   0.00000,
,,,00.311000000000,   0.00000,
,,,00.312000000000,   0.00000,
,,,00.313000000000,   0.00000,
,,,00.314000000000,   0.00000,
,,,00.315000000000,   0.00000,
,,,00.316000000000,   0.00000,
,,,00.317000000000,   0.00000,
,,,00.318000000000,   0.00000,
,,,00.319000000000,   0.00000,
,,,00.320000000000,   0.00000,
,,,00.321000000000,   0.00000,
,,,00.322000000000,   0.00000,
,,,00.323000000000,   0.00000,
,,,00.324000000000,   0.00000,
,,,00.325000000000,   0.00000,
,,,00.326000000000,   0.00000,
,,,00.327000000000,   0.00000,
,,,00.328000000000,   0.00000,
,,,00.329000000000,   0.00000,
,,,00.330000000000,   0.00000,
,,,00.331000000000,   0.00000,
,,,00.332000000000,   0.00000,
,,,00.333000000000,   0.00000,
,,,00.334000000000,   0.00000,
,,,00.335000000000,   0.05600,
,,,00.336000000000,   0.03200,
,,,00.337000000000,   0.01600,
,,,00.338000000000,   0.01600,
,,,00.339000000000,   0.00800,
,,,00.340000000000,   0.00000,
,,,00.341000000000,   0.00800,
,,,00.342000000000,   0.00800,
,,,00.343000000000,   0.00000,
,,,00.344000000000,   0.00000,
,,,00.345000000000,   0.00000,
,,,00.346000000000,   0.00000,
,,,00.347000000000,   0.00000,
,,,00.348000000000,   0.00000,
,,,00.349000000000,   0.00000,
,,,00.350000000000,   0.00000,
,,,00.351000000000,  -0.60800,
,,,00.352000000000,   0.04000,
,,,00.353000000000,   0.02400,
,,,00.354000000000,   0.01600,
,,,00.355000000000,   0.05600,
,,,00.356000000000,   0.04000,
,,,00.357000000000,   0.01600,
,,,00.358000000000,   0.01600,
,,,00.359000000000,   0.00800,
,,,00.360000000000,   0.00800,
,,,00.361000000000,   0.00000,
,,,00.362000000000,  -0.69600,
,,,00.363000000000,   0.04000,
,,,00.364000000000,   0.01600,
,,,00.365000000000,   0.01600,
,,,00.366000000000,   0.00800,
,,,00.367000000000,   0.00800,
,,,00.368000000000,   0.00800,
,,,00.369000000000,   0.00000,
,,,00.370000000000,   0.00000,
,,,00.371000000000,   0.00000,
,,,00.372000000000,   0.00000,
,,,00.373000000000,   0.00000,
,,,00.374000000000,   0.00000,
,,,00.375000000000,   0.00000,
,,,00.376000000000,   0.00000,
,,,00.377000000000,   0.00000,
,,,00.378000000000,   0.00000,
,,,00.379000000000,   0.00000,
,,,00.380000000000,   0.00800,
,,,00.381000000000,   0.00000,
,,,00.382000000000,   0.00000,
,,,00.383000000000,   0.00000,
,,,00.384000000000,   0.00000,
,,,00.385000000000,   0.00000,
,,,00.386000000000,   0.00000,
,,,00.387000000000,   0.00000,
,,,00.388000000000,   0.00000,
,,,00.389000000000,   0.00000,
,,,00.390000000000,   0.00000,
,,,00.391000000000,   0.00000,
,,,00.392000000000,   0.00000,
,,,00.393000000000,   0.00000,
,,,00.394000000000,   0.00000,
,,,00.395000000000,   0.00000,
,,,00.396000000000,   0.00800,
,,,00.397000000000,   0.00000,
,,,00.398000000000,   0.00000,
,,,00.399000000000,   0.00000,
,,,00.400000000000,   0.00000,
,,,00.401000000000,   0.00000,
,,,00.402000000000,   0.00000,
,,,00.403000000000,   0.00000,
,,,00.404000000000,   0.00000,
,,,00.405000000000,   0.00000,
,,,00.406000000000,   0.00000,
,,,00.407000000000,   0.00000,
,,,00.408000000000,   0.00000,
,,,00.409000000000,   0.00800,
,,,00.410000000000,   0.00000,
,,,00.411000000000,   0.00000,
,,,00.412000000000,   0.00000,
,,,00.413000000000,   0.00000,
,,,00.414000000000,   0.00000,
,,,00.415000000000,   0.00000,
,,,00.416000000000,   0.00000,
,,,00.417000000000,   0.00000,
,,,00.418000000000,   0.00000,
,,,00.419000000000,   0.00000,
,,,00.420000000000,   0.00000,
,,,00.421000000000,   0.00000,
,,,00.422000000000,   0.00000,
,,,00.423000000000,   0.00000,
,,,00.424000000000,   0.00000,
,,,00.425000000000,   0.05600,
,,,00.426000000000,   0.04000,
,,,00.427000000000,   0.02400,
,,,00.428000000000,   0.01600,
,,,00.429000000000,   0.00800,
,,,00.430000000000,   0.00800,
,,,00.431000000000,   0.00000,
,,,00.432000000000,  -0.31200,
,,,00.433000000000,   0.04800,
,,,00.434000000000,   0.03200,
,,,00.435000000000,   0.01600,
,,,00.436000000000,  -0.44800,
,,,00.437000000000,   0.04800,
,,,00.438000000000,   0.02400,
,,,00.439000000000,   0.01600,
,,,00.440000000000,   0.01600,
,,,00.441000000000,   0.00800,
,,,00.442000000000,   0.00800,
,,,00.443000000000,   0.00000,
,,,00.444000000000,   0.00000,
,,,00.445000000000,   0.00000,
,,,00.446000000000,   0.00000,
,,,00.447000000000,   0.00000,
,,,00.448000000000,   0.00000,
,,,00.449000000000,   0.00000,
,,,00.450000000000,   0.00000,
,,,00.451000000000,   0.00000,
,,,00.452000000000,   0.00000,
,,,00.453000000000,   0.00000,
,,,00.454000000000,   0.00000,
,,,00.455000000000,   0.00800,
,,,00.456000000000,   0.00000,
,,,00.457000000000,   0.00000,
,,,00.458000000000,   0.00000,
,,,00.459000000000,   0.00000,
,,,00.460000000000,   0.00000,
,,,00.461000000000,   0.00000,
,,,00.462000000000,   0.00000,
,,,00.463000000000,   0.00000,
,,,00.464000000000,   0.00000,
,,,00.465000000000,   0.00000,
,,,00.466000000000,   0.00000,
,,,00.467000000000,   0.00000,
,,,00.468000000000,   0.00000,
,,,00.469000000000,   0.00000,
,,,00.470000000000,   0.00000,
,,,00.471000000000,   0.00000,
,,,00.472000000000,   0.00000,
,,,00.473000000000,   0.00000,
,,,00.474000000000,   0.00000,
,,,00.475000000000,   0.00000,
,,,00.476000000000,   0.00000,
,,,00.477000000000,   0.00000,
,,,00.478000000000,   0.00000,
,,,00.479000000000,   0.00000,
,,,00.480000000000,   0.00000,
,,,00.481000000000,   0.00000,
,,,00.482000000000,   0.00000,
,,,00.483000000000,   0.00000,
,,,00.484000000000,   0.00000,
,,,00.485000000000,   0.00000,
,,,00.486000000000,   0.00000,
,,,00.487000000000,   0.00000,
,,,00.488000000000,   0.00000,
,,,00.489000000000,   0.00000,
,,,00.490000000000,   0.00000,
,,,00.491000000000,   0.00000,
,,,00.492000000000,   0.00000,
,,,00.493000000000,   0.07200,
,,,00.494000000000,   0.04000,
,,,00.495000000000,   0.03200,
,,,00.496000000000,   0.01600,
,,,00.497000000000,   0.01600,
,,,00.498000000000,   0.00800,
,,,00.499000000000,   0.00800,
,,,00.500000000000,   0.00000,
,,,00.501000000000,   0.00800,
,,,00.502000000000,   0.00000,
,,,00.503000000000,   0.00000,
,,,00.504000000000,   0.00000,
,,,00.505000000000,  -0.19200,
,,,00.506000000000,   0.08000,
,,,00.507000000000,   0.04800,
,,,00.508000000000,   0.08000,
,,,00.509000000000,   0.04800,
,,,00.510000000000,   0.03200,
,,,00.511000000000,   0.02400,
,,,00.512000000000,   0.01600,
,,,00.513000000000,   0.00800,
,,,00.514000000000,   0.00800,
,,,00.515000000000,   0.00000,
,,,00.516000000000,   0.00800,
,,,00.517000000000,   0.00000,
,,,00.518000000000,   0.00000,
,,,00.519000000000,   0.00000,
,,,00.520000000000,   0.00000,
,,,00.521000000000,   0.00000,
,,,00.522000000000,   0.00000,
,,,00.523000000000,   0.00000,
,,,00.524000000000,   0.00000,
,,,00.525000000000,   0.00800,
,,,00.526000000000,   0.00000,
,,,00.527000000000,   0.00000,
,,,00.528000000000,   0.00000,
,,,00.529000000000,   0.00000,
,,,00.530000000000,   0.00000,
,,,00.531000000000,   0.00000,
,,,00.532000000000,   0.00000,
,,,00.533000000000,   0.00000,
,,,00.534000000000,   0.00000,
,,,00.535000000000,   0.00000,
,,,00.536000000000,   0.00000,
,,,00.537000000000,   0.00000,
,,,00.538000000000,   0.00000,
,,,00.539000000000,   0.00000,
,,,00.540000000000,   0.00000,
,,,00.541000000000,   0.00000,
,,,00.542000000000,   0.00000,
,,,00.543000000000,   0.00000,
,,,00.544000000000,   0.00000,
,,,00.545000000000,   0.00000,
,,,00.546000000000,   0.00000,
,,,00.547000000000,   0.00000,
,,,00.548000000000,   0.00000,
,,,00.549000000000,   0.00000,
,,,00.550000000000,   0.00000,
,,,00.551000000000,   0.00000,
,,,00.552000000000,   0.00000,
,,,00.553000000000,   0.00000,
,,,00.554000000000,   0.00000,
,,,00.555000000000,   0.00000,
,,,00.556000000000,   0.00000,
,,,00.557000000000,   0.00000,
,,,00.558000000000,   0.00000,
,,,00.559000000000,   0.00000,
,,,00.560000000000,   0.00800,
,,,00.561000000000,   0.00000,
,,,00.562000000000,   0.00000,
,,,00.563000000000,   0.00000,
,,,00.564000000000,   0.00000,
,,,00.565000000000,   0.00000,
,,,00.566000000000,   0.00000,
,,,00.567000000000,   0.00000,
,,,00.568000000000,   0.00000,
,,,00.569000000000,   0.00000,
,,,00.570000000000,   0.00000,
,,,00.571000000000,   0.00000,
,,,00.572000000000,   0.00000,
,,,00.573000000000,   0.00000,
,,,00.574000000000,   0.00000,
,,,00.575000000000,  -0.07200,
,,,00.576000000000,   0.08800,
,,,00.577000000000,   0.05600,
,,,00.578000000000,   0.04000,
,,,00.579000000000,   0.02400,
,,,00.580000000000,   0.01600,
,,,00.581000000000,   0.01600,
,,,00.582000000000,   0.00800,
,,,00.583000000000,   0.00800,
,,,00.584000000000,  -0.74400,
,,,00.585000000000,   0.04000,
,,,00.586000000000,   0.03200,
,,,00.587000000000,   0.01600,
,,,00.588000000000,   0.00800,
,,,00.589000000000,   0.01600,
,,,00.590000000000,   0.00800,
,,,00.591000000000,   0.00800,
,,,00.592000000000,   0.00000,
,,,00.593000000000,   0.00000,
,,,00.594000000000,  -0.07200,
,,,00.595000000000,   0.04000,
,,,00.596000000000,   0.02400,
,,,00.597000000000,   0.01600,
,,,00.598000000000,   0.00800,
,,,00.599000000000,   0.00800,
,,,00.600000000000,   0.00000,
,,,00.601000000000,   0.00800,
,,,00.602000000000,   0.00800,
,,,00.603000000000,   0.00000,
,,,00.604000000000,   0.00800,
,,,00.605000000000,   0.00000,
,,,00.606000000000,   0.00000,
,,,00.607000000000,   0.00000,
,,,00.608000000000,   0.00000,
,,,00.609000000000,   0.00000,
,,,00.610000000000,   0.00000,
,,,00.611000000000,   0.00000,
,,,00.612000000000,   0.00000,
,,,00.613000000000,   0.00000,
,,,00.614000000000,   0.00000,
,,,00.615000000000,   0.00000,
,,,00.616000000000,   0.00000,
,,,00.617000000000,   0.00000,
,,,00.618000000000,   0.00000,
,,,00.619000000000,   0.00000,
,,,00.620000000000,   0.00800,
,,,00.621000000000,   0.00000,
,,,00.622000000000,   0.00000,
,,,00.623000000000,   0.00000,
,,,00.624000000000,   0.04800,
,,,00.625000000000,   0.02400,
,,,00.626000000000,   0.01600,
,,,00.627000000000,   0.01600,
,,,00.628000000000,   0.00800,
,,,00.629000000000,   0.00800,
,,,00.630000000000,   0.00800,
,,,00.631000000000,   0.00000,
,,,00.632000000000,   0.00000,
,,,00.633000000000,   0.00000,
,,,00.634000000000,   0.00800,
,,,00.635000000000,   0.00800,
,,,00.636000000000,   0.00000,
,,,00.637000000000,   0.00000,
,,,00.638000000000,   0.00000,
,,,00.639000000000,   0.00000,
,,,00.640000000000,   0.00000,
,,,00.641000000000,   0.00000,
,,,00.642000000000,   0.00000,
,,,00.643000000000,   0.00000,
,,,00.644000000000,   0.00000,
,,,00.645000000000,   0.00000,
,,,00.646000000000,   0.05600,
,,,00.647000000000,   0.03200,
,,,00.648000000000,   0.01600,
,,,00.649000000000,   0.01600,
,,,00.650000000000,   0.01600,
,,,00.651000000000,   0.00800,
,,,00.652000000000,   0.00800,
,,,00.653000000000,   0.00800,
,,,00.654000000000,   0.00800,
,,,00.655000000000,   0.00000,
,,,00.656000000000,   0.00000,
,,,00.657000000000,   0.00000,
,,,00.658000000000,   0.00000,
,,,00.659000000000,   0.00000,
,,,00.660000000000,   0.00000,
,,,00.661000000000,   0.00800,
,,,00.662000000000,   0.00000,
,,,00.663000000000,   0.00000,
,,,00.664000000000,   0.00000,
,,,00.665000000000,   0.00000,
,,,00.666000000000,   0.00000,
,,,00.667000000000,   0.00000,
,,,00.668000000000,   0.00000,
,,,00.669000000000,   0.00000,
,,,00.670000000000,   0.00000,
,,,00.671000000000,   0.00000,
,,,00.672000000000,   0.00000,
,,,00.673000000000,   0.00000,
,,,00.674000000000,   0.00000,
,,,00.675000000000,   0.00000,
,,,00.676000000000,   0.00000,
,,,00.677000000000,   0.00000,
,,,00.678000000000,   0.00000,
,,,00.679000000000,   0.00000,
,,,00.680000000000,   0.00000,
,,,00.681000000000,   0.00000,
,,,00.682000000000,   0.00000,
,,,00.683000000000,   0.00000,
,,,00.684000000000,   0.00000,
,,,00.685000000000,   0.00000,
,,,00.686000000000,   0.00000,
,,,00.687000000000,   0.00000,
,,,00.688000000000,   0.00000,
,,,00.689000000000,   0.00000,
,,,00.690000000000,   0.00000,
,,,00.691000000000,   0.00000,
,,,00.692000000000,   0.00000,
,,,00.693000000000,   0.00000,
,,,00.694000000000,   0.00000,
,,,00.695000000000,   0.00000,
,,,00.696000000000,   0.00000,
,,,00.697000000000,   0.00000,
,,,00.698000000000,   0.00000,
,,,00.699000000000,   0.00000,
,,,00.700000000000,   0.00000,
,,,00.701000000000,   0.00000,
,,,00.702000000000,   0.00000,
,,,00.703000000000,   0.00000,
,,,00.704000000000,   0.00000,
,,,00.705000000000,   0.00000,
,,,00.706000000000,   0.00000,
,,,00.707000000000,   0.00000,
,,,00.708000000000,   0.00000,
,,,00.709000000000,   0.00000,
,,,00.710000000000,   0.00000,
,,,00.711000000000,   0.00000,
,,,00.712000000000,   0.00000,
,,,00.713000000000,   0.00000,
,,,00.714000000000,   0.00000,
,,,00.715000000000,   0.00000,
,,,00.716000000000,   0.00000,
,,,00.717000000000,   0.00000,
,,,00.718000000000,   0.00000,
,,,00.719000000000,   0.00000,
,,,00.720000000000,   0.00000,
,,,00.721000000000,   0.00000,
,,,00.722000000000,   0.00000,
,,,00.723000000000,   0.00000,
,,,00.724000000000,   0.00000,
,,,00.725000000000,   0.00000,
,,,00.726000000000,   0.00000,
,,,00.727000000000,   0.00000,
,,,00.728000000000,   0.00000,
,,,00.729000000000,   0.00000,
,,,00.730000000000,   0.00000,
,,,00.731000000000,   0.00000,
,,,00.732000000000,   0.00000,
,,,00.733000000000,   0.00000,
,,,00.734000000000,   0.00000,
,,,00.735000000000,   0.00000,
,,,00.736000000000,   0.00000,
,,,00.737000000000,   0.00000,
,,,00.738000000000,   0.00000,
,,,00.739000000000,   0.00000,
,,,00.740000000000,   0.00000,
,,,00.741000000000,   0.00000,
,,,00.742000000000,   0.00000,
,,,00.743000000000,   0.00000,
,,,00.744000000000,   0.00000,
,,,00.745000000000,   0.00000,
,,,00.746000000000,   0.00000,
,,,00.747000000000,   0.00000,
,,,00.748000000000,  -1.24800,
,,,00.749000000000,   0.07200,
,,,00.750000000000,   0.04800,
,,,00.751000000000,   0.02400,
,,,00.752000000000,   0.01600,
,,,00.753000000000,   0.00800,
,,,00.754000000000,   0.00800,
,,,00.755000000000,   0.00800,
,,,00.756000000000,   0.00000,
,,,00.757000000000,   0.00800,
,,,00.758000000000,  -1.39200,
,,,00.759000000000,   0.06400,
,,,00.760000000000,   0.04000,
,,,00.761000000000,   0.02400,
,,,00.762000000000,   0.01600,
,,,00.763000000000,   0.00800,
,,,00.764000000000,   0.00800,
,,,00.765000000000,   0.00800,
,,,00.766000000000,   0.00000,
,,,00.767000000000,   0.00000,
,,,00.768000000000,   0.00000,
,,,00.769000000000,   0.00000,
,,,00.770000000000,   0.00000,
,,,00.771000000000,   0.00000,
,,,00.772000000000,   0.00000,
,,,00.773000000000,   0.00000,
,,,00.774000000000,   0.00000,
,,,00.775000000000,   0.00000,
,,,00.776000000000,   0.00000,
,,,00.777000000000,   0.05600,
,,,00.778000000000,   0.04000,
,,,00.779000000000,   0.01600,
,,,00.780000000000,   0.01600,
,,,00.781000000000,   0.01600,
,,,00.782000000000,   0.00800,
,,,00.783000000000,   0.00800,
,,,00.784000000000,   0.00800,
,,,00.785000000000,   0.00000,
,,,00.786000000000,   0.00000,
,,,00.787000000000,   0.00000,
,,,00.788000000000,   0.00000,
,,,00.789000000000,   0.00000,
,,,00.790000000000,   0.00000,
,,,00.791000000000,   0.00000,
,,,00.792000000000,   0.00800,
,,,00.793000000000,   0.00000,
,,,00.794000000000,   0.00000,
,,,00.795000000000,   0.00000,
,,,00.796000000000,   0.00000,
,,,00.797000000000,   0.00000,
,,,00.798000000000,   0.00000,
,,,00.799000000000,   0.00000,
,,,00.800000000000,   0.00000,
,,,00.801000000000,   0.00000,
,,,00.802000000000,   0.00000,
,,,00.803000000000,   0.00000,
,,,00.804000000000,   0.00000,
,,,00.805000000000,   0.00000,
,,,00.806000000000,   0.00000,
,,,00.807000000000,   0.00000,
,,,00.808000000000,   0.00000,
,,,00.809000000000,   0.00000,
,,,00.810000000000,   0.00000,
,,,00.811000000000,   0.00000,
,,,00.812000000000,   0.00000,
,,,00.813000000000,   0.00000,
,,,00.814000000000,   0.00000,
,,,00.815000000000,   0.00000,
,,,00.816000000000,   0.00000,
,,,00.817000000000,   0.00000,
,,,00.818000000000,   0.00000,
,,,00.819000000000,   0.00000,
,,,00.820000000000,   0.00000,
,,,00.821000000000,   0.08000,
,,,00.822000000000,   0.04000,
,,,00.823000000000,   0.03200,
,,,00.824000000000,   0.01600,
,,,00.825000000000,   0.00800,
,,,00.826000000000,   0.00800,
,,,00.827000000000,   0.00800,
,,,00.828000000000,   0.00000,
,,,00.829000000000,   0.00000,
,,,00.830000000000,   0.00000,
,,,00.831000000000,   0.00000,
,,,00.832000000000,   0.00000,
,,,00.833000000000,   0.08000,
,,,00.834000000000,   0.04000,
,,,00.835000000000,   0.03200,
,,,00.836000000000,   0.01600,
,,,00.837000000000,   0.00800,
,,,00.838000000000,   0.00800,
,,,00.839000000000,   0.00800,
,,,00.840000000000,   0.00800,
,,,00.841000000000,   0.00800,
,,,00.842000000000,   0.00000,
,,,00.843000000000,   0.00000,
,,,00.844000000000,   0.00000,
,,,00.845000000000,  -0.37600,
,,,00.846000000000,   0.04800,
,,,00.847000000000,   0.02400,
,,,00.848000000000,   0.01600,
,,,00.849000000000,   0.01600,
,,,00.850000000000,   0.00800,
,,,00.851000000000,   0.00800,
,,,00.852000000000,   0.00000,
,,,00.853000000000,   0.00000,
,,,00.854000000000,   0.00000,
,,,00.855000000000,   0.00000,
,,,00.856000000000,   0.00000,
,,,00.857000000000,   0.00000,
,,,00.858000000000,   0.00000,
,,,00.859000000000,   0.00000,
,,,00.860000000000,   0.00000,
,,,00.861000000000,   0.00000,
,,,00.862000000000,   0.00000,
,,,00.863000000000,   0.00000,
,,,00.864000000000,   0.00000,
,,,00.865000000000,   0.00000,
,,,00.866000000000,   0.00000,
,,,00.867000000000,   0.00000,
,,,00.868000000000,   0.00000,
,,,00.869000000000,   0.00000,
,,,00.870000000000,   0.00000,
,,,00.871000000000,   0.00000,
,,,00.872000000000,   0.00000,
,,,00.873000000000,   0.00000,
,,,00.874000000000,   0.00000,
,,,00.875000000000,   0.00000,
,,,00.876000000000,   0.00000,
,,,00.877000000000,   0.00000,
,,,00.878000000000,   0.00000,
,,,00.879000000000,   0.00000,
,,,00.880000000000,   0.00000,
,,,00.881000000000,   0.00000,
,,,00.882000000000,   0.00000,
,,,00.883000000000,   0.00800,
,,,00.884000000000,   0.00000,
,,,00.885000000000,   0.00000,
,,,00.886000000000,   0.00000,
,,,00.887000000000,   0.00000,
,,,00.888000000000,   0.00000,
,,,00.889000000000,   0.00000,
,,,00.890000000000,   0.00800,
,,,00.891000000000,   0.00000,
,,,00.892000000000,   0.00000,
,,,00.893000000000,   0.00000,
,,,00.894000000000,   0.00000,
,,,00.895000000000,  -0.64800,
,,,00.896000000000,   0.05600,
,,,00.897000000000,   0.04000,
,,,00.898000000000,   0.08000,
,,,00.899000000000,   0.04800,
,,,00.900000000000,   0.03200,
,,,00.901000000000,   0.02400,
,,,00.902000000000,   0.01600,
,,,00.903000000000,   0.05600,
,,,00.904000000000,   0.03200,
,,,00.905000000000,   0.02400,
,,,00.906000000000,   0.01600,
,,,00.907000000000,   0.01600,
,,,00.908000000000,   0.00800,
,,,00.909000000000,   0.00800,
,,,00.910000000000,   0.00800,
,,,00.911000000000,   0.00800,
,,,00.912000000000,   0.00800,
,,,00.913000000000,   0.00000,
,,,00.914000000000,   0.00000,
,,,00.915000000000,   0.00000,
,,,00.916000000000,   0.00000,
,,,00.917000000000,   0.00000,
,,,00.918000000000,   0.00000,
,,,00.919000000000,   0.04000,
,,,00.920000000000,   0.04000,
,,,00.921000000000,   0.02400,
,,,00.922000000000,   0.05600,
,,,00.923000000000,   0.03200,
,,,00.924000000000,   0.01600,
,,,00.925000000000,   0.01600,
,,,00.926000000000,   0.01600,
,,,00.927000000000,   0.00800,
,,,00.928000000000,   0.04000,
,,,00.929000000000,   0.02400,
,,,00.930000000000,   0.01600,
,,,00.931000000000,   0.01600,
,,,00.932000000000,   0.00800,
,,,00.933000000000,   0.00800,
,,,00.934000000000,   0.04000,
,,,00.935000000000,   0.02400,
,,,00.936000000000,   0.01600,
,,,00.937000000000,   0.00800,
,,,00.938000000000,   0.05600,
,,,00.939000000000,   0.03200,
,,,00.940000000000,   0.02400,
,,,00.941000000000,   0.01600,
,,,00.942000000000,   0.00800,
,,,00.943000000000,   0.00800,
,,,00.944000000000,   0.00800,
,,,00.945000000000,   0.00800,
,,,00.946000000000,   0.00800,
,,,00.947000000000,   0.00000,
,,,00.948000000000,   0.00000,
,,,00.949000000000,   0.04000,
,,,00.950000000000,   0.02400,
,,,00.951000000000,   0.01600,
,,,00.952000000000,   0.00800,
,,,00.953000000000,   0.01600,
,,,00.954000000000,   0.04000,
,,,00.955000000000,   0.02400,
,,,00.956000000000,   0.01600,
,,,00.957000000000,   0.00800,
,,,00.958000000000,   0.00800,
,,,00.959000000000,   0.03200,
,,,00.960000000000,   0.01600,
,,,00.961000000000,   0.01600,
,,,00.962000000000,   0.00800,
,,,00.963000000000,   0.00800,
,,,00.964000000000,   0.00000,
,,,00.965000000000,   0.00000,
,,,00.966000000000,   0.00000,
,,,00.967000000000,   0.00000,
,,,00.968000000000,   0.00000,
,,,00.969000000000,   0.00000,
,,,00.970000000000,   0.00000,
,,,00.971000000000,   0.00000,
,,,00.972000000000,   0.00000,
,,,00.973000000000,   0.00000,
,,,00.974000000000,   0.00000,
,,,00.975000000000,   0.00000,
,,,00.976000000000,   0.00000,
,,,00.977000000000,   0.00000,
,,,00.978000000000,   0.00000,
,,,00.979000000000,   0.00000,
,,,00.980000000000,   0.00000,
,,,00.981000000000,   0.00000,
,,,00.982000000000,   0.00000,
,,,00.983000000000,   0.00000,
,,,00.984000000000,   0.00000,
,,,00.985000000000,   0.04000,
,,,00.986000000000,   0.02400,
,,,00.987000000000,   0.00800,
,,,00.988000000000,   0.01600,
,,,00.989000000000,   0.00800,
,,,00.990000000000,   0.00800,
,,,00.991000000000,   0.00000,
,,,00.992000000000,   0.00000,
,,,00.993000000000,   0.00000,
,,,00.994000000000,   0.00800,
,,,00.995000000000,   0.00800,
,,,00.996000000000,   0.00000,
,,,00.997000000000,   0.00000,
,,,00.998000000000,   0.04000,
,,,00.999000000000,   0.02400,
,,,01.000000000000,   0.01600,
,,,01.001000000000,   0.01600,
,,,01.002000000000,   0.00800,
,,,01.003000000000,   0.00000,
,,,01.004000000000,   0.00000,
,,,01.005000000000,   0.00000,
,,,01.006000000000,   0.00000,
,,,01.007000000000,   0.00000,
,,,01.008000000000,   0.00000,
,,,01.009000000000,   0.00800,
,,,01.010000000000,   0.03200,
,,,01.011000000000,   0.01600,
,,,01.012000000000,   0.00800,
,,,01.013000000000,   0.00800,
,,,01.014000000000,   0.00800,
,,,01.015000000000,   0.00000,
,,,01.016000000000,   0.00800,
,,,01.017000000000,   0.00000,
,,,01.018000000000,   0.00800,
,,,01.019000000000,   0.00000,
,,,01.020000000000,   0.00000,
,,,01.021000000000,   0.00000,
,,,01.022000000000,   0.00000,
,,,01.023000000000,   0.00000,
,,,01.024000000000,   0.00000,
,,,01.025000000000,   0.00000,
,,,01.026000000000,   0.00000,
,,,01.027000000000,   0.00000,
,,,01.028000000000,   0.00000,
,,,01.029000000000,  -1.03200,
,,,01.030000000000,   0.05600,
,,,01.031000000000,   0.04000,
,,,01.032000000000,   0.02400,
,,,01.033000000000,   0.01600,
,,,01.034000000000,   0.04800,
,,,01.035000000000,   0.03200,
,,,01.036000000000,   0.01600,
,,,01.037000000000,   0.00800,
,,,01.038000000000,   0.00800,
,,,01.039000000000,   0.00800,
,,,01.040000000000,   0.00800,
,,,01.041000000000,   0.00000,
,,,01.042000000000,   0.00800,
,,,01.043000000000,   0.00000,
,,,01.044000000000,   0.00000,
,,,01.045000000000,   0.00800,
,,,01.046000000000,   0.00000,
,,,01.047000000000,   0.00000,
,,,01.048000000000,   0.00000,
,,,01.049000000000,   0.00000,
,,,01.050000000000,   0.00000,
,,,01.051000000000,  -0.19200,
,,,01.052000000000,   0.03200,
,,,01.053000000000,   0.01600,
,,,01.054000000000,   0.00800,
,,,01.055000000000,   0.00800,
,,,01.056000000000,   0.00800,
,,,01.057000000000,   0.00800,
,,,01.058000000000,   0.00000,
,,,01.059000000000,   0.00000,
,,,01.060000000000,   0.00000,
,,,01.061000000000,   0.00000,
,,,01.062000000000,   0.00000,
,,,01.063000000000,   0.00000,
,,,01.064000000000,   0.00000,
,,,01.065000000000,   0.00000,
,,,01.066000000000,   0.00000,
,,,01.067000000000,   0.00000,
,,,01.068000000000,   0.00000,
,,,01.069000000000,   0.00000,
,,,01.070000000000,   0.04000,
,,,01.071000000000,   0.03200,
,,,01.072000000000,  -0.24800,
,,,01.073000000000,   0.04000,
,,,01.074000000000,   0.02400,
,,,01.075000000000,   0.01600,
,,,01.076000000000,   0.01600,
,,,01.077000000000,   0.00800,
,,,01.078000000000,   0.00800,
,,,01.079000000000,   0.00800,
,,,01.080000000000,   0.00800,
,,,01.081000000000,   0.00000,
,,,01.082000000000,   0.00000,
,,,01.083000000000,   0.00000,
,,,01.084000000000,   0.00000,
,,,01.085000000000,   0.00000,
,,,01.086000000000,   0.00000,
,,,01.087000000000,   0.00000,
,,,01.088000000000,   0.00000,
,,,01.089000000000,   0.00000,
,,,01.090000000000,   0.00000,
,,,01.091000000000,   0.00000,
,,,01.092000000000,   0.00000,
,,,01.093000000000,   0.00000,
,,,01.094000000000,   0.04000,
,,,01.095000000000,   0.02400,
,,,01.096000000000,   0.01600,
,,,01.097000000000,   0.01600,
,,,01.098000000000,   0.00800,
,,,01.099000000000,   0.00800,
,,,01.100000000000,   0.03200,
,,,01.101000000000,   0.01600,
,,,01.102000000000,   0.01600,
,,,01.103000000000,   0.00800,
,,,01.104000000000,   0.00800,
,,,01.105000000000,   0.00000,
,,,01.106000000000,   0.00000,
,,,01.107000000000,   0.00000,
,,,01.108000000000,   0.00000,
,,,01.109000000000,   0.00000,
,,,01.110000000000,   0.00000,
,,,01.111000000000,   0.00000,
,,,01.112000000000,   0.00000,
,,,01.113000000000,   0.04000,
,,,01.114000000000,   0.02400,
,,,01.115000000000,   0.01600,
,,,01.116000000000,  -0.07200,
,,,01.117000000000,   0.03200,
,,,01.118000000000,   0.01600,
,,,01.119000000000,   0.01600,
,,,01.120000000000,   0.00800,
,,,01.121000000000,   0.00800,
,,,01.122000000000,   0.00000,
,,,01.123000000000,   0.00000,
,,,01.124000000000,   0.00000,
,,,01.125000000000,   0.00000,
,,,01.126000000000,   0.00000,
,,,01.127000000000,   0.00000,
,,,01.128000000000,   0.00000,
,,,01.129000000000,   0.00000,
,,,01.130000000000,   0.00000,
,,,01.131000000000,   0.00000,
,,,01.132000000000,   0.00000,
,,,01.133000000000,   0.00000,
,,,01.134000000000,   0.00000,
,,,01.135000000000,   0.00000,
,,,01.136000000000,  -0.39200,
,,,01.137000000000,   0.03200,
,,,01.138000000000,   0.02400,
,,,01.139000000000,   0.01600,
,,,01.140000000000,   0.00800,
,,,01.141000000000,   0.00800,
,,,01.142000000000,   0.00800,
,,,01.143000000000,   0.00000,
,,,01.144000000000,   0.00000,
,,,01.145000000000,   0.00000,
,,,01.146000000000,   0.00000,
,,,01.147000000000,  -0.52800,
,,,01.148000000000,   0.03200,
,,,01.149000000000,   0.01600,
,,,01.150000000000,   0.01600,
,,,01.151000000000,   0.00800,
,,,01.152000000000,   0.00800,
,,,01.153000000000,   0.00800,
,,,01.154000000000,  -0.03200,
,,,01.155000000000,   0.03200,
,,,01.156000000000,   0.01600,
,,,01.157000000000,   0.00800,
,,,01.158000000000,   0.00800,
,,,01.159000000000,   0.00000,
,,,01.160000000000,   0.00800,
,,,01.161000000000,   0.00800,
,,,01.162000000000,   0.00000,
,,,01.163000000000,   0.00800,
,,,01.164000000000,   0.00000,
,,,01.165000000000,   0.00000,
,,,01.166000000000,   0.00000,
,,,01.167000000000,   0.03200,
,,,01.168000000000,   0.02400,
,,,01.169000000000,   0.01600,
,,,01.170000000000,   0.00800,
,,,01.171000000000,   0.01600,
,,,01.172000000000,   0.00800,
,,,01.173000000000,   0.00800,
,,,01.174000000000,   0.00800,
,,,01.175000000000,   0.00000,
,,,01.176000000000,   0.00000,
,,,01.177000000000,   0.00000,
,,,01.178000000000,   0.00000,
,,,01.179000000000,   0.00000,
,,,01.180000000000,   0.00000,
,,,01.181000000000,   0.00000,
,,,01.182000000000,   0.00000,
,,,01.183000000000,   0.00000,
,,,01.184000000000,   0.00800,
,,,01.185000000000,   0.00000,
,,,01.186000000000,   0.00000,
,,,01.187000000000,   0.00000,
,,,01.188000000000,   0.00000,
,,,01.189000000000,   0.00000,
,,,01.190000000000,   0.00000,
,,,01.191000000000,   0.00000,
,,,01.192000000000,   0.00000,
,,,01.193000000000,   0.00000,
,,,01.194000000000,   0.00000,
,,,01.195000000000,   0.00000,
,,,01.196000000000,   0.00000,
,,,01.197000000000,   0.00000,
,,,01.198000000000,   0.00000,
,,,01.199000000000,   0.00000,
,,,01.200000000000,   0.00000,
,,,01.201000000000,   0.00000,
,,,01.202000000000,  -0.07200,
,,,01.203000000000,   0.04000,
,,,01.204000000000,   0.02400,
,,,01.205000000000,   0.01600,
,,,01.206000000000,   0.00800,
,,,01.207000000000,   0.00800,
,,,01.208000000000,   0.00000,
,,,01.209000000000,   0.04000,
,,,01.210000000000,   0.02400,
,,,01.211000000000,   0.01600,
,,,01.212000000000,   0.00800,
,,,01.213000000000,   0.00800,
,,,01.214000000000,   0.00800,
,,,01.215000000000,   0.00000,
,,,01.216000000000,   0.00000,
,,,01.217000000000,   0.00800,
,,,01.218000000000,   0.00000,
,,,01.219000000000,   0.00000,
,,,01.220000000000,   0.00000,
,,,01.221000000000,   0.00000,
,,,01.222000000000,   0.00000,
,,,01.223000000000,   0.00000,
,,,01.224000000000,   0.00000,
,,,01.225000000000,   0.00000,
,,,01.226000000000,   0.00000,
,,,01.227000000000,   0.00000,
,,,01.228000000000,   0.00000,
,,,01.229000000000,   0.00000,
,,,01.230000000000,  -0.26400,
,,,01.231000000000,   0.04000,
,,,01.232000000000,   0.01600,
,,,01.233000000000,   0.01600,
,,,01.234000000000,   0.00800,
,,,01.235000000000,   0.00800,
,,,01.236000000000,   0.00800,
,,,01.237000000000,   0.00800,
,,,01.238000000000,  -0.28000,
,,,01.239000000000,   0.03200,
,,,01.240000000000,   0.01600,
,,,01.241000000000,   0.01600,
,,,01.242000000000,   0.00800,
,,,01.243000000000,   0.00800,
,,,01.244000000000,   0.00800,
,,,01.245000000000,   0.00000,
,,,01.246000000000,   0.00000,
,,,01.247000000000,   0.00000,
,,,01.248000000000,   0.00000,
,,,01.249000000000,   0.00000,
,,,01.250000000000,   0.00800,
,,,01.251000000000,   0.00000,
,,,01.252000000000,   0.00000,
,,,01.253000000000,   0.00000,
,,,01.254000000000,   0.00000,
,,,01.255000000000,   0.00000,
,,,01.256000000000,   0.00000,
,,,01.257000000000,   0.00000,
,,,01.258000000000,   0.00000,
,,,01.259000000000,   0.00000,
,,,01.260000000000,   0.00000,
,,,01.261000000000,   0.00000,
,,,01.262000000000,   0.00000,
,,,01.263000000000,   0.00000,
,,,01.264000000000,   0.00000,
,,,01.265000000000,   0.00000,
,,,01.266000000000,   0.00000,
,,,01.267000000000,   0.00000,
,,,01.268000000000,   0.00000,
,,,01.269000000000,   0.00000,
,,,01.270000000000,   0.00000,
,,,01.271000000000,   0.00000,
,,,01.272000000000,   0.00000,
,,,01.273000000000,   0.00000,
,,,01.274000000000,   0.00000,
,,,01.275000000000,   0.00000,
,,,01.276000000000,   0.00000,
,,,01.277000000000,   0.00000,
,,,01.278000000000,   0.00000,
,,,01.279000000000,   0.00000,
,,,01.280000000000,   0.00000,
,,,01.281000000000,   0.00000,
,,,01.282000000000,   0.00000,
,,,01.283000000000,   0.00000,
,,,01.284000000000,   0.00000,
,,,01.285000000000,   0.00000,
,,,01.286000000000,   0.00000,
,,,01.287000000000,  -0.01600,
,,,01.288000000000,   0.04000,
,,,01.289000000000,   0.03200,
,,,01.290000000000,   0.01600,
,,,01.291000000000,   0.00800,
,,,01.292000000000,   0.00800,
,,,01.293000000000,   0.00800,
,,,01.294000000000,   0.00000,
,,,01.295000000000,   0.00000,
,,,01.296000000000,   0.00000,
,,,01.297000000000,   0.00000,
,,,01.298000000000,   0.00000,
,,,01.299000000000,  -0.99200,
,,,01.300000000000,   0.04800,
,,,01.301000000000,   0.02400,
,,,01.302000000000,   0.01600,
,,,01.303000000000,   0.01600,
,,,01.304000000000,   0.00800,
,,,01.305000000000,   0.00000,
,,,01.306000000000,   0.00000,
,,,01.307000000000,   0.00000,
,,,01.308000000000,   0.00000,
,,,01.309000000000,  -0.12800,
,,,01.310000000000,   0.04000,
,,,01.311000000000,   0.02400,
,,,01.312000000000,   0.01600,
,,,01.313000000000,   0.01600,
,,,01.314000000000,   0.00800,
,,,01.315000000000,   0.00800,
,,,01.316000000000,   0.00000,
,,,01.317000000000,   0.00800,
,,,01.318000000000,   0.00000,
,,,01.319000000000,   0.04800,
,,,01.320000000000,   0.02400,
,,,01.321000000000,  -0.04800,
,,,01.322000000000,   0.04000,
,,,01.323000000000,   0.02400,
,,,01.324000000000,   0.01600,
,,,01.325000000000,   0.01600,
,,,01.326000000000,   0.00000,
,,,01.327000000000,   0.00800,
,,,01.328000000000,   0.00000,
,,,01.329000000000,   0.00000,
,,,01.330000000000,   0.00000,
,,,01.331000000000,   0.00000,
,,,01.332000000000,   0.00000,
,,,01.333000000000,   0.00000,
,,,01.334000000000,   0.00000,
,,,01.335000000000,   0.00000,
,,,01.336000000000,   0.00800,
,,,01.337000000000,   0.00000,
,,,01.338000000000,   0.00000,
,,,01.339000000000,   0.00000,
,,,01.340000000000,   0.00000,
,,,01.341000000000,   0.00000,
,,,01.342000000000,   0.00000,
,,,01.343000000000,   0.00000,
,,,01.344000000000,   0.00000,
,,,01.345000000000,   0.00000,
,,,01.346000000000,   0.00000,
,,,01.347000000000,   0.00000,
,,,01.348000000000,   0.00000,
,,,01.349000000000,   0.00000,
,,,01.350000000000,   0.00000,
,,,01.351000000000,   0.00000,
,,,01.352000000000,   0.00000,
,,,01.353000000000,   0.00000,
,,,01.354000000000,   0.00000,
,,,01.355000000000,   0.00000,
,,,01.356000000000,   0.00000,
,,,01.357000000000,   0.00000,
,,,01.358000000000,   0.00000,
,,,01.359000000000,   0.00000,
,,,01.360000000000,   0.00000,
,,,01.361000000000,   0.00000,
,,,01.362000000000,   0.00000,
,,,01.363000000000,  -0.47200,
,,,01.364000000000,   0.04000,
,,,01.365000000000,   0.02400,
,,,01.366000000000,   0.01600,
,,,01.367000000000,   0.00800,
,,,01.368000000000,   0.00800,
,,,01.369000000000,   0.00800,
,,,01.370000000000,   0.00000,
,,,01.371000000000,   0.00000,
,,,01.372000000000,   0.00000,
,,,01.373000000000,   0.00000,
,,,01.374000000000,   0.00000,
,,,01.375000000000,   0.00000,
,,,01.376000000000,   0.00000,
,,,01.377000000000,   0.00000,
,,,01.378000000000,   0.00000,
,,,01.379000000000,   0.00000,
,,,01.380000000000,   0.00000,
,,,01.381000000000,   0.00000,
,,,01.382000000000,   0.00000,
,,,01.383000000000,   0.00000,
,,,01.384000000000,   0.00000,
,,,01.385000000000,   0.00000,
,,,01.386000000000,   0.00000,
,,,01.387000000000,   0.00000,
,,,01.388000000000,   0.00000,
,,,01.389000000000,   0.00000,
,,,01.390000000000,   0.00000,
,,,01.391000000000,   0.00000,
,,,01.392000000000,   0.00000,
,,,01.393000000000,   0.00000,
,,,01.394000000000,   0.00000,
,,,01.395000000000,   0.00000,
,,,01.396000000000,   0.00000,
,,,01.397000000000,   0.00000,
,,,01.398000000000,   0.00000,
,,,01.399000000000,   0.00000,
,,,01.400000000000,   0.00000,
,,,01.401000000000,   0.07200,
,,,01.402000000000,   0.04000,
,,,01.403000000000,   0.02400,
,,,01.404000000000,   0.01600,
,,,01.405000000000,   0.00800,
,,,01.406000000000,   0.00800,
,,,01.407000000000,   0.00000,
,,,01.408000000000,   0.00000,
,,,01.409000000000,   0.00000,
,,,01.410000000000,   0.00000,
,,,01.411000000000,   0.00000,
,,,01.412000000000,   0.00000,
,,,01.413000000000,   0.00000,
,,,01.414000000000,   0.00000,
,,,01.415000000000,   0.00000,
,,,01.416000000000,   0.00000,
,,,01.417000000000,   0.00000,
,,,01.418000000000,   0.00000,
,,,01.419000000000,   0.00000,
,,,01.420000000000,   0.04000,
,,,01.421000000000,   0.04000,
,,,01.422000000000,   0.02400,
,,,01.423000000000,   0.01600,
,,,01.424000000000,   0.01600,
,,,01.425000000000,   0.00800,
,,,01.426000000000,   0.00800,
,,,01.427000000000,   0.00000,
,,,01.428000000000,   0.00000,
,,,01.429000000000,   0.00000,
,,,01.430000000000,   0.00000,
,,,01.431000000000,   0.00000,
,,,01.432000000000,   0.00000,
,,,01.433000000000,   0.00000,
,,,01.434000000000,   0.00000,
,,,01.435000000000,   0.00000,
,,,01.436000000000,   0.00000,
,,,01.437000000000,   0.00000,
,,,01.438000000000,   0.03200,
,,,01.439000000000,   0.08800,
,,,01.440000000000,   0.05600,
,,,01.441000000000,   0.03200,
,,,01.442000000000,   0.01600,
,,,01.443000000000,   0.05600,
,,,01.444000000000,   0.03200,
,,,01.445000000000,   0.01600,
,,,01.446000000000,   0.01600,
,,,01.447000000000,   0.00800,
,,,01.448000000000,   0.00800,
,,,01.449000000000,   0.00000,
,,,01.450000000000,   0.00800,
,,,01.451000000000,   0.00000,
,,,01.452000000000,   0.00000,
,,,01.453000000000,   0.00000,
,,,01.454000000000,   0.00000,
,,,01.455000000000,   0.00000,
,,,01.456000000000,  -0.40800,
,,,01.457000000000,   0.04000,
,,,01.458000000000,   0.02400,
,,,01.459000000000,   0.01600,
,,,01.460000000000,   0.01600,
,,,01.461000000000,   0.00800,
,,,01.462000000000,   0.00800,
,,,01.463000000000,   0.00000,
,,,01.464000000000,   0.00800,
,,,01.465000000000,   0.00000,
,,,01.466000000000,   0.00000,
,,,01.467000000000,   0.00000,
,,,01.468000000000,   0.00000,
,,,01.469000000000,   0.00000,
,,,01.470000000000,   0.00000,
,,,01.471000000000,   0.04800,
,,,01.472000000000,   0.02400,
,,,01.473000000000,   0.01600,
,,,01.474000000000,  -0.24800,
,,,01.475000000000,   0.04000,
,,,01.476000000000,   0.02400,
,,,01.477000000000,   0.01600,
,,,01.478000000000,   0.01600,
,,,01.479000000000,   0.00800,
,,,01.480000000000,   0.00800,
,,,01.481000000000,   0.00000,
,,,01.482000000000,   0.00800,
,,,01.483000000000,   0.00800,
,,,01.484000000000,   0.00000,
,,,01.485000000000,   0.00000,
,,,01.486000000000,   0.00000,
,,,01.487000000000,   0.00000,
,,,01.488000000000,   0.00000,
,,,01.489000000000,   0.00000,
,,,01.490000000000,   0.00000,
,,,01.491000000000,   0.00000,
,,,01.492000000000,   0.00000,
,,,01.493000000000,   0.00000,
,,,01.494000000000,   0.00000,
,,,01.495000000000,   0.00000,
,,,01.496000000000,   0.00000,
,,,01.497000000000,   0.00000,
,,,01.498000000000,   0.00000,
,,,01.499000000000,   0.00000,
,,,01.500000000000,   0.00000,
,,,01.501000000000,   0.00000,
,,,01.502000000000,   0.00000,
,,,01.503000000000,   0.00000,
,,,01.504000000000,   0.00000,
,,,01.505000000000,   0.00000,
,,,01.506000000000,   0.00000,
,,,01.507000000000,   0.00000,
,,,01.508000000000,   0.00000,
,,,01.509000000000,   0.00000,
,,,01.510000000000,   0.00000,
,,,01.511000000000,   0.00000,
,,,01.512000000000,   0.00000,
,,,01.513000000000,   0.00000,
,,,01.514000000000,   0.00000,
,,,01.515000000000,   0.00000,
,,,01.516000000000,   0.00000,
,,,01.517000000000,   0.00000,
,,,01.518000000000,   0.00000,
,,,01.519000000000,   0.00000,
,,,01.520000000000,   0.00000,
,,,01.521000000000,   0.00000,
,,,01.522000000000,   0.00000,
,,,01.523000000000,   0.00000,
,,,01.524000000000,   0.00000,
,,,01.525000000000,   0.00000,
,,,01.526000000000,   0.00000,
,,,01.527000000000,   0.00000,
,,,01.528000000000,   0.05600,
,,,01.529000000000,   0.03200,
,,,01.530000000000,   0.02400,
,,,01.531000000000,   0.01600,
,,,01.532000000000,  -0.16000,
,,,01.533000000000,   0.04800,
,,,01.534000000000,   0.03200,
,,,01.535000000000,  -0.07200,
,,,01.536000000000,   0.04000,
,,,01.537000000000,   0.02400,
,,,01.538000000000,   0.01600,
,,,01.539000000000,   0.01600,
,,,01.540000000000,  -0.58400,
,,,01.541000000000,   0.04000,
,,,01.542000000000,   0.02400,
,,,01.543000000000,   0.01600,
,,,01.544000000000,   0.00800,
,,,01.545000000000,   0.00800,
,,,01.546000000000,   0.00800,
,,,01.547000000000,   0.00000,
,,,01.548000000000,   0.00800,
,,,01.549000000000,   0.00000,
,,,01.550000000000,   0.00800,
,,,01.551000000000,   0.00000,
,,,01.552000000000,   0.00000,
,,,01.553000000000,   0.00000,
,,,01.554000000000,   0.00000,
,,,01.555000000000,   0.00000,
,,,01.556000000000,   0.00000,
,,,01.557000000000,   0.00000,
,,,01.558000000000,   0.00800,
,,,01.559000000000,   0.02400,
,,,01.560000000000,   0.01600,
,,,01.561000000000,   0.01600,
,,,01.562000000000,   0.04000,
,,,01.563000000000,   0.02400,
,,,01.564000000000,   0.01600,
,,,01.565000000000,   0.00800,
,,,01.566000000000,   0.00800,
,,,01.567000000000,  -0.00800,
,,,01.568000000000,   0.03200,
,,,01.569000000000,   0.01600,
,,,01.570000000000,   0.01600,
,,,01.571000000000,   0.00800,
,,,01.572000000000,   0.00800,
,,,01.573000000000,   0.00000,
,,,01.574000000000,   0.00800,
,,,01.575000000000,   0.00000,
,,,01.576000000000,   0.00000,
,,,01.577000000000,   0.00000,
,,,01.578000000000,   0.00800,
,,,01.579000000000,   0.04000,
,,,01.580000000000,   0.01600,
,,,01.581000000000,   0.01600,
,,,01.582000000000,   0.00800,
,,,01.583000000000,   0.00800,
,,,01.584000000000,   0.00000,
,,,01.585000000000,   0.00000,
,,,01.586000000000,   0.00000,
,,,01.587000000000,   0.00000,
,,,01.588000000000,   0.00000,
,,,01.589000000000,   0.00000,
,,,01.590000000000,   0.00000,
,,,01.591000000000,   0.00000,
,,,01.592000000000,   0.00000,
,,,01.593000000000,   0.00000,
,,,01.594000000000,   0.00000,
,,,01.595000000000,   0.00000,
,,,01.596000000000,   0.00000,
,,,01.597000000000,  -0.02400,
,,,01.598000000000,   0.03200,
,,,01.599000000000,   0.01600,
,,,01.600000000000,   0.01600,
,,,01.601000000000,   0.00800,
,,,01.602000000000,   0.00800,
,,,01.603000000000,   0.00000,
,,,01.604000000000,   0.00800,
,,,01.605000000000,   0.00000,
,,,01.606000000000,   0.00000,
,,,01.607000000000,   0.00000,
,,,01.608000000000,   0.04800,
,,,01.609000000000,   0.02400,
,,,01.610000000000,   0.01600,
,,,01.611000000000,   0.00800,
,,,01.612000000000,  -0.41600,
,,,01.613000000000,   0.04800,
,,,01.614000000000,   0.03200,
,,,01.615000000000,   0.01600,
,,,01.616000000000,   0.01600,
,,,01.617000000000,   0.00800,
,,,01.618000000000,   0.04000,
,,,01.619000000000,   0.01600,
,,,01.620000000000,   0.04000,
,,,01.621000000000,   0.02400,
,,,01.622000000000,   0.01600,
,,,01.623000000000,   0.00800,
,,,01.624000000000,   0.00800,
,,,01.625000000000,   0.00800,
,,,01.626000000000,   0.00000,
,,,01.627000000000,   0.00800,
,,,01.628000000000,   0.00000,
,,,01.629000000000,   0.00000,
,,,01.630000000000,   0.00000,
,,,01.631000000000,   0.00000,
,,,01.632000000000,   0.00000,
,,,01.633000000000,   0.00000,
,,,01.634000000000,   0.00000,
,,,01.635000000000,   0.00000,
,,,01.636000000000,   0.00000,
,,,01.637000000000,   0.00000,
,,,01.638000000000,   0.00000,
,,,01.639000000000,   0.00000,
,,,01.640000000000,  -0.21600,
,,,01.641000000000,   0.05600,
,,,01.642000000000,   0.03200,
,,,01.643000000000,   0.01600,
,,,01.644000000000,   0.01600,
,,,01.645000000000,   0.00800,
,,,01.646000000000,   0.00800,
,,,01.647000000000,   0.00000,
,,,01.648000000000,   0.00000,
,,,01.649000000000,   0.00000,
,,,01.650000000000,   0.00000,
,,,01.651000000000,   0.00000,
,,,01.652000000000,   0.00800,
,,,01.653000000000,   0.00800,
,,,01.654000000000,   0.00000,
,,,01.655000000000,   0.00000,
,,,01.656000000000,   0.00000,
,,,01.657000000000,   0.00000,
,,,01.658000000000,   0.00000,
,,,01.659000000000,   0.00800,
,,,01.660000000000,   0.00000,
,,,01.661000000000,   0.00000,
,,,01.662000000000,   0.00000,
,,,01.663000000000,   0.00000,
,,,01.664000000000,   0.00000,
,,,01.665000000000,   0.00000,
,,,01.666000000000,   0.00000,
,,,01.667000000000,  -0.27200,
,,,01.668000000000,   0.03200,
,,,01.669000000000,   0.01600,
,,,01.670000000000,   0.01600,
,,,01.671000000000,   0.00800,
,,,01.672000000000,   0.00800,
,,,01.673000000000,   0.00000,
,,,01.674000000000,   0.00000,
,,,01.675000000000,   0.00800,
,,,01.676000000000,   0.00000,
,,,01.677000000000,   0.00800,
,,,01.678000000000,   0.00000,
,,,01.679000000000,   0.00000,
,,,01.680000000000,   0.00000,
,,,01.681000000000,   0.00000,
,,,01.682000000000,   0.00000,
,,,01.683000000000,   0.00000,
,,,01.684000000000,   0.00000,
,,,01.685000000000,   0.00000,
,,,01.686000000000,   0.00000,
,,,01.687000000000,   0.00000,
,,,01.688000000000,   0.00000,
,,,01.689000000000,   0.00800,
,,,01.690000000000,   0.00800,
,,,01.691000000000,   0.00000,
,,,01.692000000000,   0.00000,
,,,01.693000000000,   0.00000,
,,,01.694000000000,   0.00000,
,,,01.695000000000,   0.00000,
,,,01.696000000000,   0.00000,
,,,01.697000000000,   0.00000,
,,,01.698000000000,   0.00000,
,,,01.699000000000,   0.00000,
,,,01.700000000000,   0.00000,
,,,01.701000000000,   0.00000,
,,,01.702000000000,   0.00000,
,,,01.703000000000,   0.00000,
,,,01.704000000000,   0.00000,
,,,01.705000000000,   0.00000,
,,,01.706000000000,   0.00000,
,,,01.707000000000,   0.00000,
,,,01.708000000000,  -0.12000,
,,,01.709000000000,   0.04000,
,,,01.710000000000,   0.02400,
,,,01.711000000000,   0.01600,
,,,01.712000000000,   0.00800,
,,,01.713000000000,   0.00800,
,,,01.714000000000,   0.00000,
,,,01.715000000000,   0.00800,
,,,01.716000000000,   0.00800,
,,,01.717000000000,   0.00000,
,,,01.718000000000,   0.00000,
,,,01.719000000000,   0.00000,
,,,01.720000000000,   0.00000,
,,,01.721000000000,   0.00000,
,,,01.722000000000,   0.00000,
,,,01.723000000000,   0.00000,
,,,01.724000000000,   0.00000,
,,,01.725000000000,   0.00000,
,,,01.726000000000,   0.00000,
,,,01.727000000000,   0.00000,
,,,01.728000000000,   0.00000,
,,,01.729000000000,   0.04800,
,,,01.730000000000,   0.03200,
,,,01.731000000000,   0.01600,
,,,01.732000000000,   0.00800,
,,,01.733000000000,   0.00800,
,,,01.734000000000,   0.00000,
,,,01.735000000000,   0.00800,
,,,01.736000000000,   0.00000,
,,,01.737000000000,   0.00800,
,,,01.738000000000,   0.00000,
,,,01.739000000000,   0.00000,
,,,01.740000000000,   0.00000,
,,,01.741000000000,   0.00000,
,,,01.742000000000,   0.00000,
,,,01.743000000000,   0.00000,
,,,01.744000000000,   0.00000,
,,,01.745000000000,   0.00000,
,,,01.746000000000,   0.00000,
,,,01.747000000000,   0.00000,
,,,01.748000000000,   0.00000,
,,,01.749000000000,   0.00000,
,,,01.750000000000,   0.00000,
,,,01.751000000000,   0.00000,
,,,01.752000000000,   0.00000,
,,,01.753000000000,  -0.32000,
,,,01.754000000000,   0.04000,
,,,01.755000000000,   0.02400,
,,,01.756000000000,   0.05600,
,,,01.757000000000,   0.04000,
,,,01.758000000000,   0.02400,
,,,01.759000000000,   0.01600,
,,,01.760000000000,   0.00800,
,,,01.761000000000,   0.00800,
,,,01.762000000000,   0.00000,
,,,01.763000000000,   0.00000,
,,,01.764000000000,   0.00000,
,,,01.765000000000,   0.00800,
,,,01.766000000000,   0.00000,
,,,01.767000000000,   0.00000,
,,,01.768000000000,   0.00000,
,,,01.769000000000,   0.00000,
,,,01.770000000000,   0.00000,
,,,01.771000000000,   0.00000,
,,,01.772000000000,   0.00000,
,,,01.773000000000,   0.00000,
,,,01.774000000000,   0.00000,
,,,01.775000000000,   0.00000,
,,,01.776000000000,   0.00000,
,,,01.777000000000,   0.00800,
,,,01.778000000000,   0.00000,
,,,01.779000000000,   0.00000,
,,,01.780000000000,   0.05600,
,,,01.781000000000,   0.03200,
,,,01.782000000000,   0.01600,
,,,01.783000000000,   0.01600,
,,,01.784000000000,   0.00800,
,,,01.785000000000,   0.00800,
,,,01.786000000000,   0.00800,
,,,01.787000000000,   0.00800,
,,,01.788000000000,   0.00000,
,,,01.789000000000,   0.00000,
,,,01.790000000000,   0.00000,
,,,01.791000000000,   0.00000,
,,,01.792000000000,   0.00000,
,,,01.793000000000,   0.00000,
,,,01.794000000000,   0.00000,
,,,01.795000000000,   0.00000,
,,,01.796000000000,   0.00000,
,,,01.797000000000,   0.00000,
,,,01.798000000000,   0.00800,
,,,01.799000000000,   0.00000,
,,,01.800000000000,   0.00000,
,,,01.801000000000,   0.00000,
,,,01.802000000000,   0.00000,
,,,01.803000000000,   0.00000,
,,,01.804000000000,   0.00000,
,,,01.805000000000,   0.00000,
,,,01.806000000000,   0.00000,
,,,01.807000000000,   0.00000,
,,,01.808000000000,   0.06400,
,,,01.809000000000,   0.03200,
,,,01.810000000000,   0.02400,
,,,01.811000000000,   0.01600,
,,,01.812000000000,   0.00800,
,,,01.813000000000,   0.00800,
,,,01.814000000000,   0.00800,
,,,01.815000000000,   0.00000,
,,,01.816000000000,   0.00000,
,,,01.817000000000,   0.00000,
,,,01.818000000000,   0.00000,
,,,01.819000000000,   0.00000,
,,,01.820000000000,   0.00000,
,,,01.821000000000,   0.00000,
,,,01.822000000000,   0.00000,
,,,01.823000000000,   0.00000,
,,,01.824000000000,   0.00000,
,,,01.825000000000,   0.00000,
,,,01.826000000000,   0.00000,
,,,01.827000000000,   0.00000,
,,,01.828000000000,   0.00000,
,,,01.829000000000,   0.00000,
,,,01.830000000000,   0.00000,
,,,01.831000000000,   0.00000,
,,,01.832000000000,   0.00000,
,,,01.833000000000,   0.00000,
,,,01.834000000000,   0.00000,
,,,01.835000000000,   0.00000,
,,,01.836000000000,   0.00000,
,,,01.837000000000,   0.00000,
,,,01.838000000000,   0.00000,
,,,01.839000000000,   0.00000,
,,,01.840000000000,   0.00000,
,,,01.841000000000,   0.00000,
,,,01.842000000000,   0.00000,
,,,01.843000000000,   0.00000,
,,,01.844000000000,   0.00000,
,,,01.845000000000,   0.00000,
,,,01.846000000000,   0.00000,
,,,01.847000000000,   0.00000,
,,,01.848000000000,   0.00000,
,,,01.849000000000,   0.00000,
,,,01.850000000000,   0.00000,
,,,01.851000000000,   0.00000,
,,,01.852000000000,   0.00000,
,,,01.853000000000,   0.00000,
,,,01.854000000000,   0.00000,
,,,01.855000000000,   0.00000,
,,,01.856000000000,   0.00000,
,,,01.857000000000,   0.00000,
,,,01.858000000000,   0.00000,
,,,01.859000000000,   0.00800,
,,,01.860000000000,   0.00000,
,,,01.861000000000,   0.00000,
,,,01.862000000000,   0.00000,
,,,01.863000000000,   0.00000,
,,,01.864000000000,   0.00000,
,,,01.865000000000,   0.00000,
,,,01.866000000000,   0.00000,
,,,01.867000000000,   0.00000,
,,,01.868000000000,   0.00000,
,,,01.869000000000,   0.00000,
,,,01.870000000000,   0.00000,
,,,01.871000000000,   0.00000,
,,,01.872000000000,   0.00000,
,,,01.873000000000,   0.00000,
,,,01.874000000000,   0.00000,
,,,01.875000000000,   0.00000,
,,,01.876000000000,   0.00000,
,,,01.877000000000,   0.00000,
,,,01.878000000000,   0.00000,
,,,01.879000000000,   0.00000,
,,,01.880000000000,  -0.85600,
,,,01.881000000000,   0.09600,
,,,01.882000000000,   0.05600,
,,,01.883000000000,   0.04000,
,,,01.884000000000,   0.02400,
,,,01.885000000000,   0.01600,
,,,01.886000000000,   0.00800,
,,,01.887000000000,   0.00800,
,,,01.888000000000,   0.00800,
,,,01.889000000000,   0.00800,
,,,01.890000000000,   0.00000,
,,,01.891000000000,   0.00000,
,,,01.892000000000,   0.00000,
,,,01.893000000000,   0.00000,
,,,01.894000000000,  -0.31200,
,,,01.895000000000,   0.04800,
,,,01.896000000000,   0.03200,
,,,01.897000000000,   0.01600,
,,,01.898000000000,   0.01600,
,,,01.899000000000,   0.00800,
,,,01.900000000000,   0.00800,
,,,01.901000000000,   0.00800,
,,,01.902000000000,   0.00800,
,,,01.903000000000,   0.00000,
,,,01.904000000000,   0.00000,
,,,01.905000000000,   0.00000,
,,,01.906000000000,   0.00000,
,,,01.907000000000,   0.00000,
,,,01.908000000000,   0.00000,
,,,01.909000000000,   0.00000,
,,,01.910000000000,   0.00000,
,,,01.911000000000,   0.00000,
,,,01.912000000000,   0.00000,
,,,01.913000000000,   0.00000,
,,,01.914000000000,   0.05600,
,,,01.915000000000,   0.03200,
,,,01.916000000000,   0.01600,
,,,01.917000000000,   0.01600,
,,,01.918000000000,   0.01600,
,,,01.919000000000,   0.00800,
,,,01.920000000000,   0.00000,
,,,01.921000000000,  -0.22400,
,,,01.922000000000,   0.04000,
,,,01.923000000000,   0.07200,
,,,01.924000000000,   0.04000,
,,,01.925000000000,   0.03200,
,,,01.926000000000,   0.01600,
,,,01.927000000000,   0.00800,
,,,01.928000000000,   0.00800,
,,,01.929000000000,   0.00800,
,,,01.930000000000,   0.00800,
,,,01.931000000000,   0.00800,
,,,01.932000000000,   0.00000,
,,,01.933000000000,   0.00000,
,,,01.934000000000,   0.00000,
,,,01.935000000000,   0.00000,
,,,01.936000000000,   0.00000,
,,,01.937000000000,   0.00000,
,,,01.938000000000,   0.00000,
,,,01.939000000000,   0.05600,
,,,01.940000000000,   0.06400,
,,,01.941000000000,   0.04000,
,,,01.942000000000,   0.02400,
,,,01.943000000000,   0.01600,
,,,01.944000000000,   0.01600,
,,,01.945000000000,   0.00800,
,,,01.946000000000,   0.00000,
,,,01.947000000000,   0.00000,
,,,01.948000000000,   0.00000,
,,,01.949000000000,   0.00800,
,,,01.950000000000,   0.00000,
,,,01.951000000000,   0.00000,
,,,01.952000000000,   0.00000,
,,,01.953000000000,   0.00000,
,,,01.954000000000,   0.00800,
,,,01.955000000000,   0.00000,
,,,01.956000000000,   0.00000,
,,,01.957000000000,   0.00800,
,,,01.958000000000,   0.00000,
,,,01.959000000000,   0.00000,
,,,01.960000000000,   0.00000,
,,,01.961000000000,   0.00000,
,,,01.962000000000,   0.00000,
,,,01.963000000000,   0.00000,
,,,01.964000000000,   0.00000,
,,,01.965000000000,   0.00000,
,,,01.966000000000,   0.00000,
,,,01.967000000000,   0.00800,
,,,01.968000000000,   0.00000,
,,,01.969000000000,   0.00000,
,,,01.970000000000,   0.00000,
,,,01.971000000000,   0.00000,
,,,01.972000000000,   0.00000,
,,,01.973000000000,   0.00000,
,,,01.974000000000,   0.00000,
,,,01.975000000000,   0.00000,
,,,01.976000000000,   0.00000,
,,,01.977000000000,   0.00000,
,,,01.978000000000,   0.00000,
,,,01.979000000000,   0.00000,
,,,01.980000000000,   0.04800,
,,,01.981000000000,   0.03200,
,,,01.982000000000,   0.01600,
,,,01.983000000000,   0.00800,
,,,01.984000000000,   0.00800,
,,,01.985000000000,   0.00800,
,,,01.986000000000,   0.00000,
,,,01.987000000000,   0.00000,
,,,01.988000000000,   0.00000,
,,,01.989000000000,   0.00000,
,,,01.990000000000,   0.00000,
,,,01.991000000000,   0.00000,
,,,01.992000000000,   0.00000,
,,,01.993000000000,   0.00000,
,,,01.994000000000,   0.00000,
,,,01.995000000000,   0.00000,
,,,01.996000000000,   0.00000,
,,,01.997000000000,   0.00000,
,,,01.998000000000,   0.00000,
,,,01.999000000000,   0.00000,
,,,02.000000000000,   0.00000,
,,,02.001000000000,   0.00000,
,,,02.002000000000,   0.00000,
,,,02.003000000000,   0.00800,
,,,02.004000000000,   0.00000,
,,,02.005000000000,   0.00000,
,,,02.006000000000,   0.00000,
,,,02.007000000000,   0.00000,
,,,02.008000000000,   0.00000,
,,,02.009000000000,   0.00000,
,,,02.010000000000,   0.00000,
,,,02.011000000000,   0.00000,
,,,02.012000000000,   0.00000,
,,,02.013000000000,   0.02400,
,,,02.014000000000,   0.04000,
,,,02.015000000000,   0.02400,
,,,02.016000000000,  -0.26400,
,,,02.017000000000,   0.04800,
,,,02.018000000000,   0.03200,
,,,02.019000000000,   0.01600,
,,,02.020000000000,   0.01600,
,,,02.021000000000,   0.00800,
,,,02.022000000000,   0.00800,
,,,02.023000000000,   0.00800,
,,,02.024000000000,   0.00000,
,,,02.025000000000,   0.00000,
,,,02.026000000000,   0.00000,
,,,02.027000000000,   0.00000,
,,,02.028000000000,   0.00000,
,,,02.029000000000,   0.00000,
,,,02.030000000000,   0.00000,
,,,02.031000000000,   0.00000,
,,,02.032000000000,   0.00000,
,,,02.033000000000,   0.00000,
,,,02.034000000000,   0.00000,
,,,02.035000000000,   0.00000,
,,,02.036000000000,   0.00000,
,,,02.037000000000,   0.00000,
,,,02.038000000000,   0.00000,
,,,02.039000000000,   0.00000,
,,,02.040000000000,   0.00000,
,,,02.041000000000,   0.00000,
,,,02.042000000000,   0.00000,
,,,02.043000000000,   0.00000,
,,,02.044000000000,   0.00000,
,,,02.045000000000,   0.00000,
,,,02.046000000000,   0.00000,
,,,02.047000000000,   0.00000,
,,,02.048000000000,   0.00000,
,,,02.049000000000,   0.00000,
,,,02.050000000000,   0.00000,
,,,02.051000000000,   0.00000,
,,,02.052000000000,   0.06400,
,,,02.053000000000,   0.04000,
,,,02.054000000000,   0.02400,
,,,02.055000000000,   0.01600,
,,,02.056000000000,  -0.20000,
,,,02.057000000000,   0.04800,
,,,02.058000000000,   0.03200,
,,,02.059000000000,   0.01600,
,,,02.060000000000,   0.01600,
,,,02.061000000000,   0.00800,
,,,02.062000000000,   0.00800,
,,,02.063000000000,   0.00000,
,,,02.064000000000,   0.00000,
,,,02.065000000000,   0.00000,
,,,02.066000000000,   0.00000,
,,,02.067000000000,   0.00000,
,,,02.068000000000,   0.00000,
,,,02.069000000000,  -0.97600,
,,,02.070000000000,   0.08800,
,,,02.071000000000,   0.05600,
,,,02.072000000000,   0.03200,
,,,02.073000000000,   0.02400,
,,,02.074000000000,   0.01600,
,,,02.075000000000,   0.00800,
,,,02.076000000000,   0.00800,
,,,02.077000000000,   0.00000,
,,,02.078000000000,   0.00000,
,,,02.079000000000,   0.00000,
,,,02.080000000000,   0.04000,
,,,02.081000000000,   0.02400,
,,,02.082000000000,   0.01600,
,,,02.083000000000,   0.00800,
,,,02.084000000000,   0.00800,
,,,02.085000000000,   0.00800,
,,,02.086000000000,   0.00800,
,,,02.087000000000,   0.00800,
,,,02.088000000000,   0.00000,
,,,02.089000000000,   0.00000,
,,,02.090000000000,   0.00000,
,,,02.091000000000,   0.00000,
,,,02.092000000000,   0.00000,
,,,02.093000000000,   0.00000,
,,,02.094000000000,   0.04000,
,,,02.095000000000,   0.02400,
,,,02.096000000000,   0.01600,
,,,02.097000000000,   0.00800,
,,,02.098000000000,   0.00800,
,,,02.099000000000,   0.00000,
,,,02.100000000000,   0.00000,
,,,02.101000000000,   0.00000,
,,,02.102000000000,   0.00000,
,,,02.103000000000,   0.00000,
,,,02.104000000000,   0.00000,
,,,02.105000000000,   0.00000,
,,,02.106000000000,   0.00000,
,,,02.107000000000,   0.00000,
,,,02.108000000000,   0.00000,
,,,02.109000000000,   0.00000,
,,,02.110000000000,   0.00000,
,,,02.111000000000,   0.00000,
,,,02.112000000000,   0.00000,
,,,02.113000000000,   0.00000,
,,,02.114000000000,   0.00000,
,,,02.115000000000,   0.00000,
,,,02.116000000000,   0.00000,
,,,02.117000000000,   0.05600,
,,,02.118000000000,   0.03200,
,,,02.119000000000,   0.01600,
,,,02.120000000000,   0.01600,
,,,02.121000000000,   0.00800,
,,,02.122000000000,   0.00000,
,,,02.123000000000,   0.00000,
,,,02.124000000000,   0.03200,
,,,02.125000000000,   0.03200,
,,,02.126000000000,   0.05600,
,,,02.127000000000,   0.04000,
,,,02.128000000000,   0.05600,
,,,02.129000000000,   0.03200,
,,,02.130000000000,   0.02400,
,,,02.131000000000,   0.01600,
,,,02.132000000000,   0.00800,
,,,02.133000000000,   0.00800,
,,,02.134000000000,   0.00000,
,,,02.135000000000,   0.00000,
,,,02.136000000000,   0.00800,
,,,02.137000000000,   0.00000,
,,,02.138000000000,   0.00000,
,,,02.139000000000,   0.00000,
,,,02.140000000000,   0.00000,
,,,02.141000000000,   0.00000,
,,,02.142000000000,   0.00000,
,,,02.143000000000,   0.00000,
,,,02.144000000000,   0.00000,
,,,02.145000000000,   0.00000,
,,,02.146000000000,   0.00000,
,,,02.147000000000,   0.00000,
,,,02.148000000000,   0.00000,
,,,02.149000000000,   0.00000,
,,,02.150000000000,   0.00000,
,,,02.151000000000,   0.00000,
,,,02.152000000000,   0.00000,
,,,02.153000000000,   0.00000,
,,,02.154000000000,   0.00000,
,,,02.155000000000,   0.04000,
,,,02.156000000000,   0.02400,
,,,02.157000000000,   0.01600,
,,,02.158000000000,   0.01600,
,,,02.159000000000,   0.00000,
,,,02.160000000000,   0.00000,
,,,02.161000000000,   0.00000,
,,,02.162000000000,   0.00000,
,,,02.163000000000,   0.00000,
,,,02.164000000000,   0.00000,
,,,02.165000000000,   0.00000,
,,,02.166000000000,   0.00000,
,,,02.167000000000,  -0.94400,
,,,02.168000000000,   0.04000,
,,,02.169000000000,   0.01600,
,,,02.170000000000,   0.01600,
,,,02.171000000000,   0.04000,
,,,02.172000000000,   0.02400,
,,,02.173000000000,   0.01600,
,,,02.174000000000,   0.00800,
,,,02.175000000000,   0.00800,
,,,02.176000000000,   0.00800,
,,,02.177000000000,   0.00000,
,,,02.178000000000,   0.00000,
,,,02.179000000000,   0.00000,
,,,02.180000000000,   0.00000,
,,,02.181000000000,   0.04000,
,,,02.182000000000,   0.02400,
,,,02.183000000000,   0.01600,
,,,02.184000000000,   0.00800,
,,,02.185000000000,   0.00800,
,,,02.186000000000,   0.00000,
,,,02.187000000000,   0.00000,
,,,02.188000000000,   0.00800,
,,,02.189000000000,   0.00000,
,,,02.190000000000,   0.00000,
,,,02.191000000000,   0.00000,
,,,02.192000000000,   0.00000,
,,,02.193000000000,   0.00000,
,,,02.194000000000,   0.04000,
,,,02.195000000000,  -0.23200,
,,,02.196000000000,   0.04000,
,,,02.197000000000,   0.02400,
,,,02.198000000000,   0.01600,
,,,02.199000000000,   0.00800,
,,,02.200000000000,   0.00800,
,,,02.201000000000,   0.00800,
,,,02.202000000000,   0.00000,
,,,02.203000000000,   0.00800,
,,,02.204000000000,  -0.41600,
,,,02.205000000000,   0.03200,
,,,02.206000000000,   0.01600,
,,,02.207000000000,   0.00800,
,,,02.208000000000,   0.04000,
,,,02.209000000000,   0.02400,
,,,02.210000000000,   0.00800,
,,,02.211000000000,   0.00800,
,,,02.212000000000,   0.00800,
,,,02.213000000000,   0.00800,
,,,02.214000000000,   0.00800,
,,,02.215000000000,   0.00000,
,,,02.216000000000,   0.00800,
,,,02.217000000000,   0.00000,
,,,02.218000000000,   0.00000,
,,,02.219000000000,   0.00000,
,,,02.220000000000,   0.00000,
,,,02.221000000000,   0.03200,
,,,02.222000000000,   0.02400,
,,,02.223000000000,   0.00800,
,,,02.224000000000,   0.00800,
,,,02.225000000000,   0.00800,
,,,02.226000000000,   0.00800,
,,,02.227000000000,   0.00000,
,,,02.228000000000,   0.00000,
,,,02.229000000000,   0.00000,
,,,02.230000000000,   0.00000,
,,,02.231000000000,   0.00000,
,,,02.232000000000,   0.00000,
,,,02.233000000000,   0.04000,
,,,02.234000000000,   0.01600,
,,,02.235000000000,   0.01600,
,,,02.236000000000,   0.00800,
,,,02.237000000000,   0.00800,
,,,02.238000000000,   0.00800,
,,,02.239000000000,   0.00000,
,,,02.240000000000,   0.00800,
,,,02.241000000000,   0.00000,
,,,02.242000000000,   0.00000,
,,,02.243000000000,   0.00000,
,,,02.244000000000,   0.00000,
,,,02.245000000000,  -0.07200,
,,,02.246000000000,   0.03200,
,,,02.247000000000,   0.01600,
,,,02.248000000000,   0.01600,
,,,02.249000000000,   0.00800,
,,,02.250000000000,   0.00800,
,,,02.251000000000,   0.00000,
,,,02.252000000000,   0.00000,
,,,02.253000000000,   0.00800,
,,,02.254000000000,   0.00000,
,,,02.255000000000,   0.00000,
,,,02.256000000000,   0.00000,
,,,02.257000000000,   0.00000,
,,,02.258000000000,   0.00000,
,,,02.259000000000,   0.00000,
,,,02.260000000000,   0.00000,
,,,02.261000000000,   0.00000,
,,,02.262000000000,   0.00000,
,,,02.263000000000,   0.00000,
,,,02.264000000000,   0.00000,
,,,02.265000000000,   0.00000,
,,,02.266000000000,   0.00000,
,,,02.267000000000,   0.00000,
,,,02.268000000000,   0.00000,
,,,02.269000000000,   0.00000,
,,,02.270000000000,   0.00000,
,,,02.271000000000,   0.00000,
,,,02.272000000000,   0.00000,
,,,02.273000000000,   0.00000,
,,,02.274000000000,   0.00000,
,,,02.275000000000,   0.00000,
,,,02.276000000000,   0.00000,
,,,02.277000000000,   0.00000,
,,,02.278000000000,   0.00000,
,,,02.279000000000,   0.00000,
,,,02.280000000000,   0.00000,
,,,02.281000000000,   0.00000,
,,,02.282000000000,   0.00000,
,,,02.283000000000,   0.00000,
,,,02.284000000000,   0.00000,
,,,02.285000000000,   0.00000,
,,,02.286000000000,   0.00000,
,,,02.287000000000,   0.00000,
,,,02.288000000000,   0.00000,
,,,02.289000000000,   0.00000,
,,,02.290000000000,   0.00000,
,,,02.291000000000,   0.00000,
,,,02.292000000000,   0.00000,
,,,02.293000000000,   0.00000,
,,,02.294000000000,   0.00000,
,,,02.295000000000,   0.00000,
,,,02.296000000000,   0.00000,
,,,02.297000000000,   0.00000,
,,,02.298000000000,   0.00000,
,,,02.299000000000,   0.00000,
,,,02.300000000000,   0.00000,
,,,02.301000000000,   0.00000,
,,,02.302000000000,   0.00000,
,,,02.303000000000,   0.00000,
,,,02.304000000000,   0.00000,
,,,02.305000000000,   0.00000,
,,,02.306000000000,   0.00000,
,,,02.307000000000,   0.00000,
,,,02.308000000000,   0.00000,
,,,02.309000000000,   0.00000,
,,,02.310000000000,   0.00000,
,,,02.311000000000,   0.00000,
,,,02.312000000000,   0.00000,
,,,02.313000000000,   0.00000,
,,,02.314000000000,   0.00000,
,,,02.315000000000,   0.05600,
,,,02.316000000000,   0.03200,
,,,02.317000000000,   0.02400,
,,,02.318000000000,  -0.25600,
,,,02.319000000000,   0.04800,
