Cut N;Cut E/E_G;N_sel;Effizienz;sig_N_sel;sig_Effizienz;Lumino. 1/nb;Wirkungsq. nb;sig_Wq. nb (stat);sig_Wq. nb (syst);sig_Wq_tot nb
89,48GeV - Hadronen;;;;;;;;;;
20;0,7;1716;0,9607;41,42463035;0,001943078;175,4;10,1835665;0,246694949;0,053736907;0,252479807
22;0,7;1694;0,9431;41,15823125;0,002316514;175,4;10,24061578;0,250079122;;
18;0,7;1731;0,9693;41,60528813;0,001725037;175,4;10,1814414;0,245384986;;
20;0,65;1729;0,9697;41,58124577;0,001714115;175,4;10,16548277;0,245132281;;
20;0,75;1670;0,9452;40,86563348;0,002275895;175,4;10,07310055;0,247683616;;
22;0,75;1648;0,9278;40,59556626;0,002588188;175,4;10,12682372;0,251050877;;
18;0,75;1685;0,9536;41,0487515;0,002103498;175,4;10,07404934;0,246420716;;
18;0,65;1744;0,9783;41,76122604;0,001457021;175,4;10,16353619;0,243842833;;
22;0,65;1707;0,9521;41,31585652;0,002135547;176,4;10,16371258;0,247054341;;
;;;;;;;;;;
91,33GeV - Hadronen;;;;;;;;;;
19;0,7;3850;0,9651;62,04836823;0,001835265;134,4;29,68172556;0,481682799;0,14475042;0,502962228
17;0,7;3882;0,9651;62,30569797;0,001835265;134,4;29,92843081;0,483708055;;
21;0,7;3795;0,9526;61,60357133;0,002124929;134,4;29,64161993;0,485689016;;
19;0,75;3776;0,9495;61,44916598;0,002189743;134,4;29,58950826;0,48633946;;
19;0,65;3880;0,9741;62,28964601;0,00158837;134,4;29,6366365;0,478235434;;
17;0,65;3914;0,9813;62,56196928;0,001354633;134,4;29,6769834;0,476127164;;
17;0,75;3807;0,9566;61,7008914;0,002037558;134,4;29,61101072;0,484038978;;
21;0,75;3721;0,9372;61;0,002426029;134,4;29,54119922;0,490282257;;
21;0,65;3825;0,9616;61,84658438;0,001921599;135,4;29,37773578;0,478623864;;
;;;;;;;;;;
93,02GeV - Hadronen;;;;;;;;;;
20;0,7;2060;0,9607;45,38722287;0,001943078;151,1;14,19106422;0,313981156;0,090653487;0,32680609
21;0,7;2050;0,9526;45,27692569;0,002124929;151,1;14,24225704;0,316159095;;
18;0,7;2080;0,9693;45,607017;0,001725037;151,1;14,20171058;0,312417125;;
20;0,75;2020;0,9425;44,94441011;0,002327955;151,1;14,18422286;0,317533495;;
20;0,65;2098;0,9607;45,80392996;0,001943078;151,1;14,45284113;0,316888286;;
21;0,65;2079;0,9616;45,59605246;0,001921599;151,1;14,30854818;0,315111081;;
21;0,75;2011;0,9372;44,84417465;0,002426029;151,1;14,20088225;0,318798216;;
18;0,75;2040;0,9536;45,16635916;0,002103498;151,1;14,15792022;0,315013518;;
18;0,65;2109;0,9783;45,92385001;0,001457021;151,1;14,26724312;0,311397576;;
;;;;;;;;;;
